by-Nian/matrixFace/simulation/qsim/matrixFace.msim.vcd
$comment
	File created using the following command:
		vcd file matrixFace.msim.vcd -direction
$end
$date
	Wed May 26 03:17:50 2021
$end
$version
	ModelSim Version 10.1e
$end
$timescale
	1ps
$end
$scope module matrixFace_vlg_vec_tst $end
$var reg 1 ! clk $end
$var reg 1 " gameStatus $end
$var reg 1 # TFS $end
$var wire 1 $ col_s [0] $end
$var wire 1 % col_s [1] $end
$var wire 1 & col_s [2] $end
$var wire 1 ' col_s [3] $end
$var wire 1 ( col_s [4] $end
$var wire 1 ) col_s [5] $end
$var wire 1 * col_s [6] $end
$var wire 1 + col_s [7] $end
$var wire 1 , row_s [0] $end
$var wire 1 - row_s [1] $end
$var wire 1 . row_s [2] $end
$var wire 1 / row_s [3] $end
$var wire 1 0 row_s [4] $end
$var wire 1 1 row_s [5] $end
$var wire 1 2 row_s [6] $end
$var wire 1 3 row_s [7] $end
$var wire 1 4 sampler $end
$scope module i1 $end
$var wire 1 5 gnd $end
$var wire 1 6 vcc $end
$var wire 1 7 unknown $end
$var tri1 1 8 devclrn $end
$var tri1 1 9 devpor $end
$var tri1 1 : devoe $end
$var wire 1 ; gameStatus~input_o $end
$var wire 1 < ~QUARTUS_CREATED_GND~I_combout $end
$var wire 1 = clk~input_o $end
$var wire 1 > clk~inputCLKENA0_outclk $end
$var wire 1 ? TFS~input_o $end
$var wire 1 @ cnt[0]~2_combout $end
$var wire 1 A cnt[0]~DUPLICATE_q $end
$var wire 1 B cnt[1]~0_combout $end
$var wire 1 C cnt[1]~DUPLICATE_q $end
$var wire 1 D cnt[2]~1_combout $end
$var wire 1 E col_s~0_combout $end
$var wire 1 F col_s[6]~reg0_q $end
$var wire 1 G cnt[2]~DUPLICATE_q $end
$var wire 1 H Mux2~0_combout $end
$var wire 1 I col_s[5]~reg0_q $end
$var wire 1 J col_s~1_combout $end
$var wire 1 K col_s[4]~reg0_q $end
$var wire 1 L col_s[3]~reg0_q $end
$var wire 1 M col_s[2]~reg0_q $end
$var wire 1 N col_s[1]~reg0_q $end
$var wire 1 O Mux3~0_combout $end
$var wire 1 P row_s[7]~reg0_q $end
$var wire 1 Q Mux3~1_combout $end
$var wire 1 R row_s[6]~reg0_q $end
$var wire 1 S Mux3~2_combout $end
$var wire 1 T row_s[5]~reg0_q $end
$var wire 1 U Mux3~3_combout $end
$var wire 1 V row_s[4]~reg0_q $end
$var wire 1 W Mux3~4_combout $end
$var wire 1 X row_s[3]~reg0_q $end
$var wire 1 Y Mux3~5_combout $end
$var wire 1 Z row_s[2]~reg0_q $end
$var wire 1 [ Mux3~6_combout $end
$var wire 1 \ row_s[1]~reg0_q $end
$var wire 1 ] Mux3~7_combout $end
$var wire 1 ^ row_s[0]~reg0_q $end
$var wire 1 _ cnt [2] $end
$var wire 1 ` cnt [1] $end
$var wire 1 a cnt [0] $end
$upscope $end
$upscope $end
$enddefinitions $end
#0
$dumpvars
0!
0"
0#
0+
0*
0)
0(
0'
0&
0%
0$
03
02
01
00
0/
0.
0-
0,
x4
05
16
x7
18
19
1:
0;
0<
0=
0>
0?
1@
0A
0B
0C
0D
0E
0F
0G
0H
0I
0J
0K
0L
0M
0N
1O
0P
1Q
0R
1S
0T
1U
0V
1W
0X
1Y
0Z
1[
0\
0]
0^
0a
0`
0_
$end
#10000
1!
1=
1>
04
1A
1a
1\
1Z
1X
1V
1T
1R
1P
1B
1H
0[
1]
0@
1-
1.
1/
10
11
12
13
#20000
1"
0!
1;
0=
0>
14
#30000
1!
1=
1>
04
1C
1`
0A
0a
1^
0\
1M
1I
0Y
1[
1@
1,
0-
1&
1)
#40000
1#
0"
0!
1?
0;
0=
0>
14
#50000
1!
1=
1>
04
1A
1a
1\
0Z
0B
0W
0@
1D
1Y
1-
0.
#60000
1"
0!
1;
0=
0>
14
#70000
1!
1=
1>
04
1G
1_
0C
0`
0A
0a
1Z
0X
0H
0U
1W
1@
1.
0/
#80000
0#
0"
0!
0?
0;
0=
0>
14
#90000
1!
1=
1>
04
1A
1a
1X
0V
0M
0I
1B
0S
0@
1J
1U
1/
00
0&
0)
#100000
1"
0!
1;
0=
0>
14
#110000
1!
1=
1>
04
1C
1`
0A
0a
1V
0T
1L
1K
0Q
1S
1H
0J
1@
10
01
1'
1(
#120000
1#
0"
0!
1?
0;
0=
0>
14
#130000
1!
1=
1>
04
1A
1a
1T
0R
1M
0L
0K
1I
0B
0H
0O
1Q
0@
0D
1J
11
02
1&
0'
0(
1)
#140000
1"
0!
1;
0=
0>
14
#150000
1!
1=
1>
04
0G
0_
0C
0`
0A
0a
1R
0P
0M
1L
1K
0I
1O
0]
0J
1@
12
03
0&
1'
1(
0)
#160000
0#
0"
0!
0?
0;
0=
0>
14
#170000
1!
1=
1>
04
1A
1a
0^
1P
0L
0K
1B
1H
0[
1]
0@
0,
13
0'
0(
#180000
1"
0!
1;
0=
0>
14
#190000
1!
1=
1>
04
1C
1`
0A
0a
1^
0\
1M
1I
0Y
1[
1@
1,
0-
1&
1)
#200000
1#
0"
0!
1?
0;
0=
0>
14
#210000
1!
1=
1>
04
1A
1a
1\
0Z
0B
0W
0@
1D
1Y
1-
0.
#220000
1"
0!
1;
0=
0>
14
#230000
1!
1=
1>
04
1G
1_
0C
0`
0A
0a
1Z
0X
0H
0U
1W
1@
1.
0/
#240000
0#
0"
0!
0?
0;
0=
0>
14
#250000
1!
1=
1>
04
1A
1a
1X
0V
0M
0I
1B
0S
0@
1J
1U
1/
00
0&
0)
#260000
1"
0!
1;
0=
0>
14
#270000
1!
1=
1>
04
1C
1`
0A
0a
1V
0T
1L
1K
0Q
1S
1H
0J
1@
10
01
1'
1(
#280000
1#
0"
0!
1?
0;
0=
0>
14
#290000
1!
1=
1>
04
1A
1a
1T
0R
1M
0L
0K
1I
0B
0H
0O
1Q
0@
0D
1J
11
02
1&
0'
0(
1)
#300000
1"
0!
1;
0=
0>
14
#310000
1!
1=
1>
04
0G
0_
0C
0`
0A
0a
1R
0P
0M
1L
1K
0I
1O
0]
0J
1@
12
03
0&
1'
1(
0)
#320000
0#
0"
0!
0?
0;
0=
0>
14
#330000
1!
1=
1>
04
1A
1a
0^
1P
0L
0K
1B
1H
0[
1]
0@
0,
13
0'
0(
#340000
1"
0!
1;
0=
0>
14
#350000
1!
1=
1>
04
1C
1`
0A
0a
1^
0\
1M
1I
0Y
1[
1@
1,
0-
1&
1)
#360000
1#
0"
0!
1?
0;
0=
0>
14
#370000
1!
1=
1>
04
1A
1a
1\
0Z
0B
0W
0@
1D
1Y
1-
0.
#380000
1"
0!
1;
0=
0>
14
#390000
1!
1=
1>
04
1G
1_
0C
0`
0A
0a
1Z
0X
0H
0U
1W
1@
1.
0/
#400000
0#
0"
0!
0?
0;
0=
0>
14
#410000
1!
1=
1>
04
1A
1a
1X
0V
0M
0I
1B
0S
0@
1J
1U
1/
00
0&
0)
#420000
1"
0!
1;
0=
0>
14
#430000
1!
1=
1>
04
1C
1`
0A
0a
1V
0T
1L
1K
0Q
1S
1H
0J
1@
10
01
1'
1(
#440000
1#
0"
0!
1?
0;
0=
0>
14
#450000
1!
1=
1>
04
1A
1a
1T
0R
1M
0L
0K
1I
0B
0H
0O
1Q
0@
0D
1J
11
02
1&
0'
0(
1)
#460000
1"
0!
1;
0=
0>
14
#470000
1!
1=
1>
04
0G
0_
0C
0`
0A
0a
1R
0P
0M
1L
1K
0I
1O
0]
0J
1@
12
03
0&
1'
1(
0)
#480000
0#
0"
0!
0?
0;
0=
0>
14
#490000
1!
1=
1>
04
1A
1a
0^
1P
0L
0K
1B
1H
0[
1]
0@
0,
13
0'
0(
#500000
1"
0!
1;
0=
0>
14
#510000
1!
1=
1>
04
1C
1`
0A
0a
1^
0\
1M
1I
0Y
1[
1@
1,
0-
1&
1)
#520000
1#
0"
0!
1?
0;
0=
0>
14
#530000
1!
1=
1>
04
1A
1a
1\
0Z
0B
0W
0@
1D
1Y
1-
0.
#540000
1"
0!
1;
0=
0>
14
#550000
1!
1=
1>
04
1G
1_
0C
0`
0A
0a
1Z
0X
0H
0U
1W
1@
1.
0/
#560000
0#
0"
0!
0?
0;
0=
0>
14
#570000
1!
1=
1>
04
1A
1a
1X
0V
0M
0I
1B
0S
0@
1J
1U
1/
00
0&
0)
#580000
1"
0!
1;
0=
0>
14
#590000
1!
1=
1>
04
1C
1`
0A
0a
1V
0T
1L
1K
0Q
1S
1H
0J
1@
10
01
1'
1(
#600000
1#
0"
0!
1?
0;
0=
0>
14
#610000
1!
1=
1>
04
1A
1a
1T
0R
1M
0L
0K
1I
0B
0H
0O
1Q
0@
0D
1J
11
02
1&
0'
0(
1)
#620000
1"
0!
1;
0=
0>
14
#630000
1!
1=
1>
04
0G
0_
0C
0`
0A
0a
1R
0P
0M
1L
1K
0I
1O
0]
0J
1@
12
03
0&
1'
1(
0)
#640000
0#
0"
0!
0?
0;
0=
0>
14
#650000
1!
1=
1>
04
1A
1a
0^
1P
0L
0K
1B
1H
0[
1]
0@
0,
13
0'
0(
#660000
1"
0!
1;
0=
0>
14
#670000
1!
1=
1>
04
1C
1`
0A
0a
1^
0\
1M
1I
0Y
1[
1@
1,
0-
1&
1)
#680000
1#
0"
0!
1?
0;
0=
0>
14
#690000
1!
1=
1>
04
1A
1a
1\
0Z
0B
0W
0@
1D
1Y
1-
0.
#700000
1"
0!
1;
0=
0>
14
#710000
1!
1=
1>
04
1G
1_
0C
0`
0A
0a
1Z
0X
0H
0U
1W
1@
1.
0/
#720000
0#
0"
0!
0?
0;
0=
0>
14
#730000
1!
1=
1>
04
1A
1a
1X
0V
0M
0I
1B
0S
0@
1J
1U
1/
00
0&
0)
#740000
1"
0!
1;
0=
0>
14
#750000
1!
1=
1>
04
1C
1`
0A
0a
1V
0T
1L
1K
0Q
1S
1H
0J
1@
10
01
1'
1(
#760000
1#
0"
0!
1?
0;
0=
0>
14
#770000
1!
1=
1>
04
1A
1a
1T
0R
1M
0L
0K
1I
0B
0H
0O
1Q
0@
0D
1J
11
02
1&
0'
0(
1)
#780000
1"
0!
1;
0=
0>
14
#790000
1!
1=
1>
04
0G
0_
0C
0`
0A
0a
1R
0P
0M
1L
1K
0I
1O
0]
0J
1@
12
03
0&
1'
1(
0)
#800000
0#
0"
0!
0?
0;
0=
0>
14
#810000
1!
1=
1>
04
1A
1a
0^
1P
0L
0K
1B
1H
0[
1]
0@
0,
13
0'
0(
#820000
1"
0!
1;
0=
0>
14
#830000
1!
1=
1>
04
1C
1`
0A
0a
1^
0\
1M
1I
0Y
1[
1@
1,
0-
1&
1)
#840000
1#
0"
0!
1?
0;
0=
0>
14
#850000
1!
1=
1>
04
1A
1a
1\
0Z
0B
0W
0@
1D
1Y
1-
0.
#860000
1"
0!
1;
0=
0>
14
#870000
1!
1=
1>
04
1G
1_
0C
0`
0A
0a
1Z
0X
0H
0U
1W
1@
1.
0/
#880000
0#
0"
0!
0?
0;
0=
0>
14
#890000
1!
1=
1>
04
1A
1a
1X
0V
0M
0I
1B
0S
0@
1J
1U
1/
00
0&
0)
#900000
1"
0!
1;
0=
0>
14
#910000
1!
1=
1>
04
1C
1`
0A
0a
1V
0T
1L
1K
0Q
1S
1H
0J
1@
10
01
1'
1(
#920000
1#
0"
0!
1?
0;
0=
0>
14
#930000
1!
1=
1>
04
1A
1a
1T
0R
1M
0L
0K
1I
0B
0H
0O
1Q
0@
0D
1J
11
02
1&
0'
0(
1)
#940000
1"
0!
1;
0=
0>
14
#950000
1!
1=
1>
04
0G
0_
0C
0`
0A
0a
1R
0P
0M
1L
1K
0I
1O
0]
0J
1@
12
03
0&
1'
1(
0)
#960000
0#
0"
0!
0?
0;
0=
0>
14
#970000
1!
1=
1>
04
1A
1a
0^
1P
0L
0K
1B
1H
0[
1]
0@
0,
13
0'
0(
#980000
1"
0!
1;
0=
0>
14
#990000
1!
1=
1>
04
1C
1`
0A
0a
1^
0\
1M
1I
0Y
1[
1@
1,
0-
1&
1)
