by-Nian/matrixFace/simulation/qsim/matrixFace.msim.vcd
$comment
	File created using the following command:
		vcd file matrixFace.msim.vcd -direction
$end
$date
	Mon Jun 14 15:38:29 2021
$end
$version
	ModelSim Version 10.1e
$end
$timescale
	1ps
$end
$scope module matrixFace_vlg_vec_tst $end
$var reg 1 ! clk $end
$var reg 1 " gameStatus $end
$var reg 1 # TFS $end
$var wire 1 $ col2 [0] $end
$var wire 1 % col2 [1] $end
$var wire 1 & col2 [2] $end
$var wire 1 ' col2 [3] $end
$var wire 1 ( col2 [4] $end
$var wire 1 ) col2 [5] $end
$var wire 1 * col2 [6] $end
$var wire 1 + col2 [7] $end
$var wire 1 , col_s [0] $end
$var wire 1 - col_s [1] $end
$var wire 1 . col_s [2] $end
$var wire 1 / col_s [3] $end
$var wire 1 0 col_s [4] $end
$var wire 1 1 col_s [5] $end
$var wire 1 2 col_s [6] $end
$var wire 1 3 col_s [7] $end
$var wire 1 4 row_s [0] $end
$var wire 1 5 row_s [1] $end
$var wire 1 6 row_s [2] $end
$var wire 1 7 row_s [3] $end
$var wire 1 8 row_s [4] $end
$var wire 1 9 row_s [5] $end
$var wire 1 : row_s [6] $end
$var wire 1 ; row_s [7] $end
$var wire 1 < sampler $end
$scope module i1 $end
$var wire 1 = gnd $end
$var wire 1 > vcc $end
$var wire 1 ? unknown $end
$var tri1 1 @ devclrn $end
$var tri1 1 A devpor $end
$var tri1 1 B devoe $end
$var wire 1 C gameStatus~input_o $end
$var wire 1 D ~QUARTUS_CREATED_GND~I_combout $end
$var wire 1 E clk~input_o $end
$var wire 1 F clk~inputCLKENA0_outclk $end
$var wire 1 G TFS~input_o $end
$var wire 1 H cnt[0]~2_combout $end
$var wire 1 I cnt[0]~DUPLICATE_q $end
$var wire 1 J cnt[1]~0_combout $end
$var wire 1 K cnt[1]~DUPLICATE_q $end
$var wire 1 L cnt[2]~1_combout $end
$var wire 1 M col_s~0_combout $end
$var wire 1 N col_s[6]~reg0_q $end
$var wire 1 O Mux2~0_combout $end
$var wire 1 P col_s[5]~reg0_q $end
$var wire 1 Q col_s~1_combout $end
$var wire 1 R col_s[4]~reg0_q $end
$var wire 1 S col_s[3]~reg0_q $end
$var wire 1 T col_s[2]~reg0_q $end
$var wire 1 U col_s[1]~reg0_q $end
$var wire 1 V Mux3~0_combout $end
$var wire 1 W row_s[7]~reg0_q $end
$var wire 1 X Mux3~1_combout $end
$var wire 1 Y row_s[6]~reg0_q $end
$var wire 1 Z Mux3~2_combout $end
$var wire 1 [ row_s[5]~reg0_q $end
$var wire 1 \ Mux3~3_combout $end
$var wire 1 ] row_s[4]~reg0_q $end
$var wire 1 ^ Mux3~4_combout $end
$var wire 1 _ row_s[3]~reg0_q $end
$var wire 1 ` Mux3~5_combout $end
$var wire 1 a row_s[2]~reg0_q $end
$var wire 1 b Mux3~6_combout $end
$var wire 1 c row_s[1]~reg0_q $end
$var wire 1 d Mux3~7_combout $end
$var wire 1 e row_s[0]~reg0_q $end
$var wire 1 f cnt [2] $end
$var wire 1 g cnt [1] $end
$var wire 1 h cnt [0] $end
$upscope $end
$upscope $end
$enddefinitions $end
#0
$dumpvars
0!
0"
0#
0+
0*
0)
0(
0'
0&
0%
0$
03
02
01
00
0/
0.
0-
0,
0;
0:
09
08
07
06
05
04
x<
0=
1>
x?
1@
1A
1B
0C
0D
0E
0F
0G
1H
0I
0J
0K
0L
0M
0N
0O
0P
0Q
0R
0S
0T
0U
0V
0W
0X
0Y
0Z
0[
0\
0]
0^
0_
0`
0a
0b
0c
1d
0e
0h
0g
0f
$end
#1000
1!
1E
1F
0<
1I
1h
1e
1J
1O
0d
0H
1b
14
#2000
0!
0E
0F
1<
#3000
1!
1E
1F
0<
1K
1g
0I
0h
0e
1c
1T
1P
1`
0b
1H
04
15
1.
11
#4000
0!
0E
0F
1<
#5000
1!
1E
1F
0<
1I
1h
0c
1a
0J
1L
1^
0`
0H
05
16
#6000
0!
0E
0F
1<
#7000
1!
1E
1F
0<
1f
0K
0g
0I
0h
0a
1_
0O
1\
0^
1H
06
17
#8000
0!
0E
0F
1<
#9000
1!
1E
1F
0<
1I
1h
0_
1]
0T
0P
1J
0\
0H
1Q
1Z
07
18
0.
01
#10000
0!
0E
0F
1<
#11000
1!
1E
1F
0<
1K
1g
0I
0h
0]
1[
1S
1R
1X
0Z
1O
0Q
1H
08
19
1/
10
#12000
0!
0E
0F
1<
#13000
1!
1E
1F
0<
1I
1h
0[
1Y
1T
0S
0R
1P
0J
0L
0O
0X
0H
1M
1V
09
1:
1.
0/
00
11
#14000
0!
0E
0F
1<
#15000
1!
1E
1F
0<
0f
0K
0g
0I
0h
0Y
1W
1U
0T
0P
1N
0M
0V
1d
1H
0:
1;
1-
0.
01
12
#16000
1#
0!
1G
0E
0F
1<
#17000
1!
1E
1F
0<
1I
1h
1e
0W
0U
0N
1J
1O
0d
0H
1b
14
0;
0-
02
#18000
0!
0E
0F
1<
#19000
1!
1E
1F
0<
1K
1g
0I
0h
0e
1c
1T
1P
1`
0b
1H
04
15
1.
11
#20000
0!
0E
0F
1<
#21000
1!
1E
1F
0<
1I
1h
0c
1a
0J
1L
1^
0`
0H
05
16
#22000
0!
0E
0F
1<
#23000
1!
1E
1F
0<
1f
0K
0g
0I
0h
0a
1_
0O
1\
0^
1H
06
17
#24000
0!
0E
0F
1<
#25000
1!
1E
1F
0<
1I
1h
0_
1]
0T
0P
1J
0\
0H
1M
1Z
07
18
0.
01
#26000
0!
0E
0F
1<
#27000
1!
1E
1F
0<
1K
1g
0I
0h
0]
1[
1U
1N
1X
0Z
0M
1O
1H
08
19
1-
12
#28000
0!
0E
0F
1<
#29000
1!
1E
1F
0<
1I
1h
0[
1Y
0U
1T
1P
0N
0J
0L
0O
0X
0H
1Q
1V
09
1:
0-
1.
11
02
#30000
0!
0E
0F
1<
#31000
1!
1E
1F
0<
0f
0K
0g
0I
0h
0Y
1W
0T
1S
1R
0P
0Q
0V
1d
1H
0:
1;
0.
1/
10
01
#32000
1"
0#
0!
1C
0G
0E
0F
1<
#33000
1!
1E
1F
0<
1I
1h
1e
0W
0S
0R
1J
1O
0d
0H
1b
14
0;
0/
00
#34000
0!
0E
0F
1<
#35000
1!
1E
1F
0<
1K
1g
0I
0h
0e
1c
1T
1P
1`
0b
1H
04
15
1.
11
#36000
0!
0E
0F
1<
#37000
1!
1E
1F
0<
1I
1h
0c
1a
0J
1L
1^
0`
0H
05
16
#38000
0!
0E
0F
1<
#39000
1!
1E
1F
0<
1f
0K
0g
0I
0h
0a
1_
0O
1\
0^
1H
06
17
#40000
0!
0E
0F
1<
#41000
1!
1E
1F
0<
1I
1h
0_
1]
0T
0P
1J
0\
0H
1Q
1Z
07
18
0.
01
#42000
0!
0E
0F
1<
#43000
1!
1E
1F
0<
1K
1g
0I
0h
0]
1[
1S
1R
1X
0Z
1O
0Q
1H
08
19
1/
10
#44000
0!
0E
0F
1<
#45000
1!
1E
1F
0<
1I
1h
0[
1Y
1T
0S
0R
1P
0J
0L
0O
0X
0H
1M
1V
09
1:
1.
0/
00
11
#46000
0!
0E
0F
1<
#47000
1!
1E
1F
0<
0f
0K
0g
0I
0h
0Y
1W
1U
0T
0P
1N
0M
0V
1d
1H
0:
1;
1-
0.
01
12
#48000
1#
0!
1G
0E
0F
1<
#49000
1!
1E
1F
0<
1I
1h
1e
0W
0U
0N
1J
1O
0d
0H
1b
14
0;
0-
02
#50000
0!
0E
0F
1<
#51000
1!
1E
1F
0<
1K
1g
0I
0h
0e
1c
1T
1P
1`
0b
1H
04
15
1.
11
#52000
0!
0E
0F
1<
#53000
1!
1E
1F
0<
1I
1h
0c
1a
0J
1L
1^
0`
0H
05
16
#54000
0!
0E
0F
1<
#55000
1!
1E
1F
0<
1f
0K
0g
0I
0h
0a
1_
0O
1\
0^
1H
06
17
#56000
0!
0E
0F
1<
#57000
1!
1E
1F
0<
1I
1h
0_
1]
0T
0P
1J
0\
0H
1M
1Z
07
18
0.
01
#58000
0!
0E
0F
1<
#59000
1!
1E
1F
0<
1K
1g
0I
0h
0]
1[
1U
1N
1X
0Z
0M
1O
1H
08
19
1-
12
#60000
0!
0E
0F
1<
#61000
1!
1E
1F
0<
1I
1h
0[
1Y
0U
1T
1P
0N
0J
0L
0O
0X
0H
1Q
1V
09
1:
0-
1.
11
02
#62000
0!
0E
0F
1<
#63000
1!
1E
1F
0<
0f
0K
0g
0I
0h
0Y
1W
0T
1S
1R
0P
0Q
0V
1d
1H
0:
1;
0.
1/
10
01
#64000
0"
0#
0!
0C
0G
0E
0F
1<
#65000
1!
1E
1F
0<
1I
1h
1e
0W
0S
0R
1J
1O
0d
0H
1b
14
0;
0/
00
#66000
0!
0E
0F
1<
#67000
1!
1E
1F
0<
1K
1g
0I
0h
0e
1c
1T
1P
1`
0b
1H
04
15
1.
11
#68000
0!
0E
0F
1<
#69000
1!
1E
1F
0<
1I
1h
0c
1a
0J
1L
1^
0`
0H
05
16
#70000
0!
0E
0F
1<
#71000
1!
1E
1F
0<
1f
0K
0g
0I
0h
0a
1_
0O
1\
0^
1H
06
17
#72000
0!
0E
0F
1<
#73000
1!
1E
1F
0<
1I
1h
0_
1]
0T
0P
1J
0\
0H
1Q
1Z
07
18
0.
01
#74000
0!
0E
0F
1<
#75000
1!
1E
1F
0<
1K
1g
0I
0h
0]
1[
1S
1R
1X
0Z
1O
0Q
1H
08
19
1/
10
#76000
0!
0E
0F
1<
#77000
1!
1E
1F
0<
1I
1h
0[
1Y
1T
0S
0R
1P
0J
0L
0O
0X
0H
1M
1V
09
1:
1.
0/
00
11
#78000
0!
0E
0F
1<
#79000
1!
1E
1F
0<
0f
0K
0g
0I
0h
0Y
1W
1U
0T
0P
1N
0M
0V
1d
1H
0:
1;
1-
0.
01
12
#80000
1#
0!
1G
0E
0F
1<
#81000
1!
1E
1F
0<
1I
1h
1e
0W
0U
0N
1J
1O
0d
0H
1b
14
0;
0-
02
#82000
0!
0E
0F
1<
#83000
1!
1E
1F
0<
1K
1g
0I
0h
0e
1c
1T
1P
1`
0b
1H
04
15
1.
11
#84000
0!
0E
0F
1<
#85000
1!
1E
1F
0<
1I
1h
0c
1a
0J
1L
1^
0`
0H
05
16
#86000
0!
0E
0F
1<
#87000
1!
1E
1F
0<
1f
0K
0g
0I
0h
0a
1_
0O
1\
0^
1H
06
17
#88000
0!
0E
0F
1<
#89000
1!
1E
1F
0<
1I
1h
0_
1]
0T
0P
1J
0\
0H
1M
1Z
07
18
0.
01
#90000
0!
0E
0F
1<
#91000
1!
1E
1F
0<
1K
1g
0I
0h
0]
1[
1U
1N
1X
0Z
0M
1O
1H
08
19
1-
12
#92000
0!
0E
0F
1<
#93000
1!
1E
1F
0<
1I
1h
0[
1Y
0U
1T
1P
0N
0J
0L
0O
0X
0H
1Q
1V
09
1:
0-
1.
11
02
#94000
0!
0E
0F
1<
#95000
1!
1E
1F
0<
0f
0K
0g
0I
0h
0Y
1W
0T
1S
1R
0P
0Q
0V
1d
1H
0:
1;
0.
1/
10
01
#96000
1"
0#
0!
1C
0G
0E
0F
1<
#97000
1!
1E
1F
0<
1I
1h
1e
0W
0S
0R
1J
1O
0d
0H
1b
14
0;
0/
00
#98000
0!
0E
0F
1<
#99000
1!
1E
1F
0<
1K
1g
0I
0h
0e
1c
1T
1P
1`
0b
1H
04
15
1.
11
#100000
0!
0E
0F
1<
#101000
1!
1E
1F
0<
1I
1h
0c
1a
0J
1L
1^
0`
0H
05
16
#102000
0!
0E
0F
1<
#103000
1!
1E
1F
0<
1f
0K
0g
0I
0h
0a
1_
0O
1\
0^
1H
06
17
#104000
0!
0E
0F
1<
#105000
1!
1E
1F
0<
1I
1h
0_
1]
0T
0P
1J
0\
0H
1Q
1Z
07
18
0.
01
#106000
0!
0E
0F
1<
#107000
1!
1E
1F
0<
1K
1g
0I
0h
0]
1[
1S
1R
1X
0Z
1O
0Q
1H
08
19
1/
10
#108000
0!
0E
0F
1<
#109000
1!
1E
1F
0<
1I
1h
0[
1Y
1T
0S
0R
1P
0J
0L
0O
0X
0H
1M
1V
09
1:
1.
0/
00
11
#110000
0!
0E
0F
1<
#111000
1!
1E
1F
0<
0f
0K
0g
0I
0h
0Y
1W
1U
0T
0P
1N
0M
0V
1d
1H
0:
1;
1-
0.
01
12
#112000
1#
0!
1G
0E
0F
1<
#113000
1!
1E
1F
0<
1I
1h
1e
0W
0U
0N
1J
1O
0d
0H
1b
14
0;
0-
02
#114000
0!
0E
0F
1<
#115000
1!
1E
1F
0<
1K
1g
0I
0h
0e
1c
1T
1P
1`
0b
1H
04
15
1.
11
#116000
0!
0E
0F
1<
#117000
1!
1E
1F
0<
1I
1h
0c
1a
0J
1L
1^
0`
0H
05
16
#118000
0!
0E
0F
1<
#119000
1!
1E
1F
0<
1f
0K
0g
0I
0h
0a
1_
0O
1\
0^
1H
06
17
#120000
0!
0E
0F
1<
#121000
1!
1E
1F
0<
1I
1h
0_
1]
0T
0P
1J
0\
0H
1M
1Z
07
18
0.
01
#122000
0!
0E
0F
1<
#123000
1!
1E
1F
0<
1K
1g
0I
0h
0]
1[
1U
1N
1X
0Z
0M
1O
1H
08
19
1-
12
#124000
0!
0E
0F
1<
#125000
1!
1E
1F
0<
1I
1h
0[
1Y
0U
1T
1P
0N
0J
0L
0O
0X
0H
1Q
1V
09
1:
0-
1.
11
02
#126000
0!
0E
0F
1<
#127000
1!
1E
1F
0<
0f
0K
0g
0I
0h
0Y
1W
0T
1S
1R
0P
0Q
0V
1d
1H
0:
1;
0.
1/
10
01
#128000
0"
0#
0!
0C
0G
0E
0F
1<
#129000
1!
1E
1F
0<
1I
1h
1e
0W
0S
0R
1J
1O
0d
0H
1b
14
0;
0/
00
#130000
0!
0E
0F
1<
#131000
1!
1E
1F
0<
1K
1g
0I
0h
0e
1c
1T
1P
1`
0b
1H
04
15
1.
11
#132000
0!
0E
0F
1<
#133000
1!
1E
1F
0<
1I
1h
0c
1a
0J
1L
1^
0`
0H
05
16
#134000
0!
0E
0F
1<
#135000
1!
1E
1F
0<
1f
0K
0g
0I
0h
0a
1_
0O
1\
0^
1H
06
17
#136000
0!
0E
0F
1<
#137000
1!
1E
1F
0<
1I
1h
0_
1]
0T
0P
1J
0\
0H
1Q
1Z
07
18
0.
01
#138000
0!
0E
0F
1<
#139000
1!
1E
1F
0<
1K
1g
0I
0h
0]
1[
1S
1R
1X
0Z
1O
0Q
1H
08
19
1/
10
#140000
0!
0E
0F
1<
#141000
1!
1E
1F
0<
1I
1h
0[
1Y
1T
0S
0R
1P
0J
0L
0O
0X
0H
1M
1V
09
1:
1.
0/
00
11
#142000
0!
0E
0F
1<
#143000
1!
1E
1F
0<
0f
0K
0g
0I
0h
0Y
1W
1U
0T
0P
1N
0M
0V
1d
1H
0:
1;
1-
0.
01
12
#144000
1#
0!
1G
0E
0F
1<
#145000
1!
1E
1F
0<
1I
1h
1e
0W
0U
0N
1J
1O
0d
0H
1b
14
0;
0-
02
#146000
0!
0E
0F
1<
#147000
1!
1E
1F
0<
1K
1g
0I
0h
0e
1c
1T
1P
1`
0b
1H
04
15
1.
11
#148000
0!
0E
0F
1<
#149000
1!
1E
1F
0<
1I
1h
0c
1a
0J
1L
1^
0`
0H
05
16
#150000
0!
0E
0F
1<
#151000
1!
1E
1F
0<
1f
0K
0g
0I
0h
0a
1_
0O
1\
0^
1H
06
17
#152000
0!
0E
0F
1<
#153000
1!
1E
1F
0<
1I
1h
0_
1]
0T
0P
1J
0\
0H
1M
1Z
07
18
0.
01
#154000
0!
0E
0F
1<
#155000
1!
1E
1F
0<
1K
1g
0I
0h
0]
1[
1U
1N
1X
0Z
0M
1O
1H
08
19
1-
12
#156000
0!
0E
0F
1<
#157000
1!
1E
1F
0<
1I
1h
0[
1Y
0U
1T
1P
0N
0J
0L
0O
0X
0H
1Q
1V
09
1:
0-
1.
11
02
#158000
0!
0E
0F
1<
#159000
1!
1E
1F
0<
0f
0K
0g
0I
0h
0Y
1W
0T
1S
1R
0P
0Q
0V
1d
1H
0:
1;
0.
1/
10
01
#160000
1"
0#
0!
1C
0G
0E
0F
1<
#161000
1!
1E
1F
0<
1I
1h
1e
0W
0S
0R
1J
1O
0d
0H
1b
14
0;
0/
00
#162000
0!
0E
0F
1<
#163000
1!
1E
1F
0<
1K
1g
0I
0h
0e
1c
1T
1P
1`
0b
1H
04
15
1.
11
#164000
0!
0E
0F
1<
#165000
1!
1E
1F
0<
1I
1h
0c
1a
0J
1L
1^
0`
0H
05
16
#166000
0!
0E
0F
1<
#167000
1!
1E
1F
0<
1f
0K
0g
0I
0h
0a
1_
0O
1\
0^
1H
06
17
#168000
0!
0E
0F
1<
#169000
1!
1E
1F
0<
1I
1h
0_
1]
0T
0P
1J
0\
0H
1Q
1Z
07
18
0.
01
#170000
0!
0E
0F
1<
#171000
1!
1E
1F
0<
1K
1g
0I
0h
0]
1[
1S
1R
1X
0Z
1O
0Q
1H
08
19
1/
10
#172000
0!
0E
0F
1<
#173000
1!
1E
1F
0<
1I
1h
0[
1Y
1T
0S
0R
1P
0J
0L
0O
0X
0H
1M
1V
09
1:
1.
0/
00
11
#174000
0!
0E
0F
1<
#175000
1!
1E
1F
0<
0f
0K
0g
0I
0h
0Y
1W
1U
0T
0P
1N
0M
0V
1d
1H
0:
1;
1-
0.
01
12
#176000
1#
0!
1G
0E
0F
1<
#177000
1!
1E
1F
0<
1I
1h
1e
0W
0U
0N
1J
1O
0d
0H
1b
14
0;
0-
02
#178000
0!
0E
0F
1<
#179000
1!
1E
1F
0<
1K
1g
0I
0h
0e
1c
1T
1P
1`
0b
1H
04
15
1.
11
#180000
0!
0E
0F
1<
#181000
1!
1E
1F
0<
1I
1h
0c
1a
0J
1L
1^
0`
0H
05
16
#182000
0!
0E
0F
1<
#183000
1!
1E
1F
0<
1f
0K
0g
0I
0h
0a
1_
0O
1\
0^
1H
06
17
#184000
0!
0E
0F
1<
#185000
1!
1E
1F
0<
1I
1h
0_
1]
0T
0P
1J
0\
0H
1M
1Z
07
18
0.
01
#186000
0!
0E
0F
1<
#187000
1!
1E
1F
0<
1K
1g
0I
0h
0]
1[
1U
1N
1X
0Z
0M
1O
1H
08
19
1-
12
#188000
0!
0E
0F
1<
#189000
1!
1E
1F
0<
1I
1h
0[
1Y
0U
1T
1P
0N
0J
0L
0O
0X
0H
1Q
1V
09
1:
0-
1.
11
02
#190000
0!
0E
0F
1<
#191000
1!
1E
1F
0<
0f
0K
0g
0I
0h
0Y
1W
0T
1S
1R
0P
0Q
0V
1d
1H
0:
1;
0.
1/
10
01
#192000
0"
0#
0!
0C
0G
0E
0F
1<
#193000
1!
1E
1F
0<
1I
1h
1e
0W
0S
0R
1J
1O
0d
0H
1b
14
0;
0/
00
#194000
0!
0E
0F
1<
#195000
1!
1E
1F
0<
1K
1g
0I
0h
0e
1c
1T
1P
1`
0b
1H
04
15
1.
11
#196000
0!
0E
0F
1<
#197000
1!
1E
1F
0<
1I
1h
0c
1a
0J
1L
1^
0`
0H
05
16
#198000
0!
0E
0F
1<
#199000
1!
1E
1F
0<
1f
0K
0g
0I
0h
0a
1_
0O
1\
0^
1H
06
17
#200000
0!
0E
0F
1<
#201000
1!
1E
1F
0<
1I
1h
0_
1]
0T
0P
1J
0\
0H
1Q
1Z
07
18
0.
01
#202000
0!
0E
0F
1<
#203000
1!
1E
1F
0<
1K
1g
0I
0h
0]
1[
1S
1R
1X
0Z
1O
0Q
1H
08
19
1/
10
#204000
0!
0E
0F
1<
#205000
1!
1E
1F
0<
1I
1h
0[
1Y
1T
0S
0R
1P
0J
0L
0O
0X
0H
1M
1V
09
1:
1.
0/
00
11
#206000
0!
0E
0F
1<
#207000
1!
1E
1F
0<
0f
0K
0g
0I
0h
0Y
1W
1U
0T
0P
1N
0M
0V
1d
1H
0:
1;
1-
0.
01
12
#208000
1#
0!
1G
0E
0F
1<
#209000
1!
1E
1F
0<
1I
1h
1e
0W
0U
0N
1J
1O
0d
0H
1b
14
0;
0-
02
#210000
0!
0E
0F
1<
#211000
1!
1E
1F
0<
1K
1g
0I
0h
0e
1c
1T
1P
1`
0b
1H
04
15
1.
11
#212000
0!
0E
0F
1<
#213000
1!
1E
1F
0<
1I
1h
0c
1a
0J
1L
1^
0`
0H
05
16
#214000
0!
0E
0F
1<
#215000
1!
1E
1F
0<
1f
0K
0g
0I
0h
0a
1_
0O
1\
0^
1H
06
17
#216000
0!
0E
0F
1<
#217000
1!
1E
1F
0<
1I
1h
0_
1]
0T
0P
1J
0\
0H
1M
1Z
07
18
0.
01
#218000
0!
0E
0F
1<
#219000
1!
1E
1F
0<
1K
1g
0I
0h
0]
1[
1U
1N
1X
0Z
0M
1O
1H
08
19
1-
12
#220000
0!
0E
0F
1<
#221000
1!
1E
1F
0<
1I
1h
0[
1Y
0U
1T
1P
0N
0J
0L
0O
0X
0H
1Q
1V
09
1:
0-
1.
11
02
#222000
0!
0E
0F
1<
#223000
1!
1E
1F
0<
0f
0K
0g
0I
0h
0Y
1W
0T
1S
1R
0P
0Q
0V
1d
1H
0:
1;
0.
1/
10
01
#224000
1"
0#
0!
1C
0G
0E
0F
1<
#225000
1!
1E
1F
0<
1I
1h
1e
0W
0S
0R
1J
1O
0d
0H
1b
14
0;
0/
00
#226000
0!
0E
0F
1<
#227000
1!
1E
1F
0<
1K
1g
0I
0h
0e
1c
1T
1P
1`
0b
1H
04
15
1.
11
#228000
0!
0E
0F
1<
#229000
1!
1E
1F
0<
1I
1h
0c
1a
0J
1L
1^
0`
0H
05
16
#230000
0!
0E
0F
1<
#231000
1!
1E
1F
0<
1f
0K
0g
0I
0h
0a
1_
0O
1\
0^
1H
06
17
#232000
0!
0E
0F
1<
#233000
1!
1E
1F
0<
1I
1h
0_
1]
0T
0P
1J
0\
0H
1Q
1Z
07
18
0.
01
#234000
0!
0E
0F
1<
#235000
1!
1E
1F
0<
1K
1g
0I
0h
0]
1[
1S
1R
1X
0Z
1O
0Q
1H
08
19
1/
10
#236000
0!
0E
0F
1<
#237000
1!
1E
1F
0<
1I
1h
0[
1Y
1T
0S
0R
1P
0J
0L
0O
0X
0H
1M
1V
09
1:
1.
0/
00
11
#238000
0!
0E
0F
1<
#239000
1!
1E
1F
0<
0f
0K
0g
0I
0h
0Y
1W
1U
0T
0P
1N
0M
0V
1d
1H
0:
1;
1-
0.
01
12
#240000
1#
0!
1G
0E
0F
1<
#241000
1!
1E
1F
0<
1I
1h
1e
0W
0U
0N
1J
1O
0d
0H
1b
14
0;
0-
02
#242000
0!
0E
0F
1<
#243000
1!
1E
1F
0<
1K
1g
0I
0h
0e
1c
1T
1P
1`
0b
1H
04
15
1.
11
#244000
0!
0E
0F
1<
#245000
1!
1E
1F
0<
1I
1h
0c
1a
0J
1L
1^
0`
0H
05
16
#246000
0!
0E
0F
1<
#247000
1!
1E
1F
0<
1f
0K
0g
0I
0h
0a
1_
0O
1\
0^
1H
06
17
#248000
0!
0E
0F
1<
#249000
1!
1E
1F
0<
1I
1h
0_
1]
0T
0P
1J
0\
0H
1M
1Z
07
18
0.
01
#250000
0!
0E
0F
1<
#251000
1!
1E
1F
0<
1K
1g
0I
0h
0]
1[
1U
1N
1X
0Z
0M
1O
1H
08
19
1-
12
#252000
0!
0E
0F
1<
#253000
1!
1E
1F
0<
1I
1h
0[
1Y
0U
1T
1P
0N
0J
0L
0O
0X
0H
1Q
1V
09
1:
0-
1.
11
02
#254000
0!
0E
0F
1<
#255000
1!
1E
1F
0<
0f
0K
0g
0I
0h
0Y
1W
0T
1S
1R
0P
0Q
0V
1d
1H
0:
1;
0.
1/
10
01
#256000
0"
0#
0!
0C
0G
0E
0F
1<
#257000
1!
1E
1F
0<
1I
1h
1e
0W
0S
0R
1J
1O
0d
0H
1b
14
0;
0/
00
#258000
0!
0E
0F
1<
#259000
1!
1E
1F
0<
1K
1g
0I
0h
0e
1c
1T
1P
1`
0b
1H
04
15
1.
11
#260000
0!
0E
0F
1<
#261000
1!
1E
1F
0<
1I
1h
0c
1a
0J
1L
1^
0`
0H
05
16
#262000
0!
0E
0F
1<
#263000
1!
1E
1F
0<
1f
0K
0g
0I
0h
0a
1_
0O
1\
0^
1H
06
17
#264000
0!
0E
0F
1<
#265000
1!
1E
1F
0<
1I
1h
0_
1]
0T
0P
1J
0\
0H
1Q
1Z
07
18
0.
01
#266000
0!
0E
0F
1<
#267000
1!
1E
1F
0<
1K
1g
0I
0h
0]
1[
1S
1R
1X
0Z
1O
0Q
1H
08
19
1/
10
#268000
0!
0E
0F
1<
#269000
1!
1E
1F
0<
1I
1h
0[
1Y
1T
0S
0R
1P
0J
0L
0O
0X
0H
1M
1V
09
1:
1.
0/
00
11
#270000
0!
0E
0F
1<
#271000
1!
1E
1F
0<
0f
0K
0g
0I
0h
0Y
1W
1U
0T
0P
1N
0M
0V
1d
1H
0:
1;
1-
0.
01
12
#272000
1#
0!
1G
0E
0F
1<
#273000
1!
1E
1F
0<
1I
1h
1e
0W
0U
0N
1J
1O
0d
0H
1b
14
0;
0-
02
#274000
0!
0E
0F
1<
#275000
1!
1E
1F
0<
1K
1g
0I
0h
0e
1c
1T
1P
1`
0b
1H
04
15
1.
11
#276000
0!
0E
0F
1<
#277000
1!
1E
1F
0<
1I
1h
0c
1a
0J
1L
1^
0`
0H
05
16
#278000
0!
0E
0F
1<
#279000
1!
1E
1F
0<
1f
0K
0g
0I
0h
0a
1_
0O
1\
0^
1H
06
17
#280000
0!
0E
0F
1<
#281000
1!
1E
1F
0<
1I
1h
0_
1]
0T
0P
1J
0\
0H
1M
1Z
07
18
0.
01
#282000
0!
0E
0F
1<
#283000
1!
1E
1F
0<
1K
1g
0I
0h
0]
1[
1U
1N
1X
0Z
0M
1O
1H
08
19
1-
12
#284000
0!
0E
0F
1<
#285000
1!
1E
1F
0<
1I
1h
0[
1Y
0U
1T
1P
0N
0J
0L
0O
0X
0H
1Q
1V
09
1:
0-
1.
11
02
#286000
0!
0E
0F
1<
#287000
1!
1E
1F
0<
0f
0K
0g
0I
0h
0Y
1W
0T
1S
1R
0P
0Q
0V
1d
1H
0:
1;
0.
1/
10
01
#288000
1"
0#
0!
1C
0G
0E
0F
1<
#289000
1!
1E
1F
0<
1I
1h
1e
0W
0S
0R
1J
1O
0d
0H
1b
14
0;
0/
00
#290000
0!
0E
0F
1<
#291000
1!
1E
1F
0<
1K
1g
0I
0h
0e
1c
1T
1P
1`
0b
1H
04
15
1.
11
#292000
0!
0E
0F
1<
#293000
1!
1E
1F
0<
1I
1h
0c
1a
0J
1L
1^
0`
0H
05
16
#294000
0!
0E
0F
1<
#295000
1!
1E
1F
0<
1f
0K
0g
0I
0h
0a
1_
0O
1\
0^
1H
06
17
#296000
0!
0E
0F
1<
#297000
1!
1E
1F
0<
1I
1h
0_
1]
0T
0P
1J
0\
0H
1Q
1Z
07
18
0.
01
#298000
0!
0E
0F
1<
#299000
1!
1E
1F
0<
1K
1g
0I
0h
0]
1[
1S
1R
1X
0Z
1O
0Q
1H
08
19
1/
10
#300000
0!
0E
0F
1<
#301000
1!
1E
1F
0<
1I
1h
0[
1Y
1T
0S
0R
1P
0J
0L
0O
0X
0H
1M
1V
09
1:
1.
0/
00
11
#302000
0!
0E
0F
1<
#303000
1!
1E
1F
0<
0f
0K
0g
0I
0h
0Y
1W
1U
0T
0P
1N
0M
0V
1d
1H
0:
1;
1-
0.
01
12
#304000
1#
0!
1G
0E
0F
1<
#305000
1!
1E
1F
0<
1I
1h
1e
0W
0U
0N
1J
1O
0d
0H
1b
14
0;
0-
02
#306000
0!
0E
0F
1<
#307000
1!
1E
1F
0<
1K
1g
0I
0h
0e
1c
1T
1P
1`
0b
1H
04
15
1.
11
#308000
0!
0E
0F
1<
#309000
1!
1E
1F
0<
1I
1h
0c
1a
0J
1L
1^
0`
0H
05
16
#310000
0!
0E
0F
1<
#311000
1!
1E
1F
0<
1f
0K
0g
0I
0h
0a
1_
0O
1\
0^
1H
06
17
#312000
0!
0E
0F
1<
#313000
1!
1E
1F
0<
1I
1h
0_
1]
0T
0P
1J
0\
0H
1M
1Z
07
18
0.
01
#314000
0!
0E
0F
1<
#315000
1!
1E
1F
0<
1K
1g
0I
0h
0]
1[
1U
1N
1X
0Z
0M
1O
1H
08
19
1-
12
#316000
0!
0E
0F
1<
#317000
1!
1E
1F
0<
1I
1h
0[
1Y
0U
1T
1P
0N
0J
0L
0O
0X
0H
1Q
1V
09
1:
0-
1.
11
02
#318000
0!
0E
0F
1<
#319000
1!
1E
1F
0<
0f
0K
0g
0I
0h
0Y
1W
0T
1S
1R
0P
0Q
0V
1d
1H
0:
1;
0.
1/
10
01
#320000
0"
0#
0!
0C
0G
0E
0F
1<
#321000
1!
1E
1F
0<
1I
1h
1e
0W
0S
0R
1J
1O
0d
0H
1b
14
0;
0/
00
#322000
0!
0E
0F
1<
#323000
1!
1E
1F
0<
1K
1g
0I
0h
0e
1c
1T
1P
1`
0b
1H
04
15
1.
11
#324000
0!
0E
0F
1<
#325000
1!
1E
1F
0<
1I
1h
0c
1a
0J
1L
1^
0`
0H
05
16
#326000
0!
0E
0F
1<
#327000
1!
1E
1F
0<
1f
0K
0g
0I
0h
0a
1_
0O
1\
0^
1H
06
17
#328000
0!
0E
0F
1<
#329000
1!
1E
1F
0<
1I
1h
0_
1]
0T
0P
1J
0\
0H
1Q
1Z
07
18
0.
01
#330000
0!
0E
0F
1<
#331000
1!
1E
1F
0<
1K
1g
0I
0h
0]
1[
1S
1R
1X
0Z
1O
0Q
1H
08
19
1/
10
#332000
0!
0E
0F
1<
