by-Nian/matrixFace/simulation/qsim/matrixFace.msim.vcd
$comment
	File created using the following command:
		vcd file matrixFace.msim.vcd -direction
$end
$date
	Wed Jun 02 01:05:26 2021
$end
$version
	ModelSim Version 10.1e
$end
$timescale
	1ps
$end
$scope module matrixFace_vlg_vec_tst $end
$var reg 1 ! clk $end
$var reg 1 " gameStatus $end
$var reg 1 # TFS $end
$var wire 1 $ col2 [0] $end
$var wire 1 % col2 [1] $end
$var wire 1 & col2 [2] $end
$var wire 1 ' col2 [3] $end
$var wire 1 ( col2 [4] $end
$var wire 1 ) col2 [5] $end
$var wire 1 * col2 [6] $end
$var wire 1 + col2 [7] $end
$var wire 1 , col_s [0] $end
$var wire 1 - col_s [1] $end
$var wire 1 . col_s [2] $end
$var wire 1 / col_s [3] $end
$var wire 1 0 col_s [4] $end
$var wire 1 1 col_s [5] $end
$var wire 1 2 col_s [6] $end
$var wire 1 3 col_s [7] $end
$var wire 1 4 row_s [0] $end
$var wire 1 5 row_s [1] $end
$var wire 1 6 row_s [2] $end
$var wire 1 7 row_s [3] $end
$var wire 1 8 row_s [4] $end
$var wire 1 9 row_s [5] $end
$var wire 1 : row_s [6] $end
$var wire 1 ; row_s [7] $end
$var wire 1 < sampler $end
$scope module i1 $end
$var wire 1 = gnd $end
$var wire 1 > vcc $end
$var wire 1 ? unknown $end
$var tri1 1 @ devclrn $end
$var tri1 1 A devpor $end
$var tri1 1 B devoe $end
$var wire 1 C gameStatus~input_o $end
$var wire 1 D ~QUARTUS_CREATED_GND~I_combout $end
$var wire 1 E clk~input_o $end
$var wire 1 F clk~inputCLKENA0_outclk $end
$var wire 1 G TFS~input_o $end
$var wire 1 H cnt[0]~2_combout $end
$var wire 1 I cnt[1]~0_combout $end
$var wire 1 J cnt[0]~DUPLICATE_q $end
$var wire 1 K cnt[2]~1_combout $end
$var wire 1 L cnt[2]~DUPLICATE_q $end
$var wire 1 M col_s~0_combout $end
$var wire 1 N col_s[6]~reg0_q $end
$var wire 1 O cnt[1]~DUPLICATE_q $end
$var wire 1 P Mux2~0_combout $end
$var wire 1 Q col_s[5]~reg0_q $end
$var wire 1 R col_s~1_combout $end
$var wire 1 S col_s[4]~reg0_q $end
$var wire 1 T col_s[3]~reg0_q $end
$var wire 1 U col_s[2]~reg0_q $end
$var wire 1 V col_s[1]~reg0_q $end
$var wire 1 W Mux3~0_combout $end
$var wire 1 X row_s[7]~reg0_q $end
$var wire 1 Y Mux3~1_combout $end
$var wire 1 Z row_s[6]~reg0_q $end
$var wire 1 [ Mux3~2_combout $end
$var wire 1 \ row_s[5]~reg0_q $end
$var wire 1 ] Mux3~3_combout $end
$var wire 1 ^ row_s[4]~reg0_q $end
$var wire 1 _ Mux3~4_combout $end
$var wire 1 ` row_s[3]~reg0_q $end
$var wire 1 a Mux3~5_combout $end
$var wire 1 b row_s[2]~reg0_q $end
$var wire 1 c Mux3~6_combout $end
$var wire 1 d row_s[1]~reg0_q $end
$var wire 1 e Mux3~7_combout $end
$var wire 1 f row_s[0]~reg0_q $end
$var wire 1 g cnt [2] $end
$var wire 1 h cnt [1] $end
$var wire 1 i cnt [0] $end
$upscope $end
$upscope $end
$enddefinitions $end
#0
$dumpvars
0!
0"
0#
0+
0*
0)
0(
0'
0&
0%
0$
03
02
01
00
0/
0.
0-
0,
0;
0:
09
08
07
06
05
04
x<
0=
1>
x?
1@
1A
1B
0C
0D
0E
0F
0G
1H
0I
0J
0K
0L
0M
0N
0O
0P
0Q
0R
0S
0T
0U
0V
0W
0X
0Y
0Z
0[
0\
0]
0^
0_
0`
0a
0b
0c
0d
1e
0f
0i
0h
0g
$end
#10000
1!
1E
1F
0<
1J
1i
1f
1P
1c
0e
0H
1I
14
#20000
1"
0!
1C
0E
0F
1<
#30000
1!
1E
1F
0<
1O
0J
1h
0i
0f
1d
1U
1Q
0c
1a
1H
04
15
1.
11
#40000
1#
0"
0!
1G
0C
0E
0F
1<
#50000
1!
1E
1F
0<
1J
1i
0d
1b
1K
1_
0H
0I
0a
05
16
#60000
1"
0!
1C
0E
0F
1<
#70000
1!
1E
1F
0<
0O
1L
0J
1g
0h
0i
0b
1`
0P
0_
1]
1H
06
17
#80000
0#
0"
0!
0G
0C
0E
0F
1<
#90000
1!
1E
1F
0<
1J
1i
0`
1^
0U
0Q
1R
1[
0H
1I
0]
07
18
0.
01
#100000
1"
0!
1C
0E
0F
1<
#110000
1!
1E
1F
0<
1O
0J
1h
0i
0^
1\
1T
1S
1P
0R
0[
1Y
1H
08
19
1/
10
#120000
1#
0"
0!
1G
0C
0E
0F
1<
#130000
1!
1E
1F
0<
1J
1i
0\
1Z
1U
0T
0S
1Q
0K
0P
1R
1W
0H
0I
0Y
09
1:
1.
0/
00
11
#140000
1"
0!
1C
0E
0F
1<
#150000
1!
1E
1F
0<
0O
0L
0J
0g
0h
0i
0Z
1X
0U
1T
1S
0Q
0R
0W
1e
1H
0:
1;
0.
1/
10
01
#160000
0#
0"
0!
0G
0C
0E
0F
1<
#170000
1!
1E
1F
0<
1J
1i
1f
0X
0T
0S
1P
1c
0e
0H
1I
14
0;
0/
00
#180000
1"
0!
1C
0E
0F
1<
#190000
1!
1E
1F
0<
1O
0J
1h
0i
0f
1d
1U
1Q
0c
1a
1H
04
15
1.
11
#200000
1#
0"
0!
1G
0C
0E
0F
1<
#210000
1!
1E
1F
0<
1J
1i
0d
1b
1K
1_
0H
0I
0a
05
16
#220000
1"
0!
1C
0E
0F
1<
#230000
1!
1E
1F
0<
0O
1L
0J
1g
0h
0i
0b
1`
0P
0_
1]
1H
06
17
#240000
0#
0"
0!
0G
0C
0E
0F
1<
#250000
1!
1E
1F
0<
1J
1i
0`
1^
0U
0Q
1R
1[
0H
1I
0]
07
18
0.
01
#260000
1"
0!
1C
0E
0F
1<
#270000
1!
1E
1F
0<
1O
0J
1h
0i
0^
1\
1T
1S
1P
0R
0[
1Y
1H
08
19
1/
10
#280000
1#
0"
0!
1G
0C
0E
0F
1<
#290000
1!
1E
1F
0<
1J
1i
0\
1Z
1U
0T
0S
1Q
0K
0P
1R
1W
0H
0I
0Y
09
1:
1.
0/
00
11
#300000
1"
0!
1C
0E
0F
1<
#310000
1!
1E
1F
0<
0O
0L
0J
0g
0h
0i
0Z
1X
0U
1T
1S
0Q
0R
0W
1e
1H
0:
1;
0.
1/
10
01
#320000
0#
0"
0!
0G
0C
0E
0F
1<
#330000
1!
1E
1F
0<
1J
1i
1f
0X
0T
0S
1P
1c
0e
0H
1I
14
0;
0/
00
#340000
1"
0!
1C
0E
0F
1<
#350000
1!
1E
1F
0<
1O
0J
1h
0i
0f
1d
1U
1Q
0c
1a
1H
04
15
1.
11
#360000
1#
0"
0!
1G
0C
0E
0F
1<
#370000
1!
1E
1F
0<
1J
1i
0d
1b
1K
1_
0H
0I
0a
05
16
#380000
1"
0!
1C
0E
0F
1<
#390000
1!
1E
1F
0<
0O
1L
0J
1g
0h
0i
0b
1`
0P
0_
1]
1H
06
17
#400000
0#
0"
0!
0G
0C
0E
0F
1<
#410000
1!
1E
1F
0<
1J
1i
0`
1^
0U
0Q
1R
1[
0H
1I
0]
07
18
0.
01
#420000
1"
0!
1C
0E
0F
1<
#430000
1!
1E
1F
0<
1O
0J
1h
0i
0^
1\
1T
1S
1P
0R
0[
1Y
1H
08
19
1/
10
#440000
1#
0"
0!
1G
0C
0E
0F
1<
#450000
1!
1E
1F
0<
1J
1i
0\
1Z
1U
0T
0S
1Q
0K
0P
1R
1W
0H
0I
0Y
09
1:
1.
0/
00
11
#460000
1"
0!
1C
0E
0F
1<
#470000
1!
1E
1F
0<
0O
0L
0J
0g
0h
0i
0Z
1X
0U
1T
1S
0Q
0R
0W
1e
1H
0:
1;
0.
1/
10
01
#480000
0#
0"
0!
0G
0C
0E
0F
1<
#490000
1!
1E
1F
0<
1J
1i
1f
0X
0T
0S
1P
1c
0e
0H
1I
14
0;
0/
00
#500000
1"
0!
1C
0E
0F
1<
#510000
1!
1E
1F
0<
1O
0J
1h
0i
0f
1d
1U
1Q
0c
1a
1H
04
15
1.
11
#520000
1#
0"
0!
1G
0C
0E
0F
1<
#530000
1!
1E
1F
0<
1J
1i
0d
1b
1K
1_
0H
0I
0a
05
16
#540000
1"
0!
1C
0E
0F
1<
#550000
1!
1E
1F
0<
0O
1L
0J
1g
0h
0i
0b
1`
0P
0_
1]
1H
06
17
#560000
0#
0"
0!
0G
0C
0E
0F
1<
#570000
1!
1E
1F
0<
1J
1i
0`
1^
0U
0Q
1R
1[
0H
1I
0]
07
18
0.
01
#580000
1"
0!
1C
0E
0F
1<
#590000
1!
1E
1F
0<
1O
0J
1h
0i
0^
1\
1T
1S
1P
0R
0[
1Y
1H
08
19
1/
10
#600000
1#
0"
0!
1G
0C
0E
0F
1<
#610000
1!
1E
1F
0<
1J
1i
0\
1Z
1U
0T
0S
1Q
0K
0P
1R
1W
0H
0I
0Y
09
1:
1.
0/
00
11
#620000
1"
0!
1C
0E
0F
1<
#630000
1!
1E
1F
0<
0O
0L
0J
0g
0h
0i
0Z
1X
0U
1T
1S
0Q
0R
0W
1e
1H
0:
1;
0.
1/
10
01
#640000
0#
0"
0!
0G
0C
0E
0F
1<
#650000
1!
1E
1F
0<
1J
1i
1f
0X
0T
0S
1P
1c
0e
0H
1I
14
0;
0/
00
#660000
1"
0!
1C
0E
0F
1<
#670000
1!
1E
1F
0<
1O
0J
1h
0i
0f
1d
1U
1Q
0c
1a
1H
04
15
1.
11
#680000
1#
0"
0!
1G
0C
0E
0F
1<
#690000
1!
1E
1F
0<
1J
1i
0d
1b
1K
1_
0H
0I
0a
05
16
#700000
1"
0!
1C
0E
0F
1<
#710000
1!
1E
1F
0<
0O
1L
0J
1g
0h
0i
0b
1`
0P
0_
1]
1H
06
17
#720000
0#
0"
0!
0G
0C
0E
0F
1<
#730000
1!
1E
1F
0<
1J
1i
0`
1^
0U
0Q
1R
1[
0H
1I
0]
07
18
0.
01
#740000
1"
0!
1C
0E
0F
1<
#750000
1!
1E
1F
0<
1O
0J
1h
0i
0^
1\
1T
1S
1P
0R
0[
1Y
1H
08
19
1/
10
#760000
1#
0"
0!
1G
0C
0E
0F
1<
#770000
1!
1E
1F
0<
1J
1i
0\
1Z
1U
0T
0S
1Q
0K
0P
1R
1W
0H
0I
0Y
09
1:
1.
0/
00
11
#780000
1"
0!
1C
0E
0F
1<
#790000
1!
1E
1F
0<
0O
0L
0J
0g
0h
0i
0Z
1X
0U
1T
1S
0Q
0R
0W
1e
1H
0:
1;
0.
1/
10
01
#800000
0#
0"
0!
0G
0C
0E
0F
1<
#810000
1!
1E
1F
0<
1J
1i
1f
0X
0T
0S
1P
1c
0e
0H
1I
14
0;
0/
00
#820000
1"
0!
1C
0E
0F
1<
#830000
1!
1E
1F
0<
1O
0J
1h
0i
0f
1d
1U
1Q
0c
1a
1H
04
15
1.
11
#840000
1#
0"
0!
1G
0C
0E
0F
1<
#850000
1!
1E
1F
0<
1J
1i
0d
1b
1K
1_
0H
0I
0a
05
16
#860000
1"
0!
1C
0E
0F
1<
#870000
1!
1E
1F
0<
0O
1L
0J
1g
0h
0i
0b
1`
0P
0_
1]
1H
06
17
#880000
0#
0"
0!
0G
0C
0E
0F
1<
#890000
1!
1E
1F
0<
1J
1i
0`
1^
0U
0Q
1R
1[
0H
1I
0]
07
18
0.
01
#900000
1"
0!
1C
0E
0F
1<
#910000
1!
1E
1F
0<
1O
0J
1h
0i
0^
1\
1T
1S
1P
0R
0[
1Y
1H
08
19
1/
10
#920000
1#
0"
0!
1G
0C
0E
0F
1<
#930000
1!
1E
1F
0<
1J
1i
0\
1Z
1U
0T
0S
1Q
0K
0P
1R
1W
0H
0I
0Y
09
1:
1.
0/
00
11
#940000
1"
0!
1C
0E
0F
1<
#950000
1!
1E
1F
0<
0O
0L
0J
0g
0h
0i
0Z
1X
0U
1T
1S
0Q
0R
0W
1e
1H
0:
1;
0.
1/
10
01
#960000
0#
0"
0!
0G
0C
0E
0F
1<
#970000
1!
1E
1F
0<
1J
1i
1f
0X
0T
0S
1P
1c
0e
0H
1I
14
0;
0/
00
#980000
1"
0!
1C
0E
0F
1<
#990000
1!
1E
1F
0<
1O
0J
1h
0i
0f
1d
1U
1Q
0c
1a
1H
04
15
1.
11
