by-Nian/genFace/simulation/qsim/genFace.msim.vcd
$comment
	File created using the following command:
		vcd file genFace.msim.vcd -direction
$end
$date
	Wed May 26 03:15:30 2021
$end
$version
	ModelSim Version 10.1e
$end
$timescale
	1ps
$end
$scope module genFace_vlg_vec_tst $end
$var reg 1 ! clock $end
$var reg 1 " gameStatus $end
$var reg 1 # TFS $end
$var wire 1 $ col_s0 $end
$var wire 1 % col_s1 $end
$var wire 1 & col_s2 $end
$var wire 1 ' col_s3 $end
$var wire 1 ( col_s4 $end
$var wire 1 ) col_s5 $end
$var wire 1 * col_s6 $end
$var wire 1 + col_s7 $end
$var wire 1 , row_s0 $end
$var wire 1 - row_s1 $end
$var wire 1 . row_s2 $end
$var wire 1 / row_s3 $end
$var wire 1 0 row_s4 $end
$var wire 1 1 row_s5 $end
$var wire 1 2 row_s6 $end
$var wire 1 3 row_s7 $end
$var wire 1 4 sampler $end
$scope module i1 $end
$var wire 1 5 gnd $end
$var wire 1 6 vcc $end
$var wire 1 7 unknown $end
$var tri1 1 8 devclrn $end
$var tri1 1 9 devpor $end
$var tri1 1 : devoe $end
$var wire 1 ; gameStatus~input_o $end
$var wire 1 < ~QUARTUS_CREATED_GND~I_combout $end
$var wire 1 = clock~input_o $end
$var wire 1 > clock~inputCLKENA0_outclk $end
$var wire 1 ? inst1|counter[1]~DUPLICATE_q $end
$var wire 1 @ inst1|Add0~34 $end
$var wire 1 A inst1|Add0~17_sumout $end
$var wire 1 B inst1|counter~2_combout $end
$var wire 1 C inst1|Add0~18 $end
$var wire 1 D inst1|Add0~29_sumout $end
$var wire 1 E inst1|counter~4_combout $end
$var wire 1 F inst1|counter[9]~DUPLICATE_q $end
$var wire 1 G inst1|Add0~30 $end
$var wire 1 H inst1|Add0~13_sumout $end
$var wire 1 I inst1|counter[12]~DUPLICATE_q $end
$var wire 1 J inst1|Add0~14 $end
$var wire 1 K inst1|Add0~49_sumout $end
$var wire 1 L inst1|Add0~50 $end
$var wire 1 M inst1|Add0~9_sumout $end
$var wire 1 N inst1|counter~1_combout $end
$var wire 1 O inst1|counter[13]~DUPLICATE_q $end
$var wire 1 P inst1|Add0~10 $end
$var wire 1 Q inst1|Add0~46 $end
$var wire 1 R inst1|Add0~5_sumout $end
$var wire 1 S inst1|counter[2]~DUPLICATE_q $end
$var wire 1 T inst1|Add0~65_sumout $end
$var wire 1 U inst1|Add0~66 $end
$var wire 1 V inst1|Add0~2 $end
$var wire 1 W inst1|Add0~25_sumout $end
$var wire 1 X inst1|counter~3_combout $end
$var wire 1 Y inst1|Equal0~0_combout $end
$var wire 1 Z inst1|Add0~26 $end
$var wire 1 [ inst1|Add0~61_sumout $end
$var wire 1 \ inst1|counter~8_combout $end
$var wire 1 ] inst1|counter[3]~DUPLICATE_q $end
$var wire 1 ^ inst1|Add0~62 $end
$var wire 1 _ inst1|Add0~21_sumout $end
$var wire 1 ` inst1|Add0~22 $end
$var wire 1 a inst1|Add0~57_sumout $end
$var wire 1 b inst1|Equal1~1_combout $end
$var wire 1 c inst1|Add0~58 $end
$var wire 1 d inst1|Add0~53_sumout $end
$var wire 1 e inst1|counter~7_combout $end
$var wire 1 f inst1|counter[6]~DUPLICATE_q $end
$var wire 1 g inst1|Add0~54 $end
$var wire 1 h inst1|Add0~33_sumout $end
$var wire 1 i inst1|counter[7]~DUPLICATE_q $end
$var wire 1 j inst1|Equal1~2_combout $end
$var wire 1 k inst1|Add0~45_sumout $end
$var wire 1 l inst1|counter~6_combout $end
$var wire 1 m inst1|counter[16]~DUPLICATE_q $end
$var wire 1 n inst1|Add0~6 $end
$var wire 1 o inst1|Add0~41_sumout $end
$var wire 1 p inst1|counter[15]~DUPLICATE_q $end
$var wire 1 q inst1|Add0~42 $end
$var wire 1 r inst1|Add0~37_sumout $end
$var wire 1 s inst1|counter~5_combout $end
$var wire 1 t inst1|Equal1~0_combout $end
$var wire 1 u inst1|Add0~1_sumout $end
$var wire 1 v inst1|counter~0_combout $end
$var wire 1 w inst1|Equal0~1_combout $end
$var wire 1 x inst1|Equal0~2_combout $end
$var wire 1 y inst1|Equal0~3_combout $end
$var wire 1 z inst1|PULSE~0_combout $end
$var wire 1 { inst1|PULSE~q $end
$var wire 1 | inst|cnt[0]~2_combout $end
$var wire 1 } inst|cnt[0]~DUPLICATE_q $end
$var wire 1 ~ inst|cnt[1]~0_combout $end
$var wire 1 !! inst|cnt[2]~1_combout $end
$var wire 1 "! inst|cnt[2]~feeder_combout $end
$var wire 1 #! TFS~input_o $end
$var wire 1 $! inst|col_s~0_combout $end
$var wire 1 %! inst|Mux2~0_combout $end
$var wire 1 &! inst|col_s[2]~feeder_combout $end
$var wire 1 '! inst|col_s~1_combout $end
$var wire 1 (! inst|Mux3~0_combout $end
$var wire 1 )! inst|Mux3~1_combout $end
$var wire 1 *! inst|Mux3~2_combout $end
$var wire 1 +! inst|Mux3~3_combout $end
$var wire 1 ,! inst|Mux3~4_combout $end
$var wire 1 -! inst|Mux3~5_combout $end
$var wire 1 .! inst|Mux3~6_combout $end
$var wire 1 /! inst|Mux3~7_combout $end
$var wire 1 0! inst1|counter [16] $end
$var wire 1 1! inst1|counter [15] $end
$var wire 1 2! inst1|counter [14] $end
$var wire 1 3! inst1|counter [13] $end
$var wire 1 4! inst1|counter [12] $end
$var wire 1 5! inst1|counter [11] $end
$var wire 1 6! inst1|counter [10] $end
$var wire 1 7! inst1|counter [9] $end
$var wire 1 8! inst1|counter [8] $end
$var wire 1 9! inst1|counter [7] $end
$var wire 1 :! inst1|counter [6] $end
$var wire 1 ;! inst1|counter [5] $end
$var wire 1 <! inst1|counter [4] $end
$var wire 1 =! inst1|counter [3] $end
$var wire 1 >! inst1|counter [2] $end
$var wire 1 ?! inst1|counter [1] $end
$var wire 1 @! inst1|counter [0] $end
$var wire 1 A! inst|col_s [0] $end
$var wire 1 B! inst|col_s [1] $end
$var wire 1 C! inst|col_s [2] $end
$var wire 1 D! inst|col_s [3] $end
$var wire 1 E! inst|col_s [4] $end
$var wire 1 F! inst|col_s [5] $end
$var wire 1 G! inst|col_s [6] $end
$var wire 1 H! inst|col_s [7] $end
$var wire 1 I! inst|row_s [0] $end
$var wire 1 J! inst|row_s [1] $end
$var wire 1 K! inst|row_s [2] $end
$var wire 1 L! inst|row_s [3] $end
$var wire 1 M! inst|row_s [4] $end
$var wire 1 N! inst|row_s [5] $end
$var wire 1 O! inst|row_s [6] $end
$var wire 1 P! inst|row_s [7] $end
$var wire 1 Q! inst|cnt [2] $end
$var wire 1 R! inst|cnt [1] $end
$var wire 1 S! inst|cnt [0] $end
$upscope $end
$upscope $end
$enddefinitions $end
#0
$dumpvars
0!
0"
0#
0$
0%
0&
0'
0(
0)
0*
0+
0,
0-
0.
0/
00
01
02
03
x4
05
16
x7
18
19
1:
0;
0<
0=
0>
0?
0@
0A
0B
0C
0D
0E
0F
0G
0H
0I
0J
0K
0L
0M
0N
0O
0P
0Q
0R
0S
1T
0U
0V
0W
0X
0Y
0Z
0[
0\
0]
0^
0_
0`
0a
0b
0c
0d
0e
0f
0g
0h
0i
0j
0k
0l
0m
0n
0o
0p
0q
0r
0s
0t
0u
0v
0w
0x
0y
0z
0{
1|
0}
0~
0!!
0"!
0#!
0$!
0%!
0&!
0'!
0(!
1)!
1*!
1+!
1,!
1-!
1.!
1/!
0@!
0?!
0>!
0=!
0<!
0;!
0:!
09!
08!
07!
06!
05!
04!
03!
02!
01!
00!
zH!
0G!
0F!
0E!
0D!
0C!
0B!
zA!
0P!
0O!
0N!
0M!
0L!
0K!
0J!
0I!
0S!
0R!
0Q!
$end
#1000
1!
1=
1>
04
1@!
1U
0T
1u
1v
#2000
1"
0!
1;
0=
0>
14
#3000
1!
1=
1>
04
1?!
0@!
1?
1V
0u
0U
1T
1W
0V
1u
0v
0W
1X
1v
0X
#4000
1#
0"
0!
1#!
0;
0=
0>
14
#5000
1!
1=
1>
04
1@!
1U
0T
1V
0u
1W
0v
1X
#6000
1"
0!
1;
0=
0>
14
#7000
1!
1=
1>
04
0?!
1>!
0@!
1S
0?
0V
1u
0U
1T
1Z
0W
0Z
1W
0u
1[
1v
0X
0[
1X
0v
1\
0\
#8000
0#
0"
0!
0#!
0;
0=
0>
14
#9000
1!
1=
1>
04
1@!
1U
0T
1u
1v
#10000
1"
0!
1;
0=
0>
14
#11000
1!
1=
1>
04
1?!
0@!
1?
1V
0u
0U
1T
1Z
0W
0V
1u
0v
1[
0Z
1W
0X
1v
0[
1\
1X
0\
#12000
1#
0"
0!
1#!
0;
0=
0>
14
#13000
1!
1=
1>
04
1@!
1U
0T
1V
0u
1Z
0W
0v
1[
0X
1\
#14000
1"
0!
1;
0=
0>
14
#15000
1!
1=
1>
04
0?!
1=!
1]
0>!
0@!
0S
0?
0V
1u
1^
0[
0U
1T
0Z
1W
0W
1_
0u
0^
1[
1v
0\
1X
0_
0X
0v
1\
#16000
0#
0"
0!
0#!
0;
0=
0>
14
#17000
1!
1=
1>
04
1@!
1U
0T
1u
1v
#18000
1"
0!
1;
0=
0>
14
#19000
1!
1=
1>
04
1?!
0@!
1?
1V
0u
0U
1T
1W
0V
1u
0v
0W
1X
1v
0X
#20000
1#
0"
0!
1#!
0;
0=
0>
14
#21000
1!
1=
1>
04
1@!
1U
0T
1V
0u
1W
0v
1X
#22000
1"
0!
1;
0=
0>
14
#23000
1!
1=
1>
04
0?!
1>!
0@!
1S
0?
0V
1u
0U
1T
1Z
0W
0Z
1W
0u
1^
0[
1v
0X
0^
1[
1_
1X
0v
0\
0_
1\
#24000
0#
0"
0!
0#!
0;
0=
0>
14
#25000
1!
1=
1>
04
1@!
1U
0T
1u
1v
#26000
1"
0!
1;
0=
0>
14
#27000
1!
1=
1>
04
1?!
0@!
1?
1V
0u
0U
1T
1Z
0W
0V
1u
0v
1^
0[
0Z
1W
0X
1v
1_
0^
1[
0\
1X
0_
1\
#28000
1#
0"
0!
1#!
0;
0=
0>
14
#29000
1!
1=
1>
04
1@!
1U
0T
1V
0u
1Z
0W
0v
1^
0[
0X
1_
0\
#30000
1"
0!
1;
0=
0>
14
#31000
1!
1=
1>
04
0?!
0=!
1<!
0]
0>!
0@!
0S
0?
0V
1u
1`
0_
0^
1[
0U
1T
0Z
1W
0W
1a
0`
1_
0u
0[
1v
1\
1X
0a
0X
0v
0\
#32000
0#
0"
0!
0#!
0;
0=
0>
14
#33000
1!
1=
1>
04
1@!
1U
0T
1u
1v
#34000
1"
0!
1;
0=
0>
14
#35000
1!
1=
1>
04
1?!
0@!
1?
1V
0u
0U
1T
1W
0V
1u
0v
0W
1X
1v
0X
#36000
1#
0"
0!
1#!
0;
0=
0>
14
#37000
1!
1=
1>
04
1@!
1U
0T
1V
0u
1W
0v
1X
#38000
1"
0!
1;
0=
0>
14
#39000
1!
1=
1>
04
0?!
1>!
0@!
1S
0?
0V
1u
0U
1T
1Z
0W
0Z
1W
0u
1[
1v
0X
0[
1X
0v
1\
0\
#40000
0#
0"
0!
0#!
0;
0=
0>
14
#41000
1!
1=
1>
04
1@!
1U
0T
1u
1v
#42000
1"
0!
1;
0=
0>
14
#43000
1!
1=
1>
04
1?!
0@!
1?
1V
0u
0U
1T
1Z
0W
0V
1u
0v
1[
0Z
1W
0X
1v
0[
1\
1X
0\
#44000
1#
0"
0!
1#!
0;
0=
0>
14
#45000
1!
1=
1>
04
1@!
1U
0T
1V
0u
1Z
0W
0v
1[
0X
1\
#46000
1"
0!
1;
0=
0>
14
#47000
1!
1=
1>
04
0?!
1=!
1]
0>!
0@!
0S
0?
0V
1u
1^
0[
0U
1T
0Z
1W
0W
1`
0_
0u
0^
1[
1v
0\
1X
1a
0`
1_
0X
0v
1\
0a
#48000
0#
0"
0!
0#!
0;
0=
0>
14
#49000
1!
1=
1>
04
1@!
1U
0T
1u
1v
#50000
1"
0!
1;
0=
0>
14
#51000
1!
1=
1>
04
1?!
0@!
1?
1V
0u
0U
1T
1W
0V
1u
0v
0W
1X
1v
0X
#52000
1#
0"
0!
1#!
0;
0=
0>
14
#53000
1!
1=
1>
04
1@!
1U
0T
1V
0u
1W
0v
1X
#54000
1"
0!
1;
0=
0>
14
#55000
1!
1=
1>
04
0?!
1>!
0@!
1S
0?
0V
1u
0U
1T
1Z
0W
0Z
1W
0u
1^
0[
1v
0X
0^
1[
1`
0_
1X
0v
0\
0`
1_
1a
1\
0a
#56000
0#
0"
0!
0#!
0;
0=
0>
14
#57000
1!
1=
1>
04
1@!
1U
0T
1u
1v
#58000
1"
0!
1;
0=
0>
14
#59000
1!
1=
1>
04
1?!
0@!
1?
1V
0u
0U
1T
1Z
0W
0V
1u
0v
1^
0[
0Z
1W
0X
1v
1`
0_
0^
1[
0\
1X
1a
0`
1_
1\
0a
#60000
1#
0"
0!
1#!
0;
0=
0>
14
#61000
1!
1=
1>
04
1@!
1U
0T
1V
0u
1Z
0W
0v
1^
0[
0X
1`
0_
0\
1a
#62000
1"
0!
1;
0=
0>
14
#63000
1!
1=
1>
04
0?!
0=!
1;!
0<!
0]
0>!
0@!
0S
0?
0V
1u
1c
0a
0`
1_
0^
1[
0U
1T
0Z
1W
0W
1d
0c
1a
0_
0u
0[
1v
1\
1X
0d
0X
1e
0v
0\
0e
#64000
0#
0"
0!
0#!
0;
0=
0>
14
#65000
1!
1=
1>
04
1@!
1U
0T
1x
1u
1v
#66000
1"
0!
1;
0=
0>
14
#67000
1!
1=
1>
04
1?!
0@!
1?
1V
0u
0U
1T
0x
1W
0V
1u
0v
0W
1X
1v
0X
#68000
1#
0"
0!
1#!
0;
0=
0>
14
#69000
1!
1=
1>
04
1@!
1U
0T
1x
1V
0u
1W
0v
1X
#70000
1"
0!
1;
0=
0>
14
#71000
1!
1=
1>
04
0?!
1>!
0@!
1S
0?
0V
1u
0U
1T
0x
1Z
0W
0Z
1W
0u
1[
1v
0X
0[
1X
0v
1\
0\
#72000
0#
0"
0!
0#!
0;
0=
0>
14
#73000
1!
1=
1>
04
1@!
1U
0T
1x
1u
1v
#74000
1"
0!
1;
0=
0>
14
#75000
1!
1=
1>
04
1?!
0@!
1?
1V
0u
0U
1T
0x
1Z
0W
0V
1u
0v
1[
0Z
1W
0X
1v
0[
1\
1X
0\
#76000
1#
0"
0!
1#!
0;
0=
0>
14
#77000
1!
1=
1>
04
1@!
1U
0T
1x
1V
0u
1Z
0W
0v
1[
0X
1\
#78000
1"
0!
1;
0=
0>
14
#79000
1!
1=
1>
04
0?!
1=!
1]
0>!
0@!
0S
0?
0V
1u
0x
1^
0[
0U
1T
0Z
1W
0W
1_
0u
0^
1[
1v
0\
1X
0_
0X
0v
1\
#80000
0#
0"
0!
0#!
0;
0=
0>
14
#81000
1!
1=
1>
04
1@!
1U
0T
1u
1v
#82000
1"
0!
1;
0=
0>
14
#83000
1!
1=
1>
04
1?!
0@!
1?
1V
0u
0U
1T
1W
0V
1u
0v
0W
1X
1v
0X
#84000
1#
0"
0!
1#!
0;
0=
0>
14
#85000
1!
1=
1>
04
1@!
1U
0T
1V
0u
1W
0v
1X
#86000
1"
0!
1;
0=
0>
14
#87000
1!
1=
1>
04
0?!
1>!
0@!
1S
0?
0V
1u
0U
1T
1Z
0W
0Z
1W
0u
1^
0[
1v
0X
0^
1[
1_
1X
0v
0\
0_
1\
#88000
0#
0"
0!
0#!
0;
0=
0>
14
#89000
1!
1=
1>
04
1@!
1U
0T
1u
1v
#90000
1"
0!
1;
0=
0>
14
#91000
1!
1=
1>
04
1?!
0@!
1?
1V
0u
0U
1T
1Z
0W
0V
1u
0v
1^
0[
0Z
1W
0X
1v
1_
0^
1[
0\
1X
0_
1\
#92000
1#
0"
0!
1#!
0;
0=
0>
14
#93000
1!
1=
1>
04
1@!
1U
0T
1V
0u
1Z
0W
0v
1^
0[
0X
1_
0\
#94000
1"
0!
1;
0=
0>
14
#95000
1!
1=
1>
04
0?!
0=!
1<!
0]
0>!
0@!
0S
0?
0V
1u
1`
0_
0^
1[
0U
1T
0Z
1W
0W
1c
0a
0`
1_
0u
0[
1v
1\
1X
1d
0c
1a
0X
0v
0\
0d
1e
0e
#96000
0#
0"
0!
0#!
0;
0=
0>
14
#97000
1!
1=
1>
04
1@!
1U
0T
1x
1u
1v
#98000
1"
0!
1;
0=
0>
14
#99000
1!
1=
1>
04
1?!
0@!
1?
1V
0u
0U
1T
0x
1W
0V
1u
0v
0W
1X
1v
0X
#100000
1#
0"
0!
1#!
0;
0=
0>
14
#101000
1!
1=
1>
04
1@!
1U
0T
1x
1V
0u
1W
0v
1X
#102000
1"
0!
1;
0=
0>
14
#103000
1!
1=
1>
04
0?!
1>!
0@!
1S
0?
0V
1u
0U
1T
0x
1Z
0W
0Z
1W
0u
1[
1v
0X
0[
1X
0v
1\
0\
#104000
0#
0"
0!
0#!
0;
0=
0>
14
#105000
1!
1=
1>
04
1@!
1U
0T
1x
1u
1v
#106000
1"
0!
1;
0=
0>
14
#107000
1!
1=
1>
04
1?!
0@!
1?
1V
0u
0U
1T
0x
1Z
0W
0V
1u
0v
1[
0Z
1W
0X
1v
0[
1\
1X
0\
#108000
1#
0"
0!
1#!
0;
0=
0>
14
#109000
1!
1=
1>
04
1@!
1U
0T
1x
1V
0u
1Z
0W
0v
1[
0X
1\
#110000
1"
0!
1;
0=
0>
14
#111000
1!
1=
1>
04
0?!
1=!
1]
0>!
0@!
0S
0?
0V
1u
0x
1^
0[
0U
1T
0Z
1W
0W
1`
0_
0u
0^
1[
1v
0\
1X
1c
0a
0`
1_
0X
0v
1\
1d
0c
1a
0d
1e
0e
#112000
0#
0"
0!
0#!
0;
0=
0>
14
#113000
1!
1=
1>
04
1@!
1U
0T
1u
1v
#114000
1"
0!
1;
0=
0>
14
#115000
1!
1=
1>
04
1?!
0@!
1?
1V
0u
0U
1T
1W
0V
1u
0v
0W
1X
1v
0X
#116000
1#
0"
0!
1#!
0;
0=
0>
14
#117000
1!
1=
1>
04
1@!
1U
0T
1V
0u
1W
0v
1X
#118000
1"
0!
1;
0=
0>
14
#119000
1!
1=
1>
04
0?!
1>!
0@!
1S
0?
0V
1u
0U
1T
1Z
0W
0Z
1W
0u
1^
0[
1v
0X
0^
1[
1`
0_
1X
0v
0\
0`
1_
1c
0a
1\
0c
1a
1d
0d
1e
0e
#120000
0#
0"
0!
0#!
0;
0=
0>
14
#121000
1!
1=
1>
04
1@!
1U
0T
1u
1v
#122000
1"
0!
1;
0=
0>
14
#123000
1!
1=
1>
04
1?!
0@!
1?
1V
0u
0U
1T
1Z
0W
0V
1u
0v
1^
0[
0Z
1W
0X
1v
1`
0_
0^
1[
0\
1X
1c
0a
0`
1_
1\
1d
0c
1a
0d
1e
0e
#124000
1#
0"
0!
1#!
0;
0=
0>
14
#125000
1!
1=
1>
04
1@!
1U
0T
1V
0u
1Z
0W
0v
1^
0[
0X
1`
0_
0\
1c
0a
1d
1e
#126000
1"
0!
1;
0=
0>
14
#127000
1!
1=
1>
04
0?!
1f
1:!
0=!
0;!
0<!
0]
0>!
0@!
0S
0?
0V
1u
1g
0d
0c
1a
0`
1_
0^
1[
0U
1T
0Z
1W
0W
1h
0g
1d
0a
0_
0u
0[
1v
0e
1\
1X
0h
0X
1e
0v
0\
#128000
0#
0"
0!
0#!
0;
0=
0>
14
#129000
1!
1=
1>
04
1@!
1U
0T
1u
1v
#130000
1"
0!
1;
0=
0>
14
#131000
1!
1=
1>
04
1?!
0@!
1?
1V
0u
0U
1T
1W
0V
1u
0v
0W
1X
1v
0X
#132000
1#
0"
0!
1#!
0;
0=
0>
14
#133000
1!
1=
1>
04
1@!
1U
0T
1V
0u
1W
0v
1X
#134000
1"
0!
1;
0=
0>
14
#135000
1!
1=
1>
04
0?!
1>!
0@!
1S
0?
0V
1u
0U
1T
1Z
0W
0Z
1W
0u
1[
1v
0X
0[
1X
0v
1\
0\
#136000
0#
0"
0!
0#!
0;
0=
0>
14
#137000
1!
1=
1>
04
1@!
1U
0T
1u
1v
#138000
1"
0!
1;
0=
0>
14
#139000
1!
1=
1>
04
1?!
0@!
1?
1V
0u
0U
1T
1Z
0W
0V
1u
0v
1[
0Z
1W
0X
1v
0[
1\
1X
0\
#140000
1#
0"
0!
1#!
0;
0=
0>
14
#141000
1!
1=
1>
04
1@!
1U
0T
1V
0u
1Z
0W
0v
1[
0X
1\
#142000
1"
0!
1;
0=
0>
14
#143000
1!
1=
1>
04
0?!
1=!
1]
0>!
0@!
0S
0?
0V
1u
1b
1^
0[
0U
1T
0Z
1W
0W
1_
0u
0^
1[
1v
1X
0\
0_
0X
0v
1\
#144000
0#
0"
0!
0#!
0;
0=
0>
14
#145000
1!
1=
1>
04
1@!
1U
0T
0b
1u
1v
#146000
1"
0!
1;
0=
0>
14
#147000
1!
1=
1>
04
1?!
0@!
1?
1V
0u
0U
1T
1b
1W
0V
1u
0v
0W
1X
1v
0X
#148000
1#
0"
0!
1#!
0;
0=
0>
14
#149000
1!
1=
1>
04
1@!
1U
0T
0b
1V
0u
1W
0v
1X
#150000
1"
0!
1;
0=
0>
14
#151000
1!
1=
1>
04
0?!
1>!
0@!
1S
0?
0V
1u
0U
1T
1b
1Z
0W
0Z
1W
0u
1^
0[
1v
0X
0^
1[
1_
1X
0v
0\
0_
1\
#152000
0#
0"
0!
0#!
0;
0=
0>
14
#153000
1!
1=
1>
04
1@!
1U
0T
0b
1u
1v
#154000
1"
0!
1;
0=
0>
14
#155000
1!
1=
1>
04
1?!
0@!
1?
1V
0u
0U
1T
1b
1Z
0W
0V
1u
0v
1^
0[
0Z
1W
0X
1v
1_
0^
1[
0\
1X
0_
1\
#156000
1#
0"
0!
1#!
0;
0=
0>
14
#157000
1!
1=
1>
04
1@!
1U
0T
0b
1V
0u
1Z
0W
0v
1^
0[
0X
1_
0\
#158000
1"
0!
1;
0=
0>
14
#159000
1!
1=
1>
04
0?!
0=!
1<!
0]
0>!
0@!
0S
0?
0V
1u
1`
0_
0^
1[
0U
1T
0Z
1W
0W
1a
0`
1_
0u
0[
1v
1\
1X
0a
0X
0v
0\
#160000
0#
0"
0!
0#!
0;
0=
0>
14
#161000
1!
1=
1>
04
1@!
1U
0T
1u
1v
#162000
1"
0!
1;
0=
0>
14
#163000
1!
1=
1>
04
1?!
0@!
1?
1V
0u
0U
1T
1W
0V
1u
0v
0W
1X
1v
0X
#164000
1#
0"
0!
1#!
0;
0=
0>
14
#165000
1!
1=
1>
04
1@!
1U
0T
1V
0u
1W
0v
1X
#166000
1"
0!
1;
0=
0>
14
#167000
1!
1=
1>
04
0?!
1>!
0@!
1S
0?
0V
1u
0U
1T
1Z
0W
0Z
1W
0u
1[
1v
0X
0[
1X
0v
1\
0\
#168000
0#
0"
0!
0#!
0;
0=
0>
14
#169000
1!
1=
1>
04
1@!
1U
0T
1u
1v
#170000
1"
0!
1;
0=
0>
14
#171000
1!
1=
1>
04
1?!
0@!
1?
1V
0u
0U
1T
1Z
0W
0V
1u
0v
1[
0Z
1W
0X
1v
0[
1\
1X
0\
#172000
1#
0"
0!
1#!
0;
0=
0>
14
#173000
1!
1=
1>
04
1@!
1U
0T
1V
0u
1Z
0W
0v
1[
0X
1\
#174000
1"
0!
1;
0=
0>
14
#175000
1!
1=
1>
04
0?!
1=!
1]
0>!
0@!
0S
0?
0V
1u
1b
1^
0[
0U
1T
0Z
1W
0W
1`
0_
0u
0^
1[
1v
1X
0\
1a
0`
1_
0X
0v
1\
0a
#176000
0#
0"
0!
0#!
0;
0=
0>
14
#177000
1!
1=
1>
04
1@!
1U
0T
0b
1u
1v
#178000
1"
0!
1;
0=
0>
14
#179000
1!
1=
1>
04
1?!
0@!
1?
1V
0u
0U
1T
1b
1W
0V
1u
0v
0W
1X
1v
0X
#180000
1#
0"
0!
1#!
0;
0=
0>
14
#181000
1!
1=
1>
04
1@!
1U
0T
0b
1V
0u
1W
0v
1X
#182000
1"
0!
1;
0=
0>
14
#183000
1!
1=
1>
04
0?!
1>!
0@!
1S
0?
0V
1u
0U
1T
1b
1Z
0W
0Z
1W
0u
1^
0[
1v
0X
0^
1[
1`
0_
1X
0v
0\
0`
1_
1a
1\
0a
#184000
0#
0"
0!
0#!
0;
0=
0>
14
#185000
1!
1=
1>
04
1@!
1U
0T
0b
1u
1v
#186000
1"
0!
1;
0=
0>
14
#187000
1!
1=
1>
04
1?!
0@!
1?
1V
0u
0U
1T
1b
1Z
0W
0V
1u
0v
1^
0[
0Z
1W
0X
1v
1`
0_
0^
1[
0\
1X
1a
0`
1_
1\
0a
#188000
1#
0"
0!
1#!
0;
0=
0>
14
#189000
1!
1=
1>
04
1@!
1U
0T
0b
1V
0u
1Z
0W
0v
1^
0[
0X
1`
0_
0\
1a
#190000
1"
0!
1;
0=
0>
14
#191000
1!
1=
1>
04
0?!
0=!
1;!
0<!
0]
0>!
0@!
0S
0?
0V
1u
1c
0a
0`
1_
0^
1[
0U
1T
0Z
1W
0W
1g
0d
0c
1a
0_
0u
0[
1v
1\
1X
1h
0g
1d
0X
0e
0v
0\
0h
1e
#192000
0#
0"
0!
0#!
0;
0=
0>
14
#193000
1!
1=
1>
04
1@!
1U
0T
1u
1v
#194000
1"
0!
1;
0=
0>
14
#195000
1!
1=
1>
04
1?!
0@!
1?
1V
0u
0U
1T
1W
0V
1u
0v
0W
1X
1v
0X
#196000
1#
0"
0!
1#!
0;
0=
0>
14
#197000
1!
1=
1>
04
1@!
1U
0T
1V
0u
1W
0v
1X
#198000
1"
0!
1;
0=
0>
14
#199000
1!
1=
1>
04
0?!
1>!
0@!
1S
0?
0V
1u
0U
1T
1Z
0W
0Z
1W
0u
1[
1v
0X
0[
1X
0v
1\
0\
#200000
0#
0"
0!
0#!
0;
0=
0>
14
#201000
1!
1=
1>
04
1@!
1U
0T
1u
1v
#202000
1"
0!
1;
0=
0>
14
#203000
1!
1=
1>
04
1?!
0@!
1?
1V
0u
0U
1T
1Z
0W
0V
1u
0v
1[
0Z
1W
0X
1v
0[
1\
1X
0\
#204000
1#
0"
0!
1#!
0;
0=
0>
14
#205000
1!
1=
1>
04
1@!
1U
0T
1V
0u
1Z
0W
0v
1[
0X
1\
#206000
1"
0!
1;
0=
0>
14
#207000
1!
1=
1>
04
0?!
1=!
1]
0>!
0@!
0S
0?
0V
1u
1^
0[
0U
1T
0Z
1W
0W
1_
0u
0^
1[
1v
0\
1X
0_
0X
0v
1\
#208000
0#
0"
0!
0#!
0;
0=
0>
14
#209000
1!
1=
1>
04
1@!
1U
0T
1u
1v
#210000
1"
0!
1;
0=
0>
14
#211000
1!
1=
1>
04
1?!
0@!
1?
1V
0u
0U
1T
1W
0V
1u
0v
0W
1X
1v
0X
#212000
1#
0"
0!
1#!
0;
0=
0>
14
#213000
1!
1=
1>
04
1@!
1U
0T
1V
0u
1W
0v
1X
#214000
1"
0!
1;
0=
0>
14
#215000
1!
1=
1>
04
0?!
1>!
0@!
1S
0?
0V
1u
0U
1T
1Z
0W
0Z
1W
0u
1^
0[
1v
0X
0^
1[
1_
1X
0v
0\
0_
1\
#216000
0#
0"
0!
0#!
0;
0=
0>
14
#217000
1!
1=
1>
04
1@!
1U
0T
1u
1v
#218000
1"
0!
1;
0=
0>
14
#219000
1!
1=
1>
04
1?!
0@!
1?
1V
0u
0U
1T
1Z
0W
0V
1u
0v
1^
0[
0Z
1W
0X
1v
1_
0^
1[
0\
1X
0_
1\
#220000
1#
0"
0!
1#!
0;
0=
0>
14
#221000
1!
1=
1>
04
1@!
1U
0T
1V
0u
1Z
0W
0v
1^
0[
0X
1_
0\
#222000
1"
0!
1;
0=
0>
14
#223000
1!
1=
1>
04
0?!
0=!
1<!
0]
0>!
0@!
0S
0?
0V
1u
1`
0_
0^
1[
0U
1T
0Z
1W
0W
1c
0a
0`
1_
0u
0[
1v
1\
1X
1g
0d
0c
1a
0X
0v
0\
1h
0g
1d
0e
0h
1e
#224000
0#
0"
0!
0#!
0;
0=
0>
14
#225000
1!
1=
1>
04
1@!
1U
0T
1u
1v
#226000
1"
0!
1;
0=
0>
14
#227000
1!
1=
1>
04
1?!
0@!
1?
1V
0u
0U
1T
1W
0V
1u
0v
0W
1X
1v
0X
#228000
1#
0"
0!
1#!
0;
0=
0>
14
#229000
1!
1=
1>
04
1@!
1U
0T
1V
0u
1W
0v
1X
#230000
1"
0!
1;
0=
0>
14
#231000
1!
1=
1>
04
0?!
1>!
0@!
1S
0?
0V
1u
0U
1T
1Z
0W
0Z
1W
0u
1[
1v
0X
0[
1X
0v
1\
0\
#232000
0#
0"
0!
0#!
0;
0=
0>
14
#233000
1!
1=
1>
04
1@!
1U
0T
1u
1v
#234000
1"
0!
1;
0=
0>
14
#235000
1!
1=
1>
04
1?!
0@!
1?
1V
0u
0U
1T
1Z
0W
0V
1u
0v
1[
0Z
1W
0X
1v
0[
1\
1X
0\
#236000
1#
0"
0!
1#!
0;
0=
0>
14
#237000
1!
1=
1>
04
1@!
1U
0T
1V
0u
1Z
0W
0v
1[
0X
1\
#238000
1"
0!
1;
0=
0>
14
#239000
1!
1=
1>
04
0?!
1=!
1]
0>!
0@!
0S
0?
0V
1u
1^
0[
0U
1T
0Z
1W
0W
1`
0_
0u
0^
1[
1v
0\
1X
1c
0a
0`
1_
0X
0v
1\
1g
0d
0c
1a
1h
0g
1d
0e
0h
1e
#240000
0#
0"
0!
0#!
0;
0=
0>
14
#241000
1!
1=
1>
04
1@!
1U
0T
1u
1v
#242000
1"
0!
1;
0=
0>
14
#243000
1!
1=
1>
04
1?!
0@!
1?
1V
0u
0U
1T
1W
0V
1u
0v
0W
1X
1v
0X
#244000
1#
0"
0!
1#!
0;
0=
0>
14
#245000
1!
1=
1>
04
1@!
1U
0T
1V
0u
1W
0v
1X
#246000
1"
0!
1;
0=
0>
14
