by-Tako/countLife/simulation/qsim/countLife.msim.vcd
$comment
	File created using the following command:
		vcd file countLife.msim.vcd -direction
$end
$date
	Fri May 14 22:00:16 2021
$end
$version
	ModelSim Version 10.1e
$end
$timescale
	1ps
$end
$scope module countLife_vlg_vec_tst $end
$var reg 1 ! start $end
$var reg 1 " touch $end
$var wire 1 # gameStatus $end
$var wire 1 $ led [0] $end
$var wire 1 % led [1] $end
$var wire 1 & led [2] $end
$var wire 1 ' led [3] $end
$var wire 1 ( sampler $end
$scope module i1 $end
$var wire 1 ) gnd $end
$var wire 1 * vcc $end
$var wire 1 + unknown $end
$var tri1 1 , devclrn $end
$var tri1 1 - devpor $end
$var tri1 1 . devoe $end
$var wire 1 / ~QUARTUS_CREATED_GND~I_combout $end
$var wire 1 0 touch~input_o $end
$var wire 1 1 start~input_o $end
$var wire 1 2 tempTouch~combout $end
$var wire 1 3 temp[3]~DUPLICATE_q $end
$var wire 1 4 Mux0~0_combout $end
$var wire 1 5 temp[0]~feeder_combout $end
$var wire 1 6 temp[1]~DUPLICATE_q $end
$var wire 1 7 Mux2~0_combout $end
$var wire 1 8 temp[2]~feeder_combout $end
$var wire 1 9 temp[2]~DUPLICATE_q $end
$var wire 1 : temp[0]~DUPLICATE_q $end
$var wire 1 ; Mux1~0_combout $end
$var wire 1 < Mux3~0_combout $end
$var wire 1 = temp[3]~feeder_combout $end
$var wire 1 > gameStatus~0_combout $end
$var wire 1 ? temp [0] $end
$var wire 1 @ temp [1] $end
$var wire 1 A temp [2] $end
$var wire 1 B temp [3] $end
$upscope $end
$upscope $end
$enddefinitions $end
#0
$dumpvars
1!
0"
1#
0'
0&
0%
0$
x(
0)
1*
x+
1,
1-
1.
0/
00
11
12
03
14
15
06
17
18
09
0:
1;
1<
1=
0>
0B
0A
0@
0?
$end
#20000
0!
01
0(
02
#40000
1"
1!
10
11
1(
12
1@
1?
1A
13
1B
1:
19
16
0<
1>
1'
1$
1&
1%
0=
0#
#60000
0!
01
0(
#80000
0"
1!
00
11
1(
#100000
0!
01
0(
02
#120000
1"
1!
10
11
1(
12
03
0B
07
0'
08
#140000
0!
01
0(
#160000
0"
1!
00
11
1(
#180000
0!
01
0(
02
#200000
1"
1!
10
11
1(
12
0A
09
0;
0&
#220000
0!
01
0(
#240000
0"
1!
00
11
1(
#260000
0!
01
0(
02
#280000
1"
1!
10
11
1(
12
0@
06
04
0%
05
#300000
0!
01
0(
#320000
0"
1!
00
11
1(
#340000
0!
01
0(
02
#360000
1"
1!
10
11
1(
12
0?
0:
14
17
1<
0>
1;
0$
15
18
1=
1#
#380000
0!
01
0(
#400000
0"
1!
00
11
1(
#420000
0!
01
0(
02
#440000
1"
1!
10
11
1(
12
1@
1?
1A
13
1B
1:
19
16
0<
1>
1'
1$
1&
1%
0=
0#
#460000
0!
01
0(
#480000
0"
1!
00
11
1(
#500000
0!
01
0(
02
#520000
1"
1!
10
11
1(
12
03
0B
07
0'
08
#540000
0!
01
0(
#560000
0"
1!
00
11
1(
#580000
0!
01
0(
02
#600000
1"
1!
10
11
1(
12
0A
09
0;
0&
#620000
0!
01
0(
#640000
0"
1!
00
11
1(
#660000
0!
01
0(
02
#680000
1"
1!
10
11
1(
12
0@
06
04
0%
05
#700000
0!
01
0(
#720000
0"
1!
00
11
1(
#740000
0!
01
0(
02
#760000
1"
1!
10
11
1(
12
0?
0:
14
17
1<
0>
1;
0$
15
18
1=
1#
#780000
0!
01
0(
#800000
0"
1!
00
11
1(
#820000
0!
01
0(
02
#840000
1"
1!
10
11
1(
12
1@
1?
1A
13
1B
1:
19
16
0<
1>
1'
1$
1&
1%
0=
0#
#860000
0!
01
0(
#880000
0"
1!
00
11
1(
#900000
0!
01
0(
02
#920000
1"
1!
10
11
1(
12
03
0B
07
0'
08
#940000
0!
01
0(
#960000
0"
1!
00
11
1(
#980000
0!
01
0(
02
