projectFull/simulation/qsim/projectFull.msim.vcd
$comment
	File created using the following command:
		vcd file projectFull.msim.vcd -direction
$end
$date
	Wed May 26 15:40:54 2021
$end
$version
	ModelSim Version 10.1e
$end
$timescale
	1ps
$end
$scope module projectFull_vlg_vec_tst $end
$var reg 1 ! enter $end
$var reg 1 " g0 $end
$var reg 1 # g1 $end
$var reg 1 $ g2 $end
$var reg 1 % g3 $end
$var reg 1 & g4 $end
$var reg 1 ' g5 $end
$var reg 1 ( g6 $end
$var reg 1 ) g7 $end
$var reg 1 * u0 $end
$var reg 1 + u1 $end
$var reg 1 , u2 $end
$var reg 1 - u3 $end
$var reg 1 . u4 $end
$var reg 1 / u5 $end
$var reg 1 0 u6 $end
$var reg 1 1 u7 $end
$var wire 1 2 TFS0 $end
$var wire 1 3 TFS1 $end
$var wire 1 4 sampler $end
$scope module i1 $end
$var wire 1 5 gnd $end
$var wire 1 6 vcc $end
$var wire 1 7 unknown $end
$var tri1 1 8 devclrn $end
$var tri1 1 9 devpor $end
$var tri1 1 : devoe $end
$var wire 1 ; ~QUARTUS_CREATED_GND~I_combout $end
$var wire 1 < enter~input_o $end
$var wire 1 = enter~inputCLKENA0_outclk $end
$var wire 1 > u2~input_o $end
$var wire 1 ? u1~input_o $end
$var wire 1 @ u0~input_o $end
$var wire 1 A g0~input_o $end
$var wire 1 B g1~input_o $end
$var wire 1 C g2~input_o $end
$var wire 1 D inst|temp~0_combout $end
$var wire 1 E g6~input_o $end
$var wire 1 F g7~input_o $end
$var wire 1 G u6~input_o $end
$var wire 1 H u7~input_o $end
$var wire 1 I inst|temp~2_combout $end
$var wire 1 J g5~input_o $end
$var wire 1 K u4~input_o $end
$var wire 1 L g3~input_o $end
$var wire 1 M u3~input_o $end
$var wire 1 N g4~input_o $end
$var wire 1 O inst|temp~1_combout $end
$var wire 1 P u5~input_o $end
$var wire 1 Q inst|temp~combout $end
$var wire 1 R inst|temp2[1]~0_combout $end
$var wire 1 S inst|temp2 [0] $end
$var wire 1 T inst|temp2 [1] $end
$upscope $end
$upscope $end
$enddefinitions $end
#0
$dumpvars
0!
0"
1#
0$
1%
0&
0'
0(
0)
0*
0+
0,
0-
0.
0/
00
01
02
03
x4
05
16
x7
18
19
1:
0;
0<
0=
0>
0?
0@
0A
1B
0C
0D
0E
0F
0G
0H
1I
0J
0K
1L
0M
0N
0O
0P
1Q
0R
0T
0S
$end
#1000
1!
1<
1=
04
1S
12
#2000
11
0!
1H
0<
0=
14
0I
#3000
1!
1<
1=
04
#4000
10
01
0!
1G
0H
0<
0=
14
#5000
1!
1<
1=
04
#6000
11
0!
1H
0<
0=
14
#7000
1!
1<
1=
04
#8000
1/
00
01
0!
1P
0G
0H
0<
0=
14
1I
#9000
1!
1<
1=
04
#10000
11
0!
1H
0<
0=
14
0I
#11000
1!
1<
1=
04
#12000
10
01
0!
1G
0H
0<
0=
14
#13000
1!
1<
1=
04
#14000
11
0!
1H
0<
0=
14
#15000
1!
1<
1=
04
#16000
1.
0/
00
01
0!
1K
0P
0G
0H
0<
0=
14
1I
#17000
1!
1<
1=
04
#18000
11
0!
1H
0<
0=
14
0I
#19000
1!
1<
1=
04
#20000
10
01
0!
1G
0H
0<
0=
14
#21000
1!
1<
1=
04
#22000
11
0!
1H
0<
0=
14
#23000
1!
1<
1=
04
#24000
1/
00
01
0!
1P
0G
0H
0<
0=
14
1I
#25000
1!
1<
1=
04
#26000
11
0!
1H
0<
0=
14
0I
#27000
1!
1<
1=
04
#28000
10
01
0!
1G
0H
0<
0=
14
#29000
1!
1<
1=
04
#30000
11
0!
1H
0<
0=
14
#31000
1!
1<
1=
04
#32000
1-
0.
0/
00
01
0!
1M
0K
0P
0G
0H
0<
0=
14
1O
1I
#33000
1!
1<
1=
04
#34000
11
0!
1H
0<
0=
14
0I
#35000
1!
1<
1=
04
#36000
10
01
0!
1G
0H
0<
0=
14
#37000
1!
1<
1=
04
#38000
11
0!
1H
0<
0=
14
#39000
1!
1<
1=
04
#40000
1/
00
01
0!
1P
0G
0H
0<
0=
14
1I
#41000
1!
1<
1=
04
#42000
11
0!
1H
0<
0=
14
0I
#43000
1!
1<
1=
04
#44000
10
01
0!
1G
0H
0<
0=
14
#45000
1!
1<
1=
04
#46000
11
0!
1H
0<
0=
14
#47000
1!
1<
1=
04
#48000
1.
0/
00
01
0!
1K
0P
0G
0H
0<
0=
14
0O
1I
#49000
1!
1<
1=
04
#50000
11
0!
1H
0<
0=
14
0I
#51000
1!
1<
1=
04
#52000
10
01
0!
1G
0H
0<
0=
14
#53000
1!
1<
1=
04
#54000
11
0!
1H
0<
0=
14
#55000
1!
1<
1=
04
#56000
1/
00
01
0!
1P
0G
0H
0<
0=
14
1I
#57000
1!
1<
1=
04
#58000
11
0!
1H
0<
0=
14
0I
#59000
1!
1<
1=
04
#60000
10
01
0!
1G
0H
0<
0=
14
#61000
1!
1<
1=
04
#62000
11
0!
1H
0<
0=
14
#63000
1!
1<
1=
04
#64000
1,
0-
0.
0/
00
01
0!
1>
0M
0K
0P
0G
0H
0<
0=
14
1I
#65000
1!
1<
1=
04
#66000
11
0!
1H
0<
0=
14
0I
#67000
1!
1<
1=
04
#68000
10
01
0!
1G
0H
0<
0=
14
#69000
1!
1<
1=
04
#70000
11
0!
1H
0<
0=
14
#71000
1!
1<
1=
04
#72000
1/
00
01
0!
1P
0G
0H
0<
0=
14
1I
#73000
1!
1<
1=
04
#74000
11
0!
1H
0<
0=
14
0I
#75000
1!
1<
1=
04
#76000
10
01
0!
1G
0H
0<
0=
14
#77000
1!
1<
1=
04
#78000
11
0!
1H
0<
0=
14
#79000
1!
1<
1=
04
#80000
1.
0/
00
01
0!
1K
0P
0G
0H
0<
0=
14
1I
#81000
1!
1<
1=
04
#82000
11
0!
1H
0<
0=
14
0I
#83000
1!
1<
1=
04
#84000
10
01
0!
1G
0H
0<
0=
14
#85000
1!
1<
1=
04
#86000
11
0!
1H
0<
0=
14
#87000
1!
1<
1=
04
#88000
1/
00
01
0!
1P
0G
0H
0<
0=
14
1I
#89000
1!
1<
1=
04
#90000
11
0!
1H
0<
0=
14
0I
#91000
1!
1<
1=
04
#92000
10
01
0!
1G
0H
0<
0=
14
#93000
1!
1<
1=
04
#94000
11
0!
1H
0<
0=
14
#95000
1!
1<
1=
04
#96000
1-
0.
0/
00
01
0!
1M
0K
0P
0G
0H
0<
0=
14
1O
1I
#97000
1!
1<
1=
04
#98000
11
0!
1H
0<
0=
14
0I
#99000
1!
1<
1=
04
#100000
10
01
0!
1G
0H
0<
0=
14
#101000
1!
1<
1=
04
#102000
11
0!
1H
0<
0=
14
#103000
1!
1<
1=
04
#104000
1/
00
01
0!
1P
0G
0H
0<
0=
14
1I
#105000
1!
1<
1=
04
#106000
11
0!
1H
0<
0=
14
0I
#107000
1!
1<
1=
04
#108000
10
01
0!
1G
0H
0<
0=
14
#109000
1!
1<
1=
04
#110000
11
0!
1H
0<
0=
14
#111000
1!
1<
1=
04
#112000
1.
0/
00
01
0!
1K
0P
0G
0H
0<
0=
14
0O
1I
#113000
1!
1<
1=
04
#114000
11
0!
1H
0<
0=
14
0I
#115000
1!
1<
1=
04
#116000
10
01
0!
1G
0H
0<
0=
14
#117000
1!
1<
1=
04
#118000
11
0!
1H
0<
0=
14
#119000
1!
1<
1=
04
#120000
1/
00
01
0!
1P
0G
0H
0<
0=
14
1I
#121000
1!
1<
1=
04
#122000
11
0!
1H
0<
0=
14
0I
#123000
1!
1<
1=
04
#124000
10
01
0!
1G
0H
0<
0=
14
#125000
1!
1<
1=
04
#126000
11
0!
1H
0<
0=
14
#127000
1!
1<
1=
04
#128000
1+
0,
0-
0.
0/
00
01
0!
1?
0>
0M
0K
0P
0G
0H
0<
0=
14
1D
1I
#129000
1!
1<
1=
04
#130000
11
0!
1H
0<
0=
14
0I
#131000
1!
1<
1=
04
#132000
10
01
0!
1G
0H
0<
0=
14
#133000
1!
1<
1=
04
#134000
11
0!
1H
0<
0=
14
#135000
1!
1<
1=
04
#136000
1/
00
01
0!
1P
0G
0H
0<
0=
14
1I
#137000
1!
1<
1=
04
#138000
11
0!
1H
0<
0=
14
0I
#139000
1!
1<
1=
04
#140000
10
01
0!
1G
0H
0<
0=
14
#141000
1!
1<
1=
04
#142000
11
0!
1H
0<
0=
14
#143000
1!
1<
1=
04
#144000
1.
0/
00
01
0!
1K
0P
0G
0H
0<
0=
14
1I
#145000
1!
1<
1=
04
#146000
11
0!
1H
0<
0=
14
0I
#147000
1!
1<
1=
04
#148000
10
01
0!
1G
0H
0<
0=
14
#149000
1!
1<
1=
04
#150000
11
0!
1H
0<
0=
14
#151000
1!
1<
1=
04
#152000
1/
00
01
0!
1P
0G
0H
0<
0=
14
1I
#153000
1!
1<
1=
04
#154000
11
0!
1H
0<
0=
14
0I
#155000
1!
1<
1=
04
#156000
10
01
0!
1G
0H
0<
0=
14
#157000
1!
1<
1=
04
#158000
11
0!
1H
0<
0=
14
#159000
1!
1<
1=
04
#160000
1-
0.
0/
00
01
0!
1M
0K
0P
0G
0H
0<
0=
14
1O
1I
0Q
1R
#161000
1!
1<
1=
04
1T
0S
13
02
#162000
11
0!
1H
0<
0=
14
0I
1Q
0R
#163000
1!
1<
1=
04
0T
1S
03
12
#164000
10
01
0!
1G
0H
0<
0=
14
#165000
1!
1<
1=
04
#166000
11
0!
1H
0<
0=
14
#167000
1!
1<
1=
04
#168000
1/
00
01
0!
1P
0G
0H
0<
0=
14
1I
#169000
1!
1<
1=
04
#170000
11
0!
1H
0<
0=
14
0I
#171000
1!
1<
1=
04
#172000
10
01
0!
1G
0H
0<
0=
14
#173000
1!
1<
1=
04
#174000
11
0!
1H
0<
0=
14
#175000
1!
1<
1=
04
#176000
1.
0/
00
01
0!
1K
0P
0G
0H
0<
0=
14
0O
1I
#177000
1!
1<
1=
04
#178000
11
0!
1H
0<
0=
14
0I
#179000
1!
1<
1=
04
#180000
10
01
0!
1G
0H
0<
0=
14
#181000
1!
1<
1=
04
#182000
11
0!
1H
0<
0=
14
#183000
1!
1<
1=
04
#184000
1/
00
01
0!
1P
0G
0H
0<
0=
14
1I
#185000
1!
1<
1=
04
#186000
11
0!
1H
0<
0=
14
0I
#187000
1!
1<
1=
04
#188000
10
01
0!
1G
0H
0<
0=
14
#189000
1!
1<
1=
04
#190000
11
0!
1H
0<
0=
14
#191000
1!
1<
1=
04
#192000
1,
0-
0.
0/
00
01
0!
1>
0M
0K
0P
0G
0H
0<
0=
14
0D
1I
#193000
1!
1<
1=
04
#194000
11
0!
1H
0<
0=
14
0I
#195000
1!
1<
1=
04
#196000
10
01
0!
1G
0H
0<
0=
14
#197000
1!
1<
1=
04
#198000
11
0!
1H
0<
0=
14
#199000
1!
1<
1=
04
#200000
1/
00
01
0!
1P
0G
0H
0<
0=
14
1I
#201000
1!
1<
1=
04
#202000
11
0!
1H
0<
0=
14
0I
#203000
1!
1<
1=
04
#204000
10
01
0!
1G
0H
0<
0=
14
#205000
1!
1<
1=
04
#206000
11
0!
1H
0<
0=
14
#207000
1!
1<
1=
04
#208000
1.
0/
00
01
0!
1K
0P
0G
0H
0<
0=
14
1I
#209000
1!
1<
1=
04
#210000
11
0!
1H
0<
0=
14
0I
#211000
1!
1<
1=
04
#212000
10
01
0!
1G
0H
0<
0=
14
#213000
1!
1<
1=
04
#214000
11
0!
1H
0<
0=
14
#215000
1!
1<
1=
04
#216000
1/
00
01
0!
1P
0G
0H
0<
0=
14
1I
#217000
1!
1<
1=
04
#218000
11
0!
1H
0<
0=
14
0I
#219000
1!
1<
1=
04
#220000
10
01
0!
1G
0H
0<
0=
14
#221000
1!
1<
1=
04
#222000
11
0!
1H
0<
0=
14
#223000
1!
1<
1=
04
#224000
1-
0.
0/
00
01
0!
1M
0K
0P
0G
0H
0<
0=
14
1O
1I
#225000
1!
1<
1=
04
#226000
11
0!
1H
0<
0=
14
0I
#227000
1!
1<
1=
04
#228000
10
01
0!
1G
0H
0<
0=
14
#229000
1!
1<
1=
04
#230000
11
0!
1H
0<
0=
14
#231000
1!
1<
1=
04
#232000
1/
00
01
0!
1P
0G
0H
0<
0=
14
1I
#233000
1!
1<
1=
04
#234000
11
0!
1H
0<
0=
14
0I
#235000
1!
1<
1=
04
#236000
10
01
0!
1G
0H
0<
0=
14
#237000
1!
1<
1=
04
#238000
11
0!
1H
0<
0=
14
#239000
1!
1<
1=
04
#240000
1.
0/
00
01
0!
1K
0P
0G
0H
0<
0=
14
0O
1I
#241000
1!
1<
1=
04
#242000
11
0!
1H
0<
0=
14
0I
#243000
1!
1<
1=
04
#244000
10
01
0!
1G
0H
0<
0=
14
#245000
1!
1<
1=
04
#246000
11
0!
1H
0<
0=
14
#247000
1!
1<
1=
04
#248000
1/
00
01
0!
1P
0G
0H
0<
0=
14
1I
#249000
1!
1<
1=
04
#250000
11
0!
1H
0<
0=
14
0I
#251000
1!
1<
1=
04
#252000
10
01
0!
1G
0H
0<
0=
14
#253000
1!
1<
1=
04
#254000
11
0!
1H
0<
0=
14
#255000
1!
1<
1=
04
#256000
1*
0+
0,
0-
0.
0/
00
01
0!
1@
0?
0>
0M
0K
0P
0G
0H
0<
0=
14
1I
#257000
1!
1<
1=
04
#258000
11
0!
1H
0<
0=
14
0I
#259000
1!
1<
1=
04
#260000
10
01
0!
1G
0H
0<
0=
14
#261000
1!
1<
1=
04
#262000
11
0!
1H
0<
0=
14
#263000
1!
1<
1=
04
#264000
1/
00
01
0!
1P
0G
0H
0<
0=
14
1I
#265000
1!
1<
1=
04
#266000
11
0!
1H
0<
0=
14
0I
#267000
1!
1<
1=
04
#268000
10
01
0!
1G
0H
0<
0=
14
#269000
1!
1<
1=
04
#270000
11
0!
1H
0<
0=
14
#271000
1!
1<
1=
04
#272000
1.
0/
00
01
0!
1K
0P
0G
0H
0<
0=
14
1I
#273000
1!
1<
1=
04
#274000
11
0!
1H
0<
0=
14
0I
#275000
1!
1<
1=
04
#276000
10
01
0!
1G
0H
0<
0=
14
#277000
1!
1<
1=
04
#278000
11
0!
1H
0<
0=
14
#279000
1!
1<
1=
04
#280000
1/
00
01
0!
1P
0G
0H
0<
0=
14
1I
#281000
1!
1<
1=
04
#282000
11
0!
1H
0<
0=
14
0I
#283000
1!
1<
1=
04
#284000
10
01
0!
1G
0H
0<
0=
14
#285000
1!
1<
1=
04
#286000
11
0!
1H
0<
0=
14
#287000
1!
1<
1=
04
#288000
1-
0.
0/
00
01
0!
1M
0K
0P
0G
0H
0<
0=
14
1O
1I
#289000
1!
1<
1=
04
#290000
11
0!
1H
0<
0=
14
0I
#291000
1!
1<
1=
04
#292000
10
01
0!
1G
0H
0<
0=
14
#293000
1!
1<
1=
04
#294000
11
0!
1H
0<
0=
14
#295000
1!
1<
1=
04
#296000
1/
00
01
0!
1P
0G
0H
0<
0=
14
1I
#297000
1!
1<
1=
04
#298000
11
0!
1H
0<
0=
14
0I
#299000
1!
1<
1=
04
#300000
10
01
0!
1G
0H
0<
0=
14
#301000
1!
1<
1=
04
#302000
11
0!
1H
0<
0=
14
#303000
1!
1<
1=
04
#304000
1.
0/
00
01
0!
1K
0P
0G
0H
0<
0=
14
0O
1I
#305000
1!
1<
1=
04
#306000
11
0!
1H
0<
0=
14
0I
#307000
1!
1<
1=
04
#308000
10
01
0!
1G
0H
0<
0=
14
#309000
1!
1<
1=
04
#310000
11
0!
1H
0<
0=
14
#311000
1!
1<
1=
04
#312000
1/
00
01
0!
1P
0G
0H
0<
0=
14
1I
#313000
1!
1<
1=
04
#314000
11
0!
1H
0<
0=
14
0I
#315000
1!
1<
1=
04
#316000
10
01
0!
1G
0H
0<
0=
14
#317000
1!
1<
1=
04
#318000
11
0!
1H
0<
0=
14
#319000
1!
1<
1=
04
#320000
1,
0-
0.
0/
00
01
0!
1>
0M
0K
0P
0G
0H
0<
0=
14
1I
#321000
1!
1<
1=
04
#322000
11
0!
1H
0<
0=
14
0I
#323000
1!
1<
1=
04
#324000
10
01
0!
1G
0H
0<
0=
14
#325000
1!
1<
1=
04
#326000
11
0!
1H
0<
0=
14
#327000
1!
1<
1=
04
#328000
1/
00
01
0!
1P
0G
0H
0<
0=
14
1I
#329000
1!
1<
1=
04
#330000
11
0!
1H
0<
0=
14
0I
#331000
1!
1<
1=
04
#332000
10
01
0!
1G
0H
0<
0=
14
#333000
1!
1<
1=
04
#334000
11
0!
1H
0<
0=
14
#335000
1!
1<
1=
04
#336000
1.
0/
00
01
0!
1K
0P
0G
0H
0<
0=
14
1I
#337000
1!
1<
1=
04
#338000
11
0!
1H
0<
0=
14
0I
#339000
1!
1<
1=
04
#340000
10
01
0!
1G
0H
0<
0=
14
#341000
1!
1<
1=
04
#342000
11
0!
1H
0<
0=
14
#343000
1!
1<
1=
04
#344000
1/
00
01
0!
1P
0G
0H
0<
0=
14
1I
#345000
1!
1<
1=
04
#346000
11
0!
1H
0<
0=
14
0I
#347000
1!
1<
1=
04
#348000
10
01
0!
1G
0H
0<
0=
14
#349000
1!
1<
1=
04
#350000
11
0!
1H
0<
0=
14
#351000
1!
1<
1=
04
#352000
1-
0.
0/
00
01
0!
1M
0K
0P
0G
0H
0<
0=
14
1O
1I
#353000
1!
1<
1=
04
#354000
11
0!
1H
0<
0=
14
0I
#355000
1!
1<
1=
04
#356000
10
01
0!
1G
0H
0<
0=
14
#357000
1!
1<
1=
04
#358000
11
0!
1H
0<
0=
14
#359000
1!
1<
1=
04
#360000
1/
00
01
0!
1P
0G
0H
0<
0=
14
1I
#361000
1!
1<
1=
04
#362000
11
0!
1H
0<
0=
14
0I
#363000
1!
1<
1=
04
#364000
10
01
0!
1G
0H
0<
0=
14
#365000
1!
1<
1=
04
#366000
11
0!
1H
0<
0=
14
#367000
1!
1<
1=
04
#368000
1.
0/
00
01
0!
1K
0P
0G
0H
0<
0=
14
0O
1I
#369000
1!
1<
1=
04
#370000
11
0!
1H
0<
0=
14
0I
#371000
1!
1<
1=
04
#372000
10
01
0!
1G
0H
0<
0=
14
#373000
1!
1<
1=
04
#374000
11
0!
1H
0<
0=
14
#375000
1!
1<
1=
04
#376000
1/
00
01
0!
1P
0G
0H
0<
0=
14
1I
#377000
1!
1<
1=
04
#378000
11
0!
1H
0<
0=
14
0I
#379000
1!
1<
1=
04
#380000
10
01
0!
1G
0H
0<
0=
14
#381000
1!
1<
1=
04
#382000
11
0!
1H
0<
0=
14
#383000
1!
1<
1=
04
#384000
1+
0,
0-
0.
0/
00
01
0!
1?
0>
0M
0K
0P
0G
0H
0<
0=
14
1I
#385000
1!
1<
1=
04
#386000
11
0!
1H
0<
0=
14
0I
#387000
1!
1<
1=
04
#388000
10
01
0!
1G
0H
0<
0=
14
#389000
1!
1<
1=
04
#390000
11
0!
1H
0<
0=
14
#391000
1!
1<
1=
04
#392000
1/
00
01
0!
1P
0G
0H
0<
0=
14
1I
#393000
1!
1<
1=
04
#394000
11
0!
1H
0<
0=
14
0I
#395000
1!
1<
1=
04
#396000
10
01
0!
1G
0H
0<
0=
14
#397000
1!
1<
1=
04
#398000
11
0!
1H
0<
0=
14
#399000
1!
1<
1=
04
#400000
1.
0/
00
01
0!
1K
0P
0G
0H
0<
0=
14
1I
#401000
1!
1<
1=
04
#402000
11
0!
1H
0<
0=
14
0I
#403000
1!
1<
1=
04
#404000
10
01
0!
1G
0H
0<
0=
14
#405000
1!
1<
1=
04
#406000
11
0!
1H
0<
0=
14
#407000
1!
1<
1=
04
#408000
1/
00
01
0!
1P
0G
0H
0<
0=
14
1I
#409000
1!
1<
1=
04
#410000
11
0!
1H
0<
0=
14
0I
#411000
1!
1<
1=
04
#412000
10
01
0!
1G
0H
0<
0=
14
#413000
1!
1<
1=
04
#414000
11
0!
1H
0<
0=
14
#415000
1!
1<
1=
04
#416000
1-
0.
0/
00
01
0!
1M
0K
0P
0G
0H
0<
0=
14
1O
1I
#417000
1!
1<
1=
04
#418000
11
0!
1H
0<
0=
14
0I
#419000
1!
1<
1=
04
#420000
10
01
0!
1G
0H
0<
0=
14
#421000
1!
1<
1=
04
#422000
11
0!
1H
0<
0=
14
#423000
1!
1<
1=
04
#424000
1/
00
01
0!
1P
0G
0H
0<
0=
14
1I
#425000
1!
1<
1=
04
#426000
11
0!
1H
0<
0=
14
0I
#427000
1!
1<
1=
04
#428000
10
01
0!
1G
0H
0<
0=
14
#429000
1!
1<
1=
04
#430000
11
0!
1H
0<
0=
14
#431000
1!
1<
1=
04
#432000
1.
0/
00
01
0!
1K
0P
0G
0H
0<
0=
14
0O
1I
#433000
1!
1<
1=
04
#434000
11
0!
1H
0<
0=
14
0I
#435000
1!
1<
1=
04
#436000
10
01
0!
1G
0H
0<
0=
14
#437000
1!
1<
1=
04
#438000
11
0!
1H
0<
0=
14
#439000
1!
1<
1=
04
#440000
1/
00
01
0!
1P
0G
0H
0<
0=
14
1I
#441000
1!
1<
1=
04
#442000
11
0!
1H
0<
0=
14
0I
#443000
1!
1<
1=
04
#444000
10
01
0!
1G
0H
0<
0=
14
#445000
1!
1<
1=
04
#446000
11
0!
1H
0<
0=
14
#447000
1!
1<
1=
04
#448000
1,
0-
0.
0/
00
01
0!
1>
0M
0K
0P
0G
0H
0<
0=
14
1I
#449000
1!
1<
1=
04
#450000
11
0!
1H
0<
0=
14
0I
#451000
1!
1<
1=
04
#452000
10
01
0!
1G
0H
0<
0=
14
#453000
1!
1<
1=
04
#454000
11
0!
1H
0<
0=
14
#455000
1!
1<
1=
04
#456000
1/
00
01
0!
1P
0G
0H
0<
0=
14
1I
#457000
1!
1<
1=
04
#458000
11
0!
1H
0<
0=
14
0I
#459000
1!
1<
1=
04
#460000
10
01
0!
1G
0H
0<
0=
14
#461000
1!
1<
1=
04
#462000
11
0!
1H
0<
0=
14
#463000
1!
1<
1=
04
#464000
1.
0/
00
01
0!
1K
0P
0G
0H
0<
0=
14
1I
#465000
1!
1<
1=
04
#466000
11
0!
1H
0<
0=
14
0I
#467000
1!
1<
1=
04
#468000
10
01
0!
1G
0H
0<
0=
14
#469000
1!
1<
1=
04
#470000
11
0!
1H
0<
0=
14
#471000
1!
1<
1=
04
#472000
1/
00
01
0!
1P
0G
0H
0<
0=
14
1I
#473000
1!
1<
1=
04
#474000
11
0!
1H
0<
0=
14
0I
#475000
1!
1<
1=
04
#476000
10
01
0!
1G
0H
0<
0=
14
#477000
1!
1<
1=
04
#478000
11
0!
1H
0<
0=
14
#479000
1!
1<
1=
04
#480000
1-
0.
0/
00
01
0!
1M
0K
0P
0G
0H
0<
0=
14
1O
1I
#481000
1!
1<
1=
04
#482000
11
0!
1H
0<
0=
14
0I
#483000
1!
1<
1=
04
#484000
10
01
0!
1G
0H
0<
0=
14
#485000
1!
1<
1=
04
#486000
11
0!
1H
0<
0=
14
#487000
1!
1<
1=
04
#488000
1/
00
01
0!
1P
0G
0H
0<
0=
14
1I
#489000
1!
1<
1=
04
#490000
11
0!
1H
0<
0=
14
0I
#491000
1!
1<
1=
04
#492000
10
01
0!
1G
0H
0<
0=
14
#493000
1!
1<
1=
04
#494000
11
0!
1H
0<
0=
14
#495000
1!
1<
1=
04
#496000
1.
0/
00
01
0!
1K
0P
0G
0H
0<
0=
14
0O
1I
#497000
1!
1<
1=
04
#498000
11
0!
1H
0<
0=
14
0I
#499000
1!
1<
1=
04
#500000
10
01
0!
1G
0H
0<
0=
14
#501000
1!
1<
1=
04
#502000
11
0!
1H
0<
0=
14
#503000
1!
1<
1=
04
#504000
1/
00
01
0!
1P
0G
0H
0<
0=
14
1I
#505000
1!
1<
1=
04
#506000
11
0!
1H
0<
0=
14
0I
#507000
1!
1<
1=
04
#508000
10
01
0!
1G
0H
0<
0=
14
#509000
1!
1<
1=
04
#510000
11
0!
1H
0<
0=
14
#511000
1!
1<
1=
04
#512000
0*
0+
0,
0-
0.
0/
00
01
0!
0@
0?
0>
0M
0K
0P
0G
0H
0<
0=
14
1I
#513000
1!
1<
1=
04
#514000
11
0!
1H
0<
0=
14
0I
#515000
1!
1<
1=
04
#516000
10
01
0!
1G
0H
0<
0=
14
#517000
1!
1<
1=
04
#518000
11
0!
1H
0<
0=
14
#519000
1!
1<
1=
04
#520000
1/
00
01
0!
1P
0G
0H
0<
0=
14
1I
#521000
1!
1<
1=
04
#522000
11
0!
1H
0<
0=
14
0I
#523000
1!
1<
1=
04
#524000
10
01
0!
1G
0H
0<
0=
14
#525000
1!
1<
1=
04
#526000
11
0!
1H
0<
0=
14
#527000
1!
1<
1=
04
#528000
1.
0/
00
01
0!
1K
0P
0G
0H
0<
0=
14
1I
#529000
1!
1<
1=
04
#530000
11
0!
1H
0<
0=
14
0I
#531000
1!
1<
1=
04
#532000
10
01
0!
1G
0H
0<
0=
14
#533000
1!
1<
1=
04
#534000
11
0!
1H
0<
0=
14
#535000
1!
1<
1=
04
#536000
1/
00
01
0!
1P
0G
0H
0<
0=
14
1I
#537000
1!
1<
1=
04
#538000
11
0!
1H
0<
0=
14
0I
#539000
1!
1<
1=
04
#540000
10
01
0!
1G
0H
0<
0=
14
#541000
1!
1<
1=
04
#542000
11
0!
1H
0<
0=
14
#543000
1!
1<
1=
04
#544000
1-
0.
0/
00
01
0!
1M
0K
0P
0G
0H
0<
0=
14
1O
1I
#545000
1!
1<
1=
04
#546000
11
0!
1H
0<
0=
14
0I
#547000
1!
1<
1=
04
#548000
10
01
0!
1G
0H
0<
0=
14
#549000
1!
1<
1=
04
#550000
11
0!
1H
0<
0=
14
#551000
1!
1<
1=
04
#552000
1/
00
01
0!
1P
0G
0H
0<
0=
14
1I
#553000
1!
1<
1=
04
#554000
11
0!
1H
0<
0=
14
0I
#555000
1!
1<
1=
04
#556000
10
01
0!
1G
0H
0<
0=
14
#557000
1!
1<
1=
04
#558000
11
0!
1H
0<
0=
14
#559000
1!
1<
1=
04
#560000
1.
0/
00
01
0!
1K
0P
0G
0H
0<
0=
14
0O
1I
#561000
1!
1<
1=
04
#562000
11
0!
1H
0<
0=
14
0I
#563000
1!
1<
1=
04
#564000
10
01
0!
1G
0H
0<
0=
14
#565000
1!
1<
1=
04
#566000
11
0!
1H
0<
0=
14
#567000
1!
1<
1=
04
#568000
1/
00
01
0!
1P
0G
0H
0<
0=
14
1I
#569000
1!
1<
1=
04
#570000
11
0!
1H
0<
0=
14
0I
#571000
1!
1<
1=
04
#572000
10
01
0!
1G
0H
0<
0=
14
#573000
1!
1<
1=
04
#574000
11
0!
1H
0<
0=
14
#575000
1!
1<
1=
04
#576000
1,
0-
0.
0/
00
01
0!
1>
0M
0K
0P
0G
0H
0<
0=
14
1I
#577000
1!
1<
1=
04
#578000
11
0!
1H
0<
0=
14
0I
#579000
1!
1<
1=
04
#580000
10
01
0!
1G
0H
0<
0=
14
#581000
1!
1<
1=
04
#582000
11
0!
1H
0<
0=
14
#583000
1!
1<
1=
04
#584000
1/
00
01
0!
1P
0G
0H
0<
0=
14
1I
#585000
1!
1<
1=
04
#586000
11
0!
1H
0<
0=
14
0I
#587000
1!
1<
1=
04
#588000
10
01
0!
1G
0H
0<
0=
14
#589000
1!
1<
1=
04
#590000
11
0!
1H
0<
0=
14
#591000
1!
1<
1=
04
#592000
1.
0/
00
01
0!
1K
0P
0G
0H
0<
0=
14
1I
#593000
1!
1<
1=
04
#594000
11
0!
1H
0<
0=
14
0I
#595000
1!
1<
1=
04
#596000
10
01
0!
1G
0H
0<
0=
14
#597000
1!
1<
1=
04
#598000
11
0!
1H
0<
0=
14
#599000
1!
1<
1=
04
#600000
1/
00
01
0!
1P
0G
0H
0<
0=
14
1I
#601000
1!
1<
1=
04
#602000
11
0!
1H
0<
0=
14
0I
#603000
1!
1<
1=
04
#604000
10
01
0!
1G
0H
0<
0=
14
#605000
1!
1<
1=
04
#606000
11
0!
1H
0<
0=
14
#607000
1!
1<
1=
04
#608000
1-
0.
0/
00
01
0!
1M
0K
0P
0G
0H
0<
0=
14
1O
1I
#609000
1!
1<
1=
04
#610000
11
0!
1H
0<
0=
14
0I
#611000
1!
1<
1=
04
#612000
10
01
0!
1G
0H
0<
0=
14
#613000
1!
1<
1=
04
#614000
11
0!
1H
0<
0=
14
#615000
1!
1<
1=
04
#616000
1/
00
01
0!
1P
0G
0H
0<
0=
14
1I
#617000
1!
1<
1=
04
#618000
11
0!
1H
0<
0=
14
0I
#619000
1!
1<
1=
04
#620000
10
01
0!
1G
0H
0<
0=
14
#621000
1!
1<
1=
04
#622000
11
0!
1H
0<
0=
14
#623000
1!
1<
1=
04
#624000
1.
0/
00
01
0!
1K
0P
0G
0H
0<
0=
14
0O
1I
#625000
1!
1<
1=
04
#626000
11
0!
1H
0<
0=
14
0I
#627000
1!
1<
1=
04
#628000
10
01
0!
1G
0H
0<
0=
14
#629000
1!
1<
1=
04
#630000
11
0!
1H
0<
0=
14
#631000
1!
1<
1=
04
#632000
1/
00
01
0!
1P
0G
0H
0<
0=
14
1I
#633000
1!
1<
1=
04
#634000
11
0!
1H
0<
0=
14
0I
#635000
1!
1<
1=
04
#636000
10
01
0!
1G
0H
0<
0=
14
#637000
1!
1<
1=
04
#638000
11
0!
1H
0<
0=
14
#639000
1!
1<
1=
04
#640000
1+
0,
0-
0.
0/
00
01
0!
1?
0>
0M
0K
0P
0G
0H
0<
0=
14
1D
1I
#641000
1!
1<
1=
04
#642000
11
0!
1H
0<
0=
14
0I
#643000
1!
1<
1=
04
#644000
10
01
0!
1G
0H
0<
0=
14
#645000
1!
1<
1=
04
#646000
11
0!
1H
0<
0=
14
#647000
1!
1<
1=
04
#648000
1/
00
01
0!
1P
0G
0H
0<
0=
14
1I
#649000
1!
1<
1=
04
#650000
11
0!
1H
0<
0=
14
0I
#651000
1!
1<
1=
04
#652000
10
01
0!
1G
0H
0<
0=
14
