projectFull/simulation/qsim/projectFull.msim.vcd
$comment
	File created using the following command:
		vcd file projectFull.msim.vcd -direction
$end
$date
	Sat Jun 12 22:39:22 2021
$end
$version
	ModelSim Version 10.1e
$end
$timescale
	1ps
$end
$scope module projectFull_vlg_vec_tst $end
$var reg 1 ! enter $end
$var reg 1 " g0 $end
$var reg 1 # g1 $end
$var reg 1 $ g2 $end
$var reg 1 % g3 $end
$var reg 1 & g4 $end
$var reg 1 ' g5 $end
$var reg 1 ( g6 $end
$var reg 1 ) g7 $end
$var reg 1 * mad0 $end
$var reg 1 + mad1 $end
$var reg 1 , mad2 $end
$var reg 1 - mad3 $end
$var reg 1 . mat0 $end
$var reg 1 / mat1 $end
$var reg 1 0 mat2 $end
$var reg 1 1 mat3 $end
$var reg 1 2 mid0 $end
$var reg 1 3 mid1 $end
$var reg 1 4 mid2 $end
$var reg 1 5 mid3 $end
$var reg 1 6 mit0 $end
$var reg 1 7 mit1 $end
$var reg 1 8 mit2 $end
$var reg 1 9 mit3 $end
$var reg 1 : restart $end
$var reg 1 ; start $end
$var reg 1 < u0 $end
$var reg 1 = u1 $end
$var reg 1 > u2 $end
$var reg 1 ? u3 $end
$var reg 1 @ u4 $end
$var reg 1 A u5 $end
$var reg 1 B u6 $end
$var reg 1 C u7 $end
$var wire 1 D gamest $end
$var wire 1 E id0 $end
$var wire 1 F id1 $end
$var wire 1 G id2 $end
$var wire 1 H id3 $end
$var wire 1 I it0 $end
$var wire 1 J it1 $end
$var wire 1 K it2 $end
$var wire 1 L it3 $end
$var wire 1 M L1 $end
$var wire 1 N L2 $end
$var wire 1 O L3 $end
$var wire 1 P L4 $end
$var wire 1 Q md0 $end
$var wire 1 R md1 $end
$var wire 1 S md2 $end
$var wire 1 T md3 $end
$var wire 1 U mt0 $end
$var wire 1 V mt1 $end
$var wire 1 W mt2 $end
$var wire 1 X mt3 $end
$var wire 1 Y TFS1 $end
$var wire 1 Z sampler $end
$scope module i1 $end
$var wire 1 [ gnd $end
$var wire 1 \ vcc $end
$var wire 1 ] unknown $end
$var tri1 1 ^ devclrn $end
$var tri1 1 _ devpor $end
$var tri1 1 ` devoe $end
$var wire 1 a mad3~input_o $end
$var wire 1 b mad2~input_o $end
$var wire 1 c mad1~input_o $end
$var wire 1 d mad0~input_o $end
$var wire 1 e mat3~input_o $end
$var wire 1 f mat2~input_o $end
$var wire 1 g mat1~input_o $end
$var wire 1 h mat0~input_o $end
$var wire 1 i mit2~input_o $end
$var wire 1 j ~QUARTUS_CREATED_GND~I_combout $end
$var wire 1 k start~input_o $end
$var wire 1 l enter~input_o $end
$var wire 1 m enter~inputCLKENA0_outclk $end
$var wire 1 n u4~input_o $end
$var wire 1 o g4~input_o $end
$var wire 1 p u5~input_o $end
$var wire 1 q g5~input_o $end
$var wire 1 r inst2|LessThan10~0_combout $end
$var wire 1 s g6~input_o $end
$var wire 1 t u7~input_o $end
$var wire 1 u g7~input_o $end
$var wire 1 v u6~input_o $end
$var wire 1 w inst2|Equal7~0_combout $end
$var wire 1 x g3~input_o $end
$var wire 1 y u3~input_o $end
$var wire 1 z g2~input_o $end
$var wire 1 { u2~input_o $end
$var wire 1 | inst2|Equal6~0_combout $end
$var wire 1 } u1~input_o $end
$var wire 1 ~ g1~input_o $end
$var wire 1 !! g0~input_o $end
$var wire 1 "! u0~input_o $end
$var wire 1 #! inst2|LessThan9~0_combout $end
$var wire 1 $! instaa|temp~combout $end
$var wire 1 %! restart~input_o $end
$var wire 1 &! inst8|tempTouch~combout $end
$var wire 1 '! inst8|temp[1]~DUPLICATE_q $end
$var wire 1 (! inst8|Mux3~0_combout $end
$var wire 1 )! inst8|temp[3]~DUPLICATE_q $end
$var wire 1 *! inst8|Mux2~0_combout $end
$var wire 1 +! inst8|Mux1~0_combout $end
$var wire 1 ,! inst8|Mux0~0_combout $end
$var wire 1 -! inst8|gameStatus~0_combout $end
$var wire 1 .! inst2|Equal6~1_combout $end
$var wire 1 /! inst2|LessThan8~1_combout $end
$var wire 1 0! inst2|LessThan8~0_combout $end
$var wire 1 1! inst2|LessThan9~1_combout $end
$var wire 1 2! inst2|LessThan9~2_combout $end
$var wire 1 3! inst2|comb~1_combout $end
$var wire 1 4! inst2|ya~combout $end
$var wire 1 5! inst2|LessThan10~2_combout $end
$var wire 1 6! inst2|LessThan11~0_combout $end
$var wire 1 7! inst2|LessThan11~1_combout $end
$var wire 1 8! inst2|LessThan10~1_combout $end
$var wire 1 9! inst2|comb~4_combout $end
$var wire 1 :! inst2|Equal7~1_combout $end
$var wire 1 ;! inst2|yb~combout $end
$var wire 1 <! inst2|y~combout $end
$var wire 1 =! inst2|xb~0_combout $end
$var wire 1 >! inst2|comb~2_combout $end
$var wire 1 ?! inst2|zb~combout $end
$var wire 1 @! inst2|xa~0_combout $end
$var wire 1 A! inst2|comb~3_combout $end
$var wire 1 B! inst2|za~combout $end
$var wire 1 C! inst2|z~combout $end
$var wire 1 D! mit0~input_o $end
$var wire 1 E! mit1~input_o $end
$var wire 1 F! inst2|Equal2~0_combout $end
$var wire 1 G! mit3~input_o $end
$var wire 1 H! inst2|LessThan0~0_combout $end
$var wire 1 I! inst2|comb~8_combout $end
$var wire 1 J! inst2|LessThan1~0_combout $end
$var wire 1 K! inst2|min_xa~0_combout $end
$var wire 1 L! inst2|min_za~combout $end
$var wire 1 M! mid2~input_o $end
$var wire 1 N! mid3~input_o $end
$var wire 1 O! inst2|LessThan3~1_combout $end
$var wire 1 P! inst2|Equal3~0_combout $end
$var wire 1 Q! mid1~input_o $end
$var wire 1 R! mid0~input_o $end
$var wire 1 S! inst2|LessThan2~0_combout $end
$var wire 1 T! inst2|LessThan3~0_combout $end
$var wire 1 U! inst2|Equal3~1_combout $end
$var wire 1 V! inst2|LessThan2~1_combout $end
$var wire 1 W! inst2|comb~10_combout $end
$var wire 1 X! inst2|LessThan2~2_combout $end
$var wire 1 Y! inst2|min_xb~combout $end
$var wire 1 Z! inst2|comb~12_combout $end
$var wire 1 [! inst2|min_xb~0_combout $end
$var wire 1 \! inst2|min_zb~combout $end
$var wire 1 ]! inst2|comb~9_combout $end
$var wire 1 ^! inst2|Equal2~1_combout $end
$var wire 1 _! inst2|min_ya~combout $end
$var wire 1 `! inst2|comb~11_combout $end
$var wire 1 a! inst2|Equal3~2_combout $end
$var wire 1 b! inst2|min_yb~combout $end
$var wire 1 c! inst2|op_max_tens[3]~1_combout $end
$var wire 1 d! inst2|comb~5_combout $end
$var wire 1 e! inst2|LessThan10~3_combout $end
$var wire 1 f! inst2|xb~combout $end
$var wire 1 g! inst2|LessThan8~2_combout $end
$var wire 1 h! inst2|comb~6_combout $end
$var wire 1 i! inst2|xa~combout $end
$var wire 1 j! inst2|x~combout $end
$var wire 1 k! inst2|comb~7_combout $end
$var wire 1 l! inst2|LessThan0~1_combout $end
$var wire 1 m! inst2|min_xa~combout $end
$var wire 1 n! inst2|op_max_tens[3]~2_combout $end
$var wire 1 o! inst2|op_max_tens[3]~3_combout $end
$var wire 1 p! inst2|process_0~0_combout $end
$var wire 1 q! inst2|Mux12~0_combout $end
$var wire 1 r! inst2|comb~0_combout $end
$var wire 1 s! inst2|temp_tens[0]~1_combout $end
$var wire 1 t! inst2|temp_tens[0]~2_combout $end
$var wire 1 u! inst2|temp_tens[3]~0_combout $end
$var wire 1 v! inst2|process_0~1_combout $end
$var wire 1 w! inst2|Equal8~0_combout $end
$var wire 1 x! inst2|temp_tens[3]~15_combout $end
$var wire 1 y! inst2|op_max_tens[3]~0_combout $end
$var wire 1 z! inst2|temp_tens[2]~11_combout $end
$var wire 1 {! inst2|op_max_tens[2]~4_combout $end
$var wire 1 |! inst2|temp_tens[1]~7_combout $end
$var wire 1 }! inst2|op_max_tens[1]~5_combout $end
$var wire 1 ~! inst2|temp_tens[0]~3_combout $end
$var wire 1 !" inst2|op_max_tens[0]~6_combout $end
$var wire 1 "" inst2|temp_digits[3]~0_combout $end
$var wire 1 #" inst2|temp_digits[3]~5_combout $end
$var wire 1 $" inst2|process_0~2_combout $end
$var wire 1 %" inst2|temp_digits[3]~1_combout $end
$var wire 1 &" inst2|op_max_digits[3]~0_combout $end
$var wire 1 '" inst2|temp_digits[2]~2_combout $end
$var wire 1 (" inst2|op_max_digits[2]~1_combout $end
$var wire 1 )" inst2|temp_digits[1]~4_combout $end
$var wire 1 *" inst2|op_max_digits[1]~2_combout $end
$var wire 1 +" inst2|temp_digits[0]~3_combout $end
$var wire 1 ," inst2|op_max_digits[0]~3_combout $end
$var wire 1 -" inst2|op_min_digits[0]~0_combout $end
$var wire 1 ." inst2|op_min_tens[3]~0_combout $end
$var wire 1 /" inst2|op_min_tens[2]~1_combout $end
$var wire 1 0" inst2|op_min_tens[2]~2_combout $end
$var wire 1 1" inst2|op_min_tens[1]~3_combout $end
$var wire 1 2" inst2|op_min_tens[0]~4_combout $end
$var wire 1 3" inst2|op_min_digits[3]~1_combout $end
$var wire 1 4" inst2|op_min_digits[2]~2_combout $end
$var wire 1 5" inst2|op_min_digits[1]~3_combout $end
$var wire 1 6" inst2|op_min_digits[0]~4_combout $end
$var wire 1 7" instaa|temp2[1]~0_combout $end
$var wire 1 8" inst2|op_min_tens [3] $end
$var wire 1 9" inst2|op_min_tens [2] $end
$var wire 1 :" inst2|op_min_tens [1] $end
$var wire 1 ;" inst2|op_min_tens [0] $end
$var wire 1 <" inst2|op_max_digits [3] $end
$var wire 1 =" inst2|op_max_digits [2] $end
$var wire 1 >" inst2|op_max_digits [1] $end
$var wire 1 ?" inst2|op_max_digits [0] $end
$var wire 1 @" inst2|temp_digits [3] $end
$var wire 1 A" inst2|temp_digits [2] $end
$var wire 1 B" inst2|temp_digits [1] $end
$var wire 1 C" inst2|temp_digits [0] $end
$var wire 1 D" inst2|temp_tens [3] $end
$var wire 1 E" inst2|temp_tens [2] $end
$var wire 1 F" inst2|temp_tens [1] $end
$var wire 1 G" inst2|temp_tens [0] $end
$var wire 1 H" inst2|op_min_digits [3] $end
$var wire 1 I" inst2|op_min_digits [2] $end
$var wire 1 J" inst2|op_min_digits [1] $end
$var wire 1 K" inst2|op_min_digits [0] $end
$var wire 1 L" inst2|op_max_tens [3] $end
$var wire 1 M" inst2|op_max_tens [2] $end
$var wire 1 N" inst2|op_max_tens [1] $end
$var wire 1 O" inst2|op_max_tens [0] $end
$var wire 1 P" instaa|temp2 [0] $end
$var wire 1 Q" instaa|temp2 [1] $end
$var wire 1 R" inst8|temp [0] $end
$var wire 1 S" inst8|temp [1] $end
$var wire 1 T" inst8|temp [2] $end
$var wire 1 U" inst8|temp [3] $end
$upscope $end
$upscope $end
$enddefinitions $end
#0
$dumpvars
0!
0"
1#
0$
1%
0&
0'
0(
0)
0*
0+
0,
0-
0.
0/
00
01
02
03
04
05
06
07
08
09
0:
0;
0<
0=
0>
0?
0@
0A
0B
0C
1D
1E
0F
0G
0H
0I
0J
0K
0L
0M
0N
0O
0P
1Q
0R
0S
1T
1U
0V
0W
1X
0Y
xZ
0[
1\
x]
1^
1_
1`
0a
0b
0c
0d
0e
0f
0g
0h
0i
0j
0k
0l
0m
0n
0o
0p
0q
1r
0s
0t
0u
0v
1w
1x
0y
0z
0{
0|
0}
1~
0!!
0"!
0#!
1$!
0%!
0&!
0'!
1(!
0)!
1*!
1+!
1,!
0-!
0.!
1/!
10!
01!
02!
13!
04!
05!
06!
07!
08!
09!
1:!
1;!
0<!
1=!
1>!
0?!
0@!
1A!
0B!
1C!
0D!
0E!
1F!
0G!
0H!
1I!
1J!
1K!
0L!
0M!
0N!
0O!
1P!
0Q!
0R!
0S!
0T!
1U!
0V!
1W!
0X!
0Y!
1Z!
1[!
0\!
0]!
1^!
1_!
0`!
1a!
1b!
1c!
1d!
0e!
0f!
1g!
0h!
1i!
0j!
1k!
0l!
0m!
1n!
1o!
0p!
0q!
0r!
0s!
1t!
1u!
0v!
0w!
0x!
1y!
0z!
0{!
0|!
0}!
0~!
1!"
1""
0#"
0$"
0%"
1&"
0'"
0("
0)"
0*"
1+"
1,"
1-"
0."
0/"
00"
01"
02"
03"
04"
05"
16"
07"
0;"
0:"
09"
08"
1?"
0>"
0="
1<"
1C"
0B"
0A"
0@"
0G"
0F"
0E"
0D"
1K"
0J"
0I"
0H"
1O"
0N"
0M"
1L"
0Q"
0P"
0U"
0T"
0S"
0R"
$end
#1000
1!
1:
1l
1%!
1m
0Z
1P"
1&!
1'!
1U"
1R"
1S"
1T"
1)!
0(!
1-!
1M
1N
1O
1P
0D
#2000
1C
0!
0:
1t
0l
0%!
0m
1Z
0w
16!
1T!
0U!
0u!
0""
1)"
0+"
19!
0:!
0>!
1`!
0Z!
0a!
1B"
0C"
0;!
1?!
0b!
1\!
15"
06"
1J"
0K"
1F
0E
0P"
0&!
#3000
1!
1:
1l
1%!
1m
0Z
1P"
1&!
0U"
0)!
0*!
0P
#4000
1B
0C
0!
0:
1v
0t
0l
0%!
0m
1Z
1+"
1C"
16"
1K"
1E
0P"
0&!
#5000
1!
1:
1l
1%!
1m
0Z
1P"
1&!
0T"
0+!
0O
#6000
1C
0!
0:
1t
0l
0%!
0m
1Z
1'"
0)"
0+"
1A"
0B"
0C"
14"
05"
06"
1I"
0J"
0K"
1G
0F
0E
0P"
0&!
#7000
1!
1:
1l
1%!
1m
0Z
1P"
1&!
0'!
0S"
0,!
0N
#8000
1A
0B
0C
0!
0:
1p
0v
0t
0l
0%!
0m
1Z
0r
17!
1O!
0P!
1+"
1w
06!
0T!
1U!
1C"
16"
1K"
1E
0P"
0&!
#9000
1!
1:
1l
1%!
1m
0Z
1P"
1&!
0R"
1(!
1*!
1+!
1,!
0-!
0M
1D
#10000
1C
0!
0:
1t
0l
0%!
0m
1Z
0w
16!
1T!
0U!
1)"
0+"
1B"
0C"
15"
06"
1J"
0K"
1F
0E
0P"
0&!
#11000
1!
1:
1l
1%!
1m
0Z
1P"
1&!
1'!
1U"
1R"
1S"
1T"
1)!
0(!
1-!
1M
1N
1O
1P
0D
#12000
1B
0C
0!
0:
1v
0t
0l
0%!
0m
1Z
1+"
1C"
16"
1K"
1E
0P"
0&!
#13000
1!
1:
1l
1%!
1m
0Z
1P"
1&!
0U"
0)!
0*!
0P
#14000
1C
0!
0:
1t
0l
0%!
0m
1Z
1#"
0'"
0)"
0+"
1%"
0A"
0B"
0C"
1@"
04"
05"
06"
13"
0I"
0J"
0K"
0G
0F
0E
1H"
1H
0P"
0&!
#15000
1!
1:
1l
1%!
1m
0Z
1P"
1&!
0T"
0+!
0O
#16000
1@
0A
0B
0C
0!
0:
1n
0p
0v
0t
0l
0%!
0m
1Z
1+"
1w
06!
0T!
1U!
1C"
16"
1K"
1E
0P"
0&!
#17000
1!
1:
1l
1%!
1m
0Z
1P"
1&!
0'!
0S"
0,!
0N
#18000
1C
0!
0:
1t
0l
0%!
0m
1Z
0w
16!
1T!
0U!
1w!
1""
0#"
0+"
1~!
0%"
0C"
1G"
0@"
06"
12"
03"
0K"
0E
1;"
0H"
1I
0H
0P"
0&!
#19000
1!
1:
1l
1%!
1m
0Z
1P"
1&!
0R"
1(!
1*!
1+!
1,!
0-!
0M
1D
#20000
1B
0C
0!
0:
1v
0t
0l
0%!
0m
1Z
1p!
0w!
0""
0~!
0G"
02"
0;"
0I
0P"
0&!
#21000
1!
1:
1l
1%!
1m
0Z
1P"
1&!
1'!
1U"
1R"
1S"
1T"
1)!
0(!
1-!
1M
1N
1O
1P
0D
#22000
1C
0!
0:
1t
0l
0%!
0m
1Z
0P"
0&!
#23000
1!
1:
1l
1%!
1m
0Z
1P"
1&!
0U"
0)!
0*!
0P
#24000
1A
0B
0C
0!
0:
1p
0v
0t
0l
0%!
0m
1Z
1w
06!
0T!
1U!
0P"
0&!
#25000
1!
1:
1l
1%!
1m
0Z
1P"
1&!
0T"
0+!
0O
#26000
1C
0!
0:
1t
0l
0%!
0m
1Z
0w
16!
1T!
0U!
0P"
0&!
#27000
1!
1:
1l
1%!
1m
0Z
1P"
1&!
0'!
0S"
0,!
0N
#28000
1B
0C
0!
0:
1v
0t
0l
0%!
0m
1Z
0P"
0&!
#29000
1!
1:
1l
1%!
1m
0Z
1P"
1&!
0R"
1(!
1*!
1+!
1,!
0-!
0M
1D
#30000
1C
0!
0:
1t
0l
0%!
0m
1Z
0P"
0&!
#31000
1!
1:
1l
1%!
1m
0Z
1P"
1&!
1'!
1U"
1R"
1S"
1T"
1)!
0(!
1-!
1M
1N
1O
1P
0D
#32000
1?
0@
0A
0B
0C
0!
0:
1y
0n
0p
0v
0t
0l
0%!
0m
1Z
1|
00!
0F!
0J!
1~!
1r
07!
0O!
1P!
0p!
1u!
1""
1+"
1w
06!
0T!
1U!
0I!
1]!
0^!
1G"
09!
1:!
1>!
0`!
1Z!
1a!
1C"
1L!
0_!
12"
1;!
0?!
1b!
0\!
16"
0c!
1;"
1K"
1I
1E
0P"
0&!
#33000
1!
1:
1l
1%!
1m
0Z
1P"
1&!
0U"
0)!
0*!
0P
#34000
1C
0!
0:
1t
0l
0%!
0m
1Z
0w
16!
1T!
0U!
0u!
0""
1)"
0+"
19!
0:!
0>!
1`!
0Z!
0a!
1B"
0C"
0;!
1?!
0b!
1\!
15"
06"
1J"
0K"
1F
0E
0P"
0&!
#35000
1!
1:
1l
1%!
1m
0Z
1P"
1&!
0T"
0+!
0O
#36000
1B
0C
0!
0:
1v
0t
0l
0%!
0m
1Z
1+"
1C"
16"
1K"
1E
0P"
0&!
#37000
1!
1:
1l
1%!
1m
0Z
1P"
1&!
0'!
0S"
0,!
0N
#38000
1C
0!
0:
1t
0l
0%!
0m
1Z
1'"
0)"
0+"
1A"
0B"
0C"
14"
05"
06"
1I"
0J"
0K"
1G
0F
0E
0P"
0&!
#39000
1!
1:
1l
1%!
1m
0Z
1P"
1&!
0R"
1(!
1*!
1+!
1,!
0-!
0M
1D
#40000
1A
0B
0C
0!
0:
1p
0v
0t
0l
0%!
0m
1Z
0r
17!
1O!
0P!
1+"
1w
06!
0T!
1U!
1C"
16"
1K"
1E
0P"
0&!
#41000
1!
1:
1l
1%!
1m
0Z
1P"
1&!
1'!
1U"
1R"
1S"
1T"
1)!
0(!
1-!
1M
1N
1O
1P
0D
#42000
1C
0!
0:
1t
0l
0%!
0m
1Z
0w
16!
1T!
0U!
1)"
0+"
1B"
0C"
15"
06"
1J"
0K"
1F
0E
0P"
0&!
#43000
1!
1:
1l
1%!
1m
0Z
1P"
1&!
0U"
0)!
0*!
0P
#44000
1B
0C
0!
0:
1v
0t
0l
0%!
0m
1Z
1+"
1C"
16"
1K"
1E
0P"
0&!
#45000
1!
1:
1l
1%!
1m
0Z
1P"
1&!
0T"
0+!
0O
#46000
1C
0!
0:
1t
0l
0%!
0m
1Z
1#"
0'"
0)"
0+"
1%"
0A"
0B"
0C"
1@"
04"
05"
06"
13"
0I"
0J"
0K"
0G
0F
0E
1H"
1H
0P"
0&!
#47000
1!
1:
1l
1%!
1m
0Z
1P"
1&!
0'!
0S"
0,!
0N
#48000
1@
0A
0B
0C
0!
0:
1n
0p
0v
0t
0l
0%!
0m
1Z
1+"
1w
06!
0T!
1U!
1C"
16"
1K"
1E
0P"
0&!
#49000
1!
1:
1l
1%!
1m
0Z
1P"
1&!
0R"
1(!
1*!
1+!
1,!
0-!
0M
1D
#50000
1C
0!
0:
1t
0l
0%!
0m
1Z
0w
16!
1T!
0U!
1w!
1""
0#"
0+"
1|!
0~!
0%"
0C"
1F"
0G"
0@"
06"
11"
02"
03"
0K"
0E
1:"
0;"
0H"
1J
0I
0H
0P"
0&!
#51000
1!
1:
1l
1%!
1m
0Z
1P"
1&!
1'!
1U"
1R"
1S"
1T"
1)!
0(!
1-!
1M
1N
1O
1P
0D
#52000
1B
0C
0!
0:
1v
0t
0l
0%!
0m
1Z
1p!
0w!
0""
0|!
1~!
0F"
1G"
01"
12"
0:"
1;"
0J
1I
0P"
0&!
#53000
1!
1:
1l
1%!
1m
0Z
1P"
1&!
0U"
0)!
0*!
0P
#54000
1C
0!
0:
1t
0l
0%!
0m
1Z
0P"
0&!
#55000
1!
1:
1l
1%!
1m
0Z
1P"
1&!
0T"
0+!
0O
#56000
1A
0B
0C
0!
0:
1p
0v
0t
0l
0%!
0m
1Z
1w
06!
0T!
1U!
0P"
0&!
#57000
1!
1:
1l
1%!
1m
0Z
1P"
1&!
0'!
0S"
0,!
0N
#58000
1C
0!
0:
1t
0l
0%!
0m
1Z
0w
16!
1T!
0U!
0P"
0&!
#59000
1!
1:
1l
1%!
1m
0Z
1P"
1&!
0R"
1(!
1*!
1+!
1,!
0-!
0M
1D
#60000
1B
0C
0!
0:
1v
0t
0l
0%!
0m
1Z
0P"
0&!
#61000
1!
1:
1l
1%!
1m
0Z
1P"
1&!
1'!
1U"
1R"
1S"
1T"
1)!
0(!
1-!
1M
1N
1O
1P
0D
#62000
1C
0!
0:
1t
0l
0%!
0m
1Z
0P"
0&!
#63000
1!
1:
1l
1%!
1m
0Z
1P"
1&!
0U"
0)!
0*!
0P
#64000
1>
0?
0@
0A
0B
0C
0!
0:
1{
0y
0n
0p
0v
0t
0l
0%!
0m
1Z
0|
11!
1|!
0~!
1r
07!
0O!
1P!
0p!
1u!
1""
1+"
1w
06!
0T!
1U!
1F"
0G"
09!
1:!
1>!
0`!
1Z!
1a!
1C"
11"
02"
1;!
0?!
1b!
0\!
16"
1:"
0;"
1K"
1J
0I
1E
0P"
0&!
#65000
1!
1:
1l
1%!
1m
0Z
1P"
1&!
0T"
0+!
0O
#66000
1C
0!
0:
1t
0l
0%!
0m
1Z
0w
16!
1T!
0U!
0u!
0""
1)"
0+"
19!
0:!
0>!
1`!
0Z!
0a!
1B"
0C"
0;!
1?!
0b!
1\!
15"
06"
1J"
0K"
1F
0E
0P"
0&!
#67000
1!
1:
1l
1%!
1m
0Z
1P"
1&!
0'!
0S"
0,!
0N
#68000
1B
0C
0!
0:
1v
0t
0l
0%!
0m
1Z
1+"
1C"
16"
1K"
1E
0P"
0&!
#69000
1!
1:
1l
1%!
1m
0Z
1P"
1&!
0R"
1(!
1*!
1+!
1,!
0-!
0M
1D
#70000
1C
0!
0:
1t
0l
0%!
0m
1Z
1'"
0)"
0+"
1A"
0B"
0C"
14"
05"
06"
1I"
0J"
0K"
1G
0F
0E
0P"
0&!
#71000
1!
1:
1l
1%!
1m
0Z
1P"
1&!
1'!
1U"
1R"
1S"
1T"
1)!
0(!
1-!
1M
1N
1O
1P
0D
#72000
1A
0B
0C
0!
0:
1p
0v
0t
0l
0%!
0m
1Z
0r
17!
1O!
0P!
1+"
1w
06!
0T!
1U!
1C"
16"
1K"
1E
0P"
0&!
#73000
1!
1:
1l
1%!
1m
0Z
1P"
1&!
0U"
0)!
0*!
0P
#74000
1C
0!
0:
1t
0l
0%!
0m
1Z
0w
16!
1T!
0U!
1)"
0+"
1B"
0C"
15"
06"
1J"
0K"
1F
0E
0P"
0&!
#75000
1!
1:
1l
1%!
1m
0Z
1P"
1&!
0T"
0+!
0O
#76000
1B
0C
0!
0:
1v
0t
0l
0%!
0m
1Z
1+"
1C"
16"
1K"
1E
0P"
0&!
#77000
1!
1:
1l
1%!
1m
0Z
1P"
1&!
0'!
0S"
0,!
0N
#78000
1C
0!
0:
1t
0l
0%!
0m
1Z
1#"
0'"
0)"
0+"
1%"
0A"
0B"
0C"
1@"
04"
05"
06"
13"
0I"
0J"
0K"
0G
0F
0E
1H"
1H
0P"
0&!
#79000
1!
1:
1l
1%!
1m
0Z
1P"
1&!
0R"
1(!
1*!
1+!
1,!
0-!
0M
1D
#80000
1@
0A
0B
0C
0!
0:
1n
0p
0v
0t
0l
0%!
0m
1Z
1+"
1w
06!
0T!
1U!
1C"
16"
1K"
1E
0P"
0&!
#81000
1!
1:
1l
1%!
1m
0Z
1P"
1&!
1'!
1U"
1R"
1S"
1T"
1)!
0(!
1-!
1M
1N
1O
1P
0D
#82000
1C
0!
0:
1t
0l
0%!
0m
1Z
0w
16!
1T!
0U!
1w!
1""
0#"
0+"
1~!
0%"
0C"
1G"
0@"
06"
12"
03"
0K"
0E
1;"
0H"
1I
0H
0P"
0&!
#83000
1!
1:
1l
1%!
1m
0Z
1P"
1&!
0U"
0)!
0*!
0P
#84000
1B
0C
0!
0:
1v
0t
0l
0%!
0m
1Z
1p!
0w!
0""
0~!
0G"
02"
0;"
0I
0P"
0&!
#85000
1!
1:
1l
1%!
1m
0Z
1P"
1&!
0T"
0+!
0O
#86000
1C
0!
0:
1t
0l
0%!
0m
1Z
0P"
0&!
#87000
1!
1:
1l
1%!
1m
0Z
1P"
1&!
0'!
0S"
0,!
0N
#88000
1A
0B
0C
0!
0:
1p
0v
0t
0l
0%!
0m
1Z
1w
06!
0T!
1U!
0P"
0&!
#89000
1!
1:
1l
1%!
1m
0Z
1P"
1&!
0R"
1(!
1*!
1+!
1,!
0-!
0M
1D
#90000
1C
0!
0:
1t
0l
0%!
0m
1Z
0w
16!
1T!
0U!
0P"
0&!
#91000
1!
1:
1l
1%!
1m
0Z
1P"
1&!
1'!
1U"
1R"
1S"
1T"
1)!
0(!
1-!
1M
1N
1O
1P
0D
#92000
1B
0C
0!
0:
1v
0t
0l
0%!
0m
1Z
0P"
0&!
#93000
1!
1:
1l
1%!
1m
0Z
1P"
1&!
0U"
0)!
0*!
0P
#94000
1C
0!
0:
1t
0l
0%!
0m
1Z
0P"
0&!
#95000
1!
1:
1l
1%!
1m
0Z
1P"
1&!
0T"
0+!
0O
#96000
1?
0@
0A
0B
0C
0!
0:
1y
0n
0p
0v
0t
0l
0%!
0m
1Z
1~!
1r
07!
0O!
1P!
0p!
1u!
1""
1+"
1w
06!
0T!
1U!
1G"
09!
1:!
1>!
0`!
1Z!
1a!
1C"
12"
1;!
0?!
1b!
0\!
16"
1;"
1K"
1I
1E
0P"
0&!
#97000
1!
1:
1l
1%!
1m
0Z
1P"
1&!
0'!
0S"
0,!
0N
#98000
1C
0!
0:
1t
0l
0%!
0m
1Z
0w
16!
1T!
0U!
0u!
0""
1)"
0+"
19!
0:!
0>!
1`!
0Z!
0a!
1B"
0C"
0;!
1?!
0b!
1\!
15"
06"
1J"
0K"
1F
0E
0P"
0&!
#99000
1!
1:
1l
1%!
1m
0Z
1P"
1&!
0R"
1(!
1*!
1+!
1,!
0-!
0M
1D
#100000
1B
0C
0!
0:
1v
0t
0l
0%!
0m
1Z
1+"
1C"
16"
1K"
1E
0P"
0&!
#101000
1!
1:
1l
1%!
1m
0Z
1P"
1&!
1'!
1U"
1R"
1S"
1T"
1)!
0(!
1-!
1M
1N
1O
1P
0D
#102000
1C
0!
0:
1t
0l
0%!
0m
1Z
1'"
0)"
0+"
1A"
0B"
0C"
14"
05"
06"
1I"
0J"
0K"
1G
0F
0E
0P"
0&!
#103000
1!
1:
1l
1%!
1m
0Z
1P"
1&!
0U"
0)!
0*!
0P
#104000
1A
0B
0C
0!
0:
1p
0v
0t
0l
0%!
0m
1Z
0r
17!
1O!
0P!
1+"
1w
06!
0T!
1U!
1C"
16"
1K"
1E
0P"
0&!
#105000
1!
1:
1l
1%!
1m
0Z
1P"
1&!
0T"
0+!
0O
#106000
1C
0!
0:
1t
0l
0%!
0m
1Z
0w
16!
1T!
0U!
1)"
0+"
1B"
0C"
15"
06"
1J"
0K"
1F
0E
0P"
0&!
#107000
1!
1:
1l
1%!
1m
0Z
1P"
1&!
0'!
0S"
0,!
0N
#108000
1B
0C
0!
0:
1v
0t
0l
0%!
0m
1Z
1+"
1C"
16"
1K"
1E
0P"
0&!
#109000
1!
1:
1l
1%!
1m
0Z
1P"
1&!
0R"
1(!
1*!
1+!
1,!
0-!
0M
1D
#110000
1C
0!
0:
1t
0l
0%!
0m
1Z
1#"
0'"
0)"
0+"
1%"
0A"
0B"
0C"
1@"
04"
05"
06"
13"
0I"
0J"
0K"
0G
0F
0E
1H"
1H
0P"
0&!
#111000
1!
1:
1l
1%!
1m
0Z
1P"
1&!
1'!
1U"
1R"
1S"
1T"
1)!
0(!
1-!
1M
1N
1O
1P
0D
#112000
1@
0A
0B
0C
0!
0:
1n
0p
0v
0t
0l
0%!
0m
1Z
1+"
1w
06!
0T!
1U!
1C"
16"
1K"
1E
0P"
0&!
#113000
1!
1:
1l
1%!
1m
0Z
1P"
1&!
0U"
0)!
0*!
0P
#114000
1C
0!
0:
1t
0l
0%!
0m
1Z
0w
16!
1T!
0U!
1w!
1""
0#"
0+"
1z!
0|!
0~!
0%"
0C"
1E"
0F"
0G"
0@"
06"
1/"
01"
02"
03"
0K"
10"
0E
0:"
0;"
0H"
0J
0I
0H
19"
1K
0P"
0&!
#115000
1!
1:
1l
1%!
1m
0Z
1P"
1&!
0T"
0+!
0O
#116000
1B
0C
0!
0:
1v
0t
0l
0%!
0m
1Z
1p!
0w!
0""
0z!
1|!
1~!
0E"
1F"
1G"
0/"
11"
12"
00"
1:"
1;"
1J
1I
09"
0K
0P"
0&!
#117000
1!
1:
1l
1%!
1m
0Z
1P"
1&!
0'!
0S"
0,!
0N
#118000
1C
0!
0:
1t
0l
0%!
0m
1Z
0P"
0&!
#119000
1!
1:
1l
1%!
1m
0Z
1P"
1&!
0R"
1(!
1*!
1+!
1,!
0-!
0M
1D
#120000
1A
0B
0C
0!
0:
1p
0v
0t
0l
0%!
0m
1Z
1w
06!
0T!
1U!
0P"
0&!
#121000
1!
1:
1l
1%!
1m
0Z
1P"
1&!
1'!
1U"
1R"
1S"
1T"
1)!
0(!
1-!
1M
1N
1O
1P
0D
#122000
1C
0!
0:
1t
0l
0%!
0m
1Z
0w
16!
1T!
0U!
0P"
0&!
#123000
1!
1:
1l
1%!
1m
0Z
1P"
1&!
0U"
0)!
0*!
0P
