projectFull/simulation/qsim/projectFull.msim.vcd
$comment
	File created using the following command:
		vcd file projectFull.msim.vcd -direction
$end
$date
	Sat Jun 12 20:48:27 2021
$end
$version
	ModelSim Version 10.1e
$end
$timescale
	1ps
$end
$scope module projectFull_vlg_vec_tst $end
$var reg 1 ! enter $end
$var reg 1 " g0 $end
$var reg 1 # g1 $end
$var reg 1 $ g2 $end
$var reg 1 % g3 $end
$var reg 1 & g4 $end
$var reg 1 ' g5 $end
$var reg 1 ( g6 $end
$var reg 1 ) g7 $end
$var reg 1 * mad0 $end
$var reg 1 + mad1 $end
$var reg 1 , mad2 $end
$var reg 1 - mad3 $end
$var reg 1 . mat0 $end
$var reg 1 / mat1 $end
$var reg 1 0 mat2 $end
$var reg 1 1 mat3 $end
$var reg 1 2 mid0 $end
$var reg 1 3 mid1 $end
$var reg 1 4 mid2 $end
$var reg 1 5 mid3 $end
$var reg 1 6 mit0 $end
$var reg 1 7 mit1 $end
$var reg 1 8 mit2 $end
$var reg 1 9 mit3 $end
$var reg 1 : restart $end
$var reg 1 ; start $end
$var reg 1 < u0 $end
$var reg 1 = u1 $end
$var reg 1 > u2 $end
$var reg 1 ? u3 $end
$var reg 1 @ u4 $end
$var reg 1 A u5 $end
$var reg 1 B u6 $end
$var reg 1 C u7 $end
$var wire 1 D gamest $end
$var wire 1 E id0 $end
$var wire 1 F id1 $end
$var wire 1 G id2 $end
$var wire 1 H id3 $end
$var wire 1 I it0 $end
$var wire 1 J it1 $end
$var wire 1 K it2 $end
$var wire 1 L it3 $end
$var wire 1 M L1 $end
$var wire 1 N L2 $end
$var wire 1 O L3 $end
$var wire 1 P L4 $end
$var wire 1 Q md0 $end
$var wire 1 R md1 $end
$var wire 1 S md2 $end
$var wire 1 T md3 $end
$var wire 1 U mt0 $end
$var wire 1 V mt1 $end
$var wire 1 W mt2 $end
$var wire 1 X mt3 $end
$var wire 1 Y TEST $end
$var wire 1 Z TFS1 $end
$var wire 1 [ sampler $end
$scope module i1 $end
$var wire 1 \ gnd $end
$var wire 1 ] vcc $end
$var wire 1 ^ unknown $end
$var tri1 1 _ devclrn $end
$var tri1 1 ` devpor $end
$var tri1 1 a devoe $end
$var wire 1 b mad3~input_o $end
$var wire 1 c mad2~input_o $end
$var wire 1 d mad1~input_o $end
$var wire 1 e mad0~input_o $end
$var wire 1 f mat3~input_o $end
$var wire 1 g mat2~input_o $end
$var wire 1 h mat1~input_o $end
$var wire 1 i mat0~input_o $end
$var wire 1 j mit2~input_o $end
$var wire 1 k ~QUARTUS_CREATED_GND~I_combout $end
$var wire 1 l enter~input_o $end
$var wire 1 m enter~inputCLKENA0_outclk $end
$var wire 1 n g6~input_o $end
$var wire 1 o u6~input_o $end
$var wire 1 p g7~input_o $end
$var wire 1 q u7~input_o $end
$var wire 1 r instgg|Equal7~0_combout $end
$var wire 1 s g4~input_o $end
$var wire 1 t u5~input_o $end
$var wire 1 u u4~input_o $end
$var wire 1 v g5~input_o $end
$var wire 1 w instgg|LessThan10~0_combout $end
$var wire 1 x u2~input_o $end
$var wire 1 y g3~input_o $end
$var wire 1 z u3~input_o $end
$var wire 1 { g2~input_o $end
$var wire 1 | instgg|Equal6~0_combout $end
$var wire 1 } g0~input_o $end
$var wire 1 ~ g1~input_o $end
$var wire 1 !! u1~input_o $end
$var wire 1 "! u0~input_o $end
$var wire 1 #! instgg|LessThan9~0_combout $end
$var wire 1 $! instaa|temp~combout $end
$var wire 1 %! instaa|temp2[1]~0_combout $end
$var wire 1 &! restart~input_o $end
$var wire 1 '! start~input_o $end
$var wire 1 (! inst8|tempTouch~combout $end
$var wire 1 )! inst8|temp[1]~DUPLICATE_q $end
$var wire 1 *! inst8|Mux3~0_combout $end
$var wire 1 +! inst8|Mux1~0_combout $end
$var wire 1 ,! inst8|Mux2~0_combout $end
$var wire 1 -! inst8|Mux0~0_combout $end
$var wire 1 .! inst8|gameStatus~0_combout $end
$var wire 1 /! instgg|Equal7~1_combout $end
$var wire 1 0! instgg|LessThan11~0_combout $end
$var wire 1 1! instgg|LessThan10~2_combout $end
$var wire 1 2! instgg|LessThan11~1_combout $end
$var wire 1 3! instgg|LessThan10~1_combout $end
$var wire 1 4! instgg|comb~4_combout $end
$var wire 1 5! instgg|yb~combout $end
$var wire 1 6! instgg|Equal6~1_combout $end
$var wire 1 7! instgg|LessThan8~0_combout $end
$var wire 1 8! instgg|LessThan8~1_combout $end
$var wire 1 9! instgg|LessThan9~1_combout $end
$var wire 1 :! instgg|LessThan9~2_combout $end
$var wire 1 ;! instgg|comb~1_combout $end
$var wire 1 <! instgg|ya~combout $end
$var wire 1 =! instgg|y~combout $end
$var wire 1 >! instgg|comb~2_combout $end
$var wire 1 ?! instgg|xb~0_combout $end
$var wire 1 @! instgg|zb~combout $end
$var wire 1 A! instgg|xa~0_combout $end
$var wire 1 B! instgg|comb~3_combout $end
$var wire 1 C! instgg|za~combout $end
$var wire 1 D! instgg|z~combout $end
$var wire 1 E! instgg|LessThan8~2_combout $end
$var wire 1 F! instgg|comb~6_combout $end
$var wire 1 G! instgg|xa~combout $end
$var wire 1 H! instgg|comb~5_combout $end
$var wire 1 I! instgg|LessThan10~3_combout $end
$var wire 1 J! instgg|xb~combout $end
$var wire 1 K! instgg|x~combout $end
$var wire 1 L! mit1~input_o $end
$var wire 1 M! mit0~input_o $end
$var wire 1 N! instgg|LessThan0~0_combout $end
$var wire 1 O! instgg|LessThan1~0_combout $end
$var wire 1 P! mit3~input_o $end
$var wire 1 Q! instgg|Equal2~0_combout $end
$var wire 1 R! instgg|comb~7_combout $end
$var wire 1 S! instgg|LessThan0~1_combout $end
$var wire 1 T! instgg|min_xa~combout $end
$var wire 1 U! mid2~input_o $end
$var wire 1 V! mid3~input_o $end
$var wire 1 W! mid1~input_o $end
$var wire 1 X! mid0~input_o $end
$var wire 1 Y! instgg|LessThan2~0_combout $end
$var wire 1 Z! instgg|LessThan2~1_combout $end
$var wire 1 [! instgg|comb~10_combout $end
$var wire 1 \! instgg|min_xb~combout $end
$var wire 1 ]! instgg|comb~9_combout $end
$var wire 1 ^! instgg|Equal2~1_combout $end
$var wire 1 _! instgg|min_ya~combout $end
$var wire 1 `! instgg|comb~8_combout $end
$var wire 1 a! instgg|min_xa~0_combout $end
$var wire 1 b! instgg|min_za~combout $end
$var wire 1 c! instgg|Equal3~0_combout $end
$var wire 1 d! instgg|comb~11_combout $end
$var wire 1 e! instgg|min_xb~0_combout $end
$var wire 1 f! instgg|min_zb~combout $end
$var wire 1 g! instgg|op_max_tens[3]~1_combout $end
$var wire 1 h! instgg|comb~0_combout $end
$var wire 1 i! instgg|Mux12~0_combout $end
$var wire 1 j! instgg|LessThan6~0_combout $end
$var wire 1 k! instgg|process_0~0_combout $end
$var wire 1 l! instgg|Equal8~0_combout $end
$var wire 1 m! instgg|process_0~1_combout $end
$var wire 1 n! instgg|op_max_tens[3]~2_combout $end
$var wire 1 o! instgg|temp_tens[3]~0_combout $end
$var wire 1 p! instgg|temp_tens[3]~15_combout $end
$var wire 1 q! instgg|temp_tens[0]~1_combout $end
$var wire 1 r! instgg|temp_tens[0]~2_combout $end
$var wire 1 s! instgg|op_max_tens[3]~0_combout $end
$var wire 1 t! instgg|temp_tens[2]~11_combout $end
$var wire 1 u! instgg|op_max_tens[2]~3_combout $end
$var wire 1 v! instgg|temp_tens[1]~7_combout $end
$var wire 1 w! instgg|op_max_tens[1]~4_combout $end
$var wire 1 x! instgg|temp_tens[0]~3_combout $end
$var wire 1 y! instgg|op_max_tens[0]~5_combout $end
$var wire 1 z! instgg|temp_digits[3]~3_combout $end
$var wire 1 {! instgg|op_max_digits[3]~0_combout $end
$var wire 1 |! instgg|temp_digits[2]~0_combout $end
$var wire 1 }! instgg|op_max_digits[2]~1_combout $end
$var wire 1 ~! instgg|temp_digits[1]~2_combout $end
$var wire 1 !" instgg|op_max_digits[1]~2_combout $end
$var wire 1 "" instgg|temp_digits[0]~1_combout $end
$var wire 1 #" instgg|op_max_digits[0]~3_combout $end
$var wire 1 $" instgg|process_0~3_combout $end
$var wire 1 %" instgg|op_min_digits[0]~1_combout $end
$var wire 1 &" instgg|process_0~2_combout $end
$var wire 1 '" instgg|op_min_digits[0]~0_combout $end
$var wire 1 (" instgg|op_min_tens[3]~0_combout $end
$var wire 1 )" instgg|op_min_tens[2]~1_combout $end
$var wire 1 *" instgg|op_min_tens[1]~2_combout $end
$var wire 1 +" instgg|op_min_tens[0]~3_combout $end
$var wire 1 ," instgg|op_min_digits[3]~2_combout $end
$var wire 1 -" instgg|op_min_digits[2]~3_combout $end
$var wire 1 ." instgg|op_min_digits[1]~4_combout $end
$var wire 1 /" instgg|op_min_digits[0]~5_combout $end
$var wire 1 0" inst8|temp [0] $end
$var wire 1 1" inst8|temp [1] $end
$var wire 1 2" inst8|temp [2] $end
$var wire 1 3" inst8|temp [3] $end
$var wire 1 4" instaa|temp2 [0] $end
$var wire 1 5" instaa|temp2 [1] $end
$var wire 1 6" instgg|op_min_digits [3] $end
$var wire 1 7" instgg|op_min_digits [2] $end
$var wire 1 8" instgg|op_min_digits [1] $end
$var wire 1 9" instgg|op_min_digits [0] $end
$var wire 1 :" instgg|op_min_tens [3] $end
$var wire 1 ;" instgg|op_min_tens [2] $end
$var wire 1 <" instgg|op_min_tens [1] $end
$var wire 1 =" instgg|op_min_tens [0] $end
$var wire 1 >" instgg|temp_digits [3] $end
$var wire 1 ?" instgg|temp_digits [2] $end
$var wire 1 @" instgg|temp_digits [1] $end
$var wire 1 A" instgg|temp_digits [0] $end
$var wire 1 B" instgg|op_max_tens [3] $end
$var wire 1 C" instgg|op_max_tens [2] $end
$var wire 1 D" instgg|op_max_tens [1] $end
$var wire 1 E" instgg|op_max_tens [0] $end
$var wire 1 F" instgg|temp_tens [3] $end
$var wire 1 G" instgg|temp_tens [2] $end
$var wire 1 H" instgg|temp_tens [1] $end
$var wire 1 I" instgg|temp_tens [0] $end
$var wire 1 J" instgg|op_max_digits [3] $end
$var wire 1 K" instgg|op_max_digits [2] $end
$var wire 1 L" instgg|op_max_digits [1] $end
$var wire 1 M" instgg|op_max_digits [0] $end
$upscope $end
$upscope $end
$enddefinitions $end
#0
$dumpvars
0!
0"
1#
0$
1%
0&
0'
0(
0)
0*
0+
0,
0-
0.
0/
00
01
02
03
04
05
06
07
08
09
0:
0;
0<
0=
0>
0?
0@
0A
0B
0C
1D
xE
xF
xG
xH
xI
xJ
xK
xL
0M
0N
0O
0P
xQ
xR
xS
xT
xU
xV
xW
xX
0Y
0Z
x[
0\
1]
x^
1_
1`
1a
0b
0c
0d
0e
0f
0g
0h
0i
0j
0k
0l
0m
0n
0o
0p
0q
1r
0s
0t
0u
0v
1w
0x
1y
0z
0{
0|
0}
1~
0!!
0"!
0#!
1$!
0%!
0&!
0'!
0(!
0)!
1*!
1+!
1,!
1-!
0.!
1/!
00!
01!
02!
03!
04!
15!
06!
17!
18!
09!
0:!
1;!
0<!
0=!
1>!
1?!
0@!
0A!
1B!
0C!
1D!
1E!
0F!
1G!
1H!
0I!
0J!
0K!
0L!
0M!
0N!
1O!
0P!
1Q!
1R!
0S!
0T!
0U!
0V!
0W!
0X!
0Y!
0Z!
1[!
0\!
0]!
1^!
1_!
1`!
1a!
0b!
1c!
1d!
1e!
0f!
1g!
0h!
0i!
0j!
0k!
0l!
0m!
0n!
1o!
0p!
1q!
0r!
1s!
0t!
0u!
0v!
0w!
0x!
1y!
0z!
1{!
0|!
0}!
0~!
0!"
1""
1#"
0$"
1%"
0&"
0'"
x("
x)"
x*"
x+"
x,"
x-"
x."
x/"
03"
02"
01"
00"
05"
04"
x9"
x8"
x7"
x6"
x="
x<"
x;"
x:"
xA"
x@"
x?"
x>"
xE"
xD"
xC"
xB"
xI"
xH"
xG"
xF"
xM"
xL"
xK"
xJ"
$end
#1000
1!
1:
1l
1&!
1m
0[
14"
1(!
11"
10"
12"
13"
1)!
0*!
1.!
1M
1O
1P
1N
0D
#2000
1C
0!
0:
0l
0&!
0m
1[
1q
0r
10!
0c!
0o!
1~!
0""
1Y
0/!
14!
0>!
0d!
05!
1@!
1f!
0g!
0q!
1n!
1r!
0F"
0G"
0H"
0I"
0>"
0?"
1@"
0A"
1B"
0C"
0D"
1E"
1J"
0K"
0L"
1M"
0("
0)"
0*"
0+"
0,"
0-"
1."
0/"
1X
0W
0V
1U
1T
0S
0R
1Q
0:"
0;"
0<"
0="
06"
07"
18"
09"
0L
0K
0J
0I
0H
0G
1F
0E
04"
0(!
#3000
1!
1:
1l
1&!
1m
0[
14"
1(!
03"
0,!
0P
#4000
1B
0C
0!
0:
1o
0l
0&!
0m
1[
0q
1""
0Y
1A"
1/"
19"
1E
04"
0(!
#5000
1!
1:
1l
1&!
1m
0[
14"
1(!
02"
0+!
0O
#6000
1C
0!
0:
0l
0&!
0m
1[
1q
1|!
0~!
0""
1Y
1?"
0@"
0A"
1-"
0."
0/"
17"
08"
09"
1G
0F
0E
04"
0(!
#7000
1!
1:
1l
1&!
1m
0[
14"
1(!
01"
0)!
0-!
0N
#8000
1A
0B
0C
0!
0:
1t
0o
0l
0&!
0m
1[
0q
0w
12!
1""
1r
00!
1c!
0Y
1A"
1/"
19"
1E
04"
0(!
#9000
1!
1:
1l
1&!
1m
0[
14"
1(!
00"
1*!
1+!
1,!
1-!
0.!
0M
1D
#10000
1C
0!
0:
0l
0&!
0m
1[
1q
0r
10!
0c!
1~!
0""
1Y
1@"
0A"
1."
0/"
18"
09"
1F
0E
04"
0(!
#11000
1!
1:
1l
1&!
1m
0[
14"
1(!
11"
10"
12"
13"
1)!
0*!
1.!
1M
1O
1P
1N
0D
#12000
1B
0C
0!
0:
1o
0l
0&!
0m
1[
0q
1""
0Y
1A"
1/"
19"
1E
04"
0(!
#13000
1!
1:
1l
1&!
1m
0[
14"
1(!
03"
0,!
0P
#14000
1C
0!
0:
0l
0&!
0m
1[
1q
1z!
0|!
0~!
0""
1Y
1>"
0?"
0@"
0A"
1,"
0-"
0."
0/"
16"
07"
08"
09"
1H
0G
0F
0E
04"
0(!
#15000
1!
1:
1l
1&!
1m
0[
14"
1(!
02"
0+!
0O
#16000
1@
0A
0B
0C
0!
0:
1u
0t
0o
0l
0&!
0m
1[
0q
1""
1r
00!
1c!
0Y
1A"
1/"
19"
1E
04"
0(!
#17000
1!
1:
1l
1&!
1m
0[
14"
1(!
01"
0)!
0-!
0N
#18000
1C
0!
0:
0l
0&!
0m
1[
1q
0r
10!
0c!
1j!
1l!
0z!
0""
1Y
1x!
0>"
0A"
1I"
0,"
0/"
1+"
06"
09"
0H
0E
1="
1I
04"
0(!
#19000
1!
1:
1l
1&!
1m
0[
14"
1(!
00"
1*!
1+!
1,!
1-!
0.!
0M
1D
#20000
1B
0C
0!
0:
1o
0l
0&!
0m
1[
0q
0l!
0Y
0x!
0I"
0+"
0="
0I
04"
0(!
#21000
1!
1:
1l
1&!
1m
0[
14"
1(!
11"
10"
12"
13"
1)!
0*!
1.!
1M
1O
1P
1N
0D
#22000
1C
0!
0:
0l
0&!
0m
1[
1q
1Y
04"
0(!
#23000
1!
1:
1l
1&!
1m
0[
14"
1(!
03"
0,!
0P
#24000
1A
0B
0C
0!
0:
1t
0o
0l
0&!
0m
1[
0q
1r
00!
1c!
0Y
04"
0(!
#25000
1!
1:
1l
1&!
1m
0[
14"
1(!
02"
0+!
0O
#26000
1C
0!
0:
0l
0&!
0m
1[
1q
0r
10!
0c!
1Y
04"
0(!
#27000
1!
1:
1l
1&!
1m
0[
14"
1(!
01"
0)!
0-!
0N
#28000
1B
0C
0!
0:
1o
0l
0&!
0m
1[
0q
0Y
04"
0(!
#29000
1!
1:
1l
1&!
1m
0[
14"
1(!
00"
1*!
1+!
1,!
1-!
0.!
0M
1D
#30000
1C
0!
0:
0l
0&!
0m
1[
1q
1Y
04"
0(!
#31000
1!
1:
1l
1&!
1m
0[
14"
1(!
11"
10"
12"
13"
1)!
0*!
1.!
1M
1O
1P
1N
0D
#32000
1?
0@
0A
0B
0C
0!
0:
1z
0u
0t
0o
0l
0&!
0m
1[
0q
1|
07!
0O!
0Q!
1x!
1w
02!
0j!
1o!
1""
1r
00!
1c!
0Y
1]!
0^!
0`!
1I"
1/!
04!
1>!
1A"
1d!
0_!
1b!
1+"
15!
0@!
1/"
0f!
1="
19"
1I
1E
04"
0(!
#33000
1!
1:
1l
1&!
1m
0[
14"
1(!
03"
0,!
0P
#34000
1C
0!
0:
0l
0&!
0m
1[
1q
0r
10!
0c!
0o!
1~!
0""
1Y
0/!
14!
0>!
0d!
1@"
0A"
05!
1@!
1f!
1."
0/"
18"
09"
1F
0E
04"
0(!
#35000
1!
1:
1l
1&!
1m
0[
14"
1(!
02"
0+!
0O
#36000
1B
0C
0!
0:
1o
0l
0&!
0m
1[
0q
1""
0Y
1A"
1/"
19"
1E
04"
0(!
#37000
1!
1:
1l
1&!
1m
0[
14"
1(!
01"
0)!
0-!
0N
#38000
1C
0!
0:
0l
0&!
0m
1[
1q
1|!
0~!
0""
1Y
1?"
0@"
0A"
1-"
0."
0/"
17"
08"
09"
1G
0F
0E
04"
0(!
#39000
1!
1:
1l
1&!
1m
0[
14"
1(!
00"
1*!
1+!
1,!
1-!
0.!
0M
1D
#40000
1A
0B
0C
0!
0:
1t
0o
0l
0&!
0m
1[
0q
0w
12!
1""
1r
00!
1c!
0Y
1A"
1/"
19"
1E
04"
0(!
#41000
1!
1:
1l
1&!
1m
0[
14"
1(!
11"
10"
12"
13"
1)!
0*!
1.!
1M
1O
1P
1N
0D
#42000
1C
0!
0:
0l
0&!
0m
1[
1q
0r
10!
0c!
1~!
0""
1Y
1@"
0A"
1."
0/"
18"
09"
1F
0E
04"
0(!
#43000
1!
1:
1l
1&!
1m
0[
14"
1(!
03"
0,!
0P
#44000
1B
0C
0!
0:
1o
0l
0&!
0m
1[
0q
1""
0Y
1A"
1/"
19"
1E
04"
0(!
#45000
1!
1:
1l
1&!
1m
0[
14"
1(!
02"
0+!
0O
#46000
1C
0!
0:
0l
0&!
0m
1[
1q
1z!
0|!
0~!
0""
1Y
1>"
0?"
0@"
0A"
1,"
0-"
0."
0/"
16"
07"
08"
09"
1H
0G
0F
0E
04"
0(!
#47000
1!
1:
1l
1&!
1m
0[
14"
1(!
01"
0)!
0-!
0N
#48000
1@
0A
0B
0C
0!
0:
1u
0t
0o
0l
0&!
0m
1[
0q
1""
1r
00!
1c!
0Y
1A"
1/"
19"
1E
04"
0(!
#49000
1!
1:
1l
1&!
1m
0[
14"
1(!
00"
1*!
1+!
1,!
1-!
0.!
0M
1D
#50000
1C
0!
0:
0l
0&!
0m
1[
1q
0r
10!
0c!
1j!
1l!
0z!
0""
1Y
1v!
0x!
0>"
0A"
1H"
0I"
0,"
0/"
1*"
0+"
06"
09"
0H
0E
1<"
0="
1J
0I
04"
0(!
#51000
1!
1:
1l
1&!
1m
0[
14"
1(!
11"
10"
12"
13"
1)!
0*!
1.!
1M
1O
1P
1N
0D
#52000
1B
0C
0!
0:
1o
0l
0&!
0m
1[
0q
0l!
0Y
0v!
1x!
0H"
1I"
0*"
1+"
0<"
1="
0J
1I
04"
0(!
#53000
1!
1:
1l
1&!
1m
0[
14"
1(!
03"
0,!
0P
#54000
1C
0!
0:
0l
0&!
0m
1[
1q
1Y
04"
0(!
#55000
1!
1:
1l
1&!
1m
0[
14"
1(!
02"
0+!
0O
#56000
1A
0B
0C
0!
0:
1t
0o
0l
0&!
0m
1[
0q
1r
00!
1c!
0Y
04"
0(!
#57000
1!
1:
1l
1&!
1m
0[
14"
1(!
01"
0)!
0-!
0N
#58000
1C
0!
0:
0l
0&!
0m
1[
1q
0r
10!
0c!
1Y
04"
0(!
#59000
1!
1:
1l
1&!
1m
0[
14"
1(!
00"
1*!
1+!
1,!
1-!
0.!
0M
1D
#60000
1B
0C
0!
0:
1o
0l
0&!
0m
1[
0q
0Y
04"
0(!
#61000
1!
1:
1l
1&!
1m
0[
14"
1(!
11"
10"
12"
13"
1)!
0*!
1.!
1M
1O
1P
1N
0D
#62000
1C
0!
0:
0l
0&!
0m
1[
1q
1Y
04"
0(!
#63000
1!
1:
1l
1&!
1m
0[
14"
1(!
03"
0,!
0P
#64000
1>
0?
0@
0A
0B
0C
0!
0:
1x
0z
0u
0t
0o
0l
0&!
0m
1[
0q
0|
19!
1v!
0x!
1w
02!
0j!
1o!
1""
1r
00!
1c!
0Y
1H"
0I"
1/!
04!
1>!
1A"
1d!
1*"
0+"
15!
0@!
1/"
0f!
1<"
0="
19"
1J
0I
1E
04"
0(!
#65000
1!
1:
1l
1&!
1m
0[
14"
1(!
02"
0+!
0O
#66000
1C
0!
0:
0l
0&!
0m
1[
1q
0r
10!
0c!
0o!
1~!
0""
1Y
0/!
14!
0>!
0d!
1@"
0A"
05!
1@!
1f!
1."
0/"
18"
09"
1F
0E
04"
0(!
#67000
1!
1:
1l
1&!
1m
0[
14"
1(!
01"
0)!
0-!
0N
#68000
1B
0C
0!
0:
1o
0l
0&!
0m
1[
0q
1""
0Y
1A"
1/"
19"
1E
04"
0(!
#69000
1!
1:
1l
1&!
1m
0[
14"
1(!
00"
1*!
1+!
1,!
1-!
0.!
0M
1D
#70000
1C
0!
0:
0l
0&!
0m
1[
1q
1|!
0~!
0""
1Y
1?"
0@"
0A"
1-"
0."
0/"
17"
08"
09"
1G
0F
0E
04"
0(!
#71000
1!
1:
1l
1&!
1m
0[
14"
1(!
11"
10"
12"
13"
1)!
0*!
1.!
1M
1O
1P
1N
0D
#72000
1A
0B
0C
0!
0:
1t
0o
0l
0&!
0m
1[
0q
0w
12!
1""
1r
00!
1c!
0Y
1A"
1/"
19"
1E
04"
0(!
#73000
1!
1:
1l
1&!
1m
0[
14"
1(!
03"
0,!
0P
#74000
1C
0!
0:
0l
0&!
0m
1[
1q
0r
10!
0c!
1~!
0""
1Y
1@"
0A"
1."
0/"
18"
09"
1F
0E
04"
0(!
#75000
1!
1:
1l
1&!
1m
0[
14"
1(!
02"
0+!
0O
#76000
1B
0C
0!
0:
1o
0l
0&!
0m
1[
0q
1""
0Y
1A"
1/"
19"
1E
04"
0(!
#77000
1!
1:
1l
1&!
1m
0[
14"
1(!
01"
0)!
0-!
0N
#78000
1C
0!
0:
0l
0&!
0m
1[
1q
1z!
0|!
0~!
0""
1Y
1>"
0?"
0@"
0A"
1,"
0-"
0."
0/"
16"
07"
08"
09"
1H
0G
0F
0E
04"
0(!
#79000
1!
1:
1l
1&!
1m
0[
14"
1(!
00"
1*!
1+!
1,!
1-!
0.!
0M
1D
#80000
1@
0A
0B
0C
0!
0:
1u
0t
0o
0l
0&!
0m
1[
0q
1""
1r
00!
1c!
0Y
1A"
1/"
19"
1E
04"
0(!
#81000
1!
1:
1l
1&!
1m
0[
14"
1(!
11"
10"
12"
13"
1)!
0*!
1.!
1M
1O
1P
1N
0D
#82000
1C
0!
0:
0l
0&!
0m
1[
1q
0r
10!
0c!
1j!
1l!
0z!
0""
1Y
1x!
0>"
0A"
1I"
0,"
0/"
1+"
06"
09"
0H
0E
1="
1I
04"
0(!
#83000
1!
1:
1l
1&!
1m
0[
14"
1(!
03"
0,!
0P
#84000
1B
0C
0!
0:
1o
0l
0&!
0m
1[
0q
0l!
0Y
0x!
0I"
0+"
0="
0I
04"
0(!
#85000
1!
1:
1l
1&!
1m
0[
14"
1(!
02"
0+!
0O
#86000
1C
0!
0:
0l
0&!
0m
1[
1q
1Y
04"
0(!
#87000
1!
1:
1l
1&!
1m
0[
14"
1(!
01"
0)!
0-!
0N
#88000
1A
0B
0C
0!
0:
1t
0o
0l
0&!
0m
1[
0q
1r
00!
1c!
0Y
04"
0(!
#89000
1!
1:
1l
1&!
1m
0[
14"
1(!
00"
1*!
1+!
1,!
1-!
0.!
0M
1D
#90000
1C
0!
0:
0l
0&!
0m
1[
1q
0r
10!
0c!
1Y
04"
0(!
#91000
1!
1:
1l
1&!
1m
0[
14"
1(!
11"
10"
12"
13"
1)!
0*!
1.!
1M
1O
1P
1N
0D
#92000
1B
0C
0!
0:
1o
0l
0&!
0m
1[
0q
0Y
04"
0(!
#93000
1!
1:
1l
1&!
1m
0[
14"
1(!
03"
0,!
0P
#94000
1C
0!
0:
0l
0&!
0m
1[
1q
1Y
04"
0(!
#95000
1!
1:
1l
1&!
1m
0[
14"
1(!
02"
0+!
0O
#96000
1?
0@
0A
0B
0C
0!
0:
1z
0u
0t
0o
0l
0&!
0m
1[
0q
1x!
1w
02!
0j!
1o!
1""
1r
00!
1c!
0Y
1I"
1/!
04!
1>!
1A"
1d!
1+"
15!
0@!
1/"
0f!
1="
19"
1I
1E
04"
0(!
#97000
1!
1:
1l
1&!
1m
0[
14"
1(!
01"
0)!
0-!
0N
#98000
1C
0!
0:
0l
0&!
0m
1[
1q
0r
10!
0c!
0o!
1~!
0""
1Y
0/!
14!
0>!
0d!
1@"
0A"
05!
1@!
1f!
1."
0/"
18"
09"
1F
0E
04"
0(!
#99000
1!
1:
1l
1&!
1m
0[
14"
1(!
00"
1*!
1+!
1,!
1-!
0.!
0M
1D
#100000
1B
0C
0!
0:
1o
0l
0&!
0m
1[
0q
1""
0Y
1A"
1/"
19"
1E
04"
0(!
#101000
1!
1:
1l
1&!
1m
0[
14"
1(!
11"
10"
12"
13"
1)!
0*!
1.!
1M
1O
1P
1N
0D
#102000
1C
0!
0:
0l
0&!
0m
1[
1q
1|!
0~!
0""
1Y
1?"
0@"
0A"
1-"
0."
0/"
17"
08"
09"
1G
0F
0E
04"
0(!
#103000
1!
1:
1l
1&!
1m
0[
14"
1(!
03"
0,!
0P
#104000
1A
0B
0C
0!
0:
1t
0o
0l
0&!
0m
1[
0q
0w
12!
1""
1r
00!
1c!
0Y
1A"
1/"
19"
1E
04"
0(!
#105000
1!
1:
1l
1&!
1m
0[
14"
1(!
02"
0+!
0O
#106000
1C
0!
0:
0l
0&!
0m
1[
1q
0r
10!
0c!
1~!
0""
1Y
1@"
0A"
1."
0/"
18"
09"
1F
0E
04"
0(!
#107000
1!
1:
1l
1&!
1m
0[
14"
1(!
01"
0)!
0-!
0N
#108000
1B
0C
0!
0:
1o
0l
0&!
0m
1[
0q
1""
0Y
1A"
1/"
19"
1E
04"
0(!
#109000
1!
1:
1l
1&!
1m
0[
14"
1(!
00"
1*!
1+!
1,!
1-!
0.!
0M
1D
#110000
1C
0!
0:
0l
0&!
0m
1[
1q
1z!
0|!
0~!
0""
1Y
1>"
0?"
0@"
0A"
1,"
0-"
0."
0/"
16"
07"
08"
09"
1H
0G
0F
0E
04"
0(!
#111000
1!
1:
1l
1&!
1m
0[
14"
1(!
11"
10"
12"
13"
1)!
0*!
1.!
1M
1O
1P
1N
0D
#112000
1@
0A
0B
0C
0!
0:
1u
0t
0o
0l
0&!
0m
1[
0q
1""
1r
00!
1c!
0Y
1A"
1/"
19"
1E
04"
0(!
#113000
1!
1:
1l
1&!
1m
0[
14"
1(!
03"
0,!
0P
#114000
1C
0!
0:
0l
0&!
0m
1[
1q
0r
10!
0c!
1j!
1l!
0z!
0""
1Y
1t!
0v!
0x!
0>"
0A"
1G"
0H"
0I"
0,"
0/"
1)"
0*"
0+"
06"
09"
0H
0E
1;"
0<"
0="
1K
0J
0I
04"
0(!
#115000
1!
1:
1l
1&!
1m
0[
14"
1(!
02"
0+!
0O
#116000
1B
0C
0!
0:
1o
0l
0&!
0m
1[
0q
0l!
0Y
0t!
1v!
1x!
0G"
1H"
1I"
0)"
1*"
1+"
0;"
1<"
1="
0K
1J
1I
04"
0(!
#117000
1!
1:
1l
1&!
1m
0[
14"
1(!
01"
0)!
0-!
0N
#118000
1C
0!
0:
0l
0&!
0m
1[
1q
1Y
04"
0(!
#119000
1!
1:
1l
1&!
1m
0[
14"
1(!
00"
1*!
1+!
1,!
1-!
0.!
0M
1D
#120000
1A
0B
0C
0!
0:
1t
0o
0l
0&!
0m
1[
0q
1r
00!
1c!
0Y
04"
0(!
#121000
1!
1:
1l
1&!
1m
0[
14"
1(!
11"
10"
12"
13"
1)!
0*!
1.!
1M
1O
1P
1N
0D
#122000
1C
0!
0:
0l
0&!
0m
1[
1q
0r
10!
0c!
1Y
04"
0(!
#123000
1!
1:
1l
1&!
1m
0[
14"
1(!
03"
0,!
0P
#124000
1B
0C
0!
0:
1o
0l
0&!
0m
1[
0q
0Y
04"
0(!
#125000
1!
1:
1l
1&!
1m
0[
14"
1(!
02"
0+!
0O
#126000
1C
0!
0:
0l
0&!
0m
1[
1q
1Y
04"
0(!
#127000
1!
1:
1l
1&!
1m
0[
14"
1(!
01"
0)!
0-!
0N
#128000
1=
0>
0?
0@
0A
0B
0C
0!
0:
1!!
0x
0z
0u
0t
0o
0l
0&!
0m
1[
0q
1#!
08!
1t!
0v!
0x!
17!
09!
1Q!
1w
02!
0j!
1o!
1""
1r
00!
1c!
0Y
1G"
0H"
0I"
1/!
04!
1>!
1A"
1d!
1)"
0*"
0+"
15!
0@!
1/"
0f!
1;"
0<"
0="
19"
1K
0J
0I
1E
04"
0(!
#129000
1!
1:
1l
1&!
1m
0[
14"
1(!
00"
1*!
1+!
1,!
1-!
0.!
0M
1D
#130000
1C
0!
0:
0l
0&!
0m
1[
1q
0r
10!
0c!
0o!
1~!
0""
1Y
0/!
14!
0>!
0d!
1@"
0A"
05!
1@!
1f!
1."
0/"
18"
09"
1F
0E
04"
0(!
#131000
1!
1:
1l
1&!
1m
0[
14"
1(!
11"
10"
12"
13"
1)!
0*!
1.!
1M
1O
1P
1N
0D
#132000
1B
0C
0!
0:
1o
0l
0&!
0m
1[
0q
1""
0Y
1A"
1/"
19"
1E
04"
0(!
#133000
1!
1:
1l
1&!
1m
0[
14"
1(!
03"
0,!
0P
