by-Jin/createNum2/simulation/qsim/createNum2.msim.vcd
$comment
	File created using the following command:
		vcd file createNum2.msim.vcd -direction
$end
$date
	Mon May 17 16:12:17 2021
$end
$version
	ModelSim Version 10.1e
$end
$timescale
	1ps
$end
$scope module createNum2_vlg_vec_tst $end
$var reg 1 ! clk1 $end
$var reg 1 " clk2 $end
$var wire 1 # tenT [3] $end
$var wire 1 $ tenT [2] $end
$var wire 1 % tenT [1] $end
$var wire 1 & tenT [0] $end
$var wire 1 ' unitT [3] $end
$var wire 1 ( unitT [2] $end
$var wire 1 ) unitT [1] $end
$var wire 1 * unitT [0] $end
$var wire 1 + sampler $end
$scope module i1 $end
$var wire 1 , gnd $end
$var wire 1 - vcc $end
$var wire 1 . unknown $end
$var tri1 1 / devclrn $end
$var tri1 1 0 devpor $end
$var tri1 1 1 devoe $end
$var wire 1 2 ~QUARTUS_CREATED_GND~I_combout $end
$var wire 1 3 clk2~input_o $end
$var wire 1 4 clk2~inputCLKENA0_outclk $end
$var wire 1 5 op2[0]~DUPLICATE_q $end
$var wire 1 6 op2[2]~DUPLICATE_q $end
$var wire 1 7 Mux6~0_combout $end
$var wire 1 8 Mux4~0_combout $end
$var wire 1 9 Mux5~0_combout $end
$var wire 1 : Mux7~0_combout $end
$var wire 1 ; Add0~0_combout $end
$var wire 1 < clk1~input_o $end
$var wire 1 = clk1~inputCLKENA0_outclk $end
$var wire 1 > op1[3]~DUPLICATE_q $end
$var wire 1 ? Mux1~0_combout $end
$var wire 1 @ Mux0~0_combout $end
$var wire 1 A Mux2~0_combout $end
$var wire 1 B Mux3~0_combout $end
$var wire 1 C op1[0]~DUPLICATE_q $end
$var wire 1 D op1[2]~DUPLICATE_q $end
$var wire 1 E Add1~0_combout $end
$var wire 1 F op1 [3] $end
$var wire 1 G op1 [2] $end
$var wire 1 H op1 [1] $end
$var wire 1 I op1 [0] $end
$var wire 1 J op2 [3] $end
$var wire 1 K op2 [2] $end
$var wire 1 L op2 [1] $end
$var wire 1 M op2 [0] $end
$upscope $end
$upscope $end
$enddefinitions $end
#0
$dumpvars
0!
0"
0&
0%
0$
0#
0*
0)
0(
0'
x+
0,
1-
x.
1/
10
11
02
03
04
05
06
07
18
09
1:
0;
0<
0=
0>
0?
0@
0A
1B
0C
0D
0E
0I
0H
0G
0F
0M
0L
0K
0J
$end
#10000
1!
1"
1<
13
14
1=
0+
1J
15
1I
1M
1C
0:
1A
0B
1&
1*
1E
1'
#20000
0!
0"
0<
03
04
0=
1+
#30000
1!
1"
1<
13
14
1=
0+
05
0I
0M
0C
1H
17
08
19
1B
1:
0&
0*
1)
1;
0E
1#
0'
#40000
0!
0"
0<
03
04
0=
1+
#50000
1!
1"
1<
13
14
1=
0+
1K
0J
15
1I
1M
1L
16
1C
0:
0A
0B
1?
1&
1%
1$
1*
1E
1'
#60000
0!
0"
0<
03
04
0=
1+
#70000
1!
1"
1<
13
14
1=
0+
05
0I
1G
0M
1D
0C
0H
07
1B
1:
0&
1(
0*
0)
0;
0E
0#
0'
#80000
0!
0"
0<
03
04
0=
1+
#90000
1!
1"
1<
13
14
1=
0+
15
1I
1M
0L
1C
1A
0B
0:
1&
0%
1*
1;
1E
1#
1'
#100000
0!
0"
0<
03
04
0=
1+
#110000
1!
1"
1<
13
14
1=
0+
05
0I
0M
0C
1H
17
09
1B
1:
0&
0*
1)
0;
0E
0#
0'
#120000
0!
0"
0<
03
04
0=
1+
#130000
1!
1"
1<
13
14
1=
0+
0K
15
1I
1M
1L
06
1C
0:
1@
0A
0B
0?
1&
1%
0$
1*
1;
1E
1#
1'
#140000
0!
0"
0<
03
04
0=
1+
#150000
1!
1"
1<
13
14
1=
0+
05
1F
0I
0G
1>
0M
0D
0C
0H
07
1B
1:
0&
0(
0*
0)
0;
0#
#160000
0!
0"
0<
03
04
0=
1+
#170000
1!
1"
1<
13
14
1=
0+
15
1I
1M
0L
1C
0@
0B
0:
1&
0%
1*
1;
0E
1#
0'
#180000
0!
0"
0<
03
04
0=
1+
#190000
1!
1"
1<
13
14
1=
0+
05
0F
0I
0>
0M
0C
18
1B
1:
0&
0*
0;
0#
#200000
0!
0"
0<
03
04
0=
1+
#210000
1!
1"
1<
13
14
1=
0+
1J
15
1I
1M
1C
0:
1A
0B
1&
1*
1E
1'
#220000
0!
0"
0<
03
04
0=
1+
#230000
1!
1"
1<
13
14
1=
0+
05
0I
0M
0C
1H
17
08
19
1B
1:
0&
0*
1)
1;
0E
1#
0'
#240000
0!
0"
0<
03
04
0=
1+
#250000
1!
1"
1<
13
14
1=
0+
1K
0J
15
1I
1M
1L
16
1C
0:
0A
0B
1?
1&
1%
1$
1*
1E
1'
#260000
0!
0"
0<
03
04
0=
1+
#270000
1!
1"
1<
13
14
1=
0+
05
0I
1G
0M
1D
0C
0H
07
1B
1:
0&
1(
0*
0)
0;
0E
0#
0'
#280000
0!
0"
0<
03
04
0=
1+
#290000
1!
1"
1<
13
14
1=
0+
15
1I
1M
0L
1C
1A
0B
0:
1&
0%
1*
1;
1E
1#
1'
#300000
0!
0"
0<
03
04
0=
1+
#310000
1!
1"
1<
13
14
1=
0+
05
0I
0M
0C
1H
17
09
1B
1:
0&
0*
1)
0;
0E
0#
0'
#320000
0!
0"
0<
03
04
0=
1+
#330000
1!
1"
1<
13
14
1=
0+
0K
15
1I
1M
1L
06
1C
0:
1@
0A
0B
0?
1&
1%
0$
1*
1;
1E
1#
1'
#340000
0!
0"
0<
03
04
0=
1+
#350000
1!
1"
1<
13
14
1=
0+
05
1F
0I
0G
1>
0M
0D
0C
0H
07
1B
1:
0&
0(
0*
0)
0;
0#
#360000
0!
0"
0<
03
04
0=
1+
#370000
1!
1"
1<
13
14
1=
0+
15
1I
1M
0L
1C
0@
0B
0:
1&
0%
1*
1;
0E
1#
0'
#380000
0!
0"
0<
03
04
0=
1+
#390000
1!
1"
1<
13
14
1=
0+
05
0F
0I
0>
0M
0C
18
1B
1:
0&
0*
0;
0#
#400000
0!
0"
0<
03
04
0=
1+
#410000
1!
1"
1<
13
14
1=
0+
1J
15
1I
1M
1C
0:
1A
0B
1&
1*
1E
1'
#420000
0!
0"
0<
03
04
0=
1+
#430000
1!
1"
1<
13
14
1=
0+
05
0I
0M
0C
1H
17
08
19
1B
1:
0&
0*
1)
1;
0E
1#
0'
#440000
0!
0"
0<
03
04
0=
1+
#450000
1!
1"
1<
13
14
1=
0+
1K
0J
15
1I
1M
1L
16
1C
0:
0A
0B
1?
1&
1%
1$
1*
1E
1'
#460000
0!
0"
0<
03
04
0=
1+
#470000
1!
1"
1<
13
14
1=
0+
05
0I
1G
0M
1D
0C
0H
07
1B
1:
0&
1(
0*
0)
0;
0E
0#
0'
#480000
0!
0"
0<
03
04
0=
1+
#490000
1!
1"
1<
13
14
1=
0+
15
1I
1M
0L
1C
1A
0B
0:
1&
0%
1*
1;
1E
1#
1'
#500000
0!
0"
0<
03
04
0=
1+
#510000
1!
1"
1<
13
14
1=
0+
05
0I
0M
0C
1H
17
09
1B
1:
0&
0*
1)
0;
0E
0#
0'
#520000
0!
0"
0<
03
04
0=
1+
#530000
1!
1"
1<
13
14
1=
0+
0K
15
1I
1M
1L
06
1C
0:
1@
0A
0B
0?
1&
1%
0$
1*
1;
1E
1#
1'
#540000
0!
0"
0<
03
04
0=
1+
#550000
1!
1"
1<
13
14
1=
0+
05
1F
0I
0G
1>
0M
0D
0C
0H
07
1B
1:
0&
0(
0*
0)
0;
0#
#560000
0!
0"
0<
03
04
0=
1+
#570000
1!
1"
1<
13
14
1=
0+
15
1I
1M
0L
1C
0@
0B
0:
1&
0%
1*
1;
0E
1#
0'
#580000
0!
0"
0<
03
04
0=
1+
#590000
1!
1"
1<
13
14
1=
0+
05
0F
0I
0>
0M
0C
18
1B
1:
0&
0*
0;
0#
#600000
0!
0"
0<
03
04
0=
1+
#610000
1!
1"
1<
13
14
1=
0+
1J
15
1I
1M
1C
0:
1A
0B
1&
1*
1E
1'
#620000
0!
0"
0<
03
04
0=
1+
#630000
1!
1"
1<
13
14
1=
0+
05
0I
0M
0C
1H
17
08
19
1B
1:
0&
0*
1)
1;
0E
1#
0'
#640000
0!
0"
0<
03
04
0=
1+
#650000
1!
1"
1<
13
14
1=
0+
1K
0J
15
1I
1M
1L
16
1C
0:
0A
0B
1?
1&
1%
1$
1*
1E
1'
#660000
0!
0"
0<
03
04
0=
1+
#670000
1!
1"
1<
13
14
1=
0+
05
0I
1G
0M
1D
0C
0H
07
1B
1:
0&
1(
0*
0)
0;
0E
0#
0'
#680000
0!
0"
0<
03
04
0=
1+
#690000
1!
1"
1<
13
14
1=
0+
15
1I
1M
0L
1C
1A
0B
0:
1&
0%
1*
1;
1E
1#
1'
#700000
0!
0"
0<
03
04
0=
1+
#710000
1!
1"
1<
13
14
1=
0+
05
0I
0M
0C
1H
17
09
1B
1:
0&
0*
1)
0;
0E
0#
0'
#720000
0!
0"
0<
03
04
0=
1+
#730000
1!
1"
1<
13
14
1=
0+
0K
15
1I
1M
1L
06
1C
0:
1@
0A
0B
0?
1&
1%
0$
1*
1;
1E
1#
1'
#740000
0!
0"
0<
03
04
0=
1+
#750000
1!
1"
1<
13
14
1=
0+
05
1F
0I
0G
1>
0M
0D
0C
0H
07
1B
1:
0&
0(
0*
0)
0;
0#
#760000
0!
0"
0<
03
04
0=
1+
#770000
1!
1"
1<
13
14
1=
0+
15
1I
1M
0L
1C
0@
0B
0:
1&
0%
1*
1;
0E
1#
0'
#780000
0!
0"
0<
03
04
0=
1+
#790000
1!
1"
1<
13
14
1=
0+
05
0F
0I
0>
0M
0C
18
1B
1:
0&
0*
0;
0#
#800000
0!
0"
0<
03
04
0=
1+
#810000
1!
1"
1<
13
14
1=
0+
1J
15
1I
1M
1C
0:
1A
0B
1&
1*
1E
1'
#820000
0!
0"
0<
03
04
0=
1+
#830000
1!
1"
1<
13
14
1=
0+
05
0I
0M
0C
1H
17
08
19
1B
1:
0&
0*
1)
1;
0E
1#
0'
#840000
0!
0"
0<
03
04
0=
1+
#850000
1!
1"
1<
13
14
1=
0+
1K
0J
15
1I
1M
1L
16
1C
0:
0A
0B
1?
1&
1%
1$
1*
1E
1'
#860000
0!
0"
0<
03
04
0=
1+
#870000
1!
1"
1<
13
14
1=
0+
05
0I
1G
0M
1D
0C
0H
07
1B
1:
0&
1(
0*
0)
0;
0E
0#
0'
#880000
0!
0"
0<
03
04
0=
1+
#890000
1!
1"
1<
13
14
1=
0+
15
1I
1M
0L
1C
1A
0B
0:
1&
0%
1*
1;
1E
1#
1'
#900000
0!
0"
0<
03
04
0=
1+
#910000
1!
1"
1<
13
14
1=
0+
05
0I
0M
0C
1H
17
09
1B
1:
0&
0*
1)
0;
0E
0#
0'
#920000
0!
0"
0<
03
04
0=
1+
#930000
1!
1"
1<
13
14
1=
0+
0K
15
1I
1M
1L
06
1C
0:
1@
0A
0B
0?
1&
1%
0$
1*
1;
1E
1#
1'
#940000
0!
0"
0<
03
04
0=
1+
#950000
1!
1"
1<
13
14
1=
0+
05
1F
0I
0G
1>
0M
0D
0C
0H
07
1B
1:
0&
0(
0*
0)
0;
0#
#960000
0!
0"
0<
03
04
0=
1+
#970000
1!
1"
1<
13
14
1=
0+
15
1I
1M
0L
1C
0@
0B
0:
1&
0%
1*
1;
0E
1#
0'
#980000
0!
0"
0<
03
04
0=
1+
#990000
1!
1"
1<
13
14
1=
0+
05
0F
0I
0>
0M
0C
18
1B
1:
0&
0*
0;
0#
