by-Pei/CompareNum/simulation/qsim/CompareNum.msim.vcd
$comment
	File created using the following command:
		vcd file CompareNum.msim.vcd -direction
$end
$date
	Sat Jun 12 14:39:38 2021
$end
$version
	ModelSim Version 10.1e
$end
$timescale
	1ps
$end
$scope module CompareNum_vlg_vec_tst $end
$var reg 1 ! enter $end
$var reg 8 " g [0:7] $end
$var reg 1 # reset $end
$var reg 8 $ u [0:7] $end
$var wire 1 % TFS [0] $end
$var wire 1 & TFS [1] $end
$var wire 1 ' sampler $end
$scope module i1 $end
$var wire 1 ( gnd $end
$var wire 1 ) vcc $end
$var wire 1 * unknown $end
$var tri1 1 + devclrn $end
$var tri1 1 , devpor $end
$var tri1 1 - devoe $end
$var wire 1 . ~QUARTUS_CREATED_GND~I_combout $end
$var wire 1 / enter~input_o $end
$var wire 1 0 enter~inputCLKENA0_outclk $end
$var wire 1 1 g[5]~input_o $end
$var wire 1 2 g[1]~input_o $end
$var wire 1 3 u[1]~input_o $end
$var wire 1 4 u[2]~input_o $end
$var wire 1 5 u[0]~input_o $end
$var wire 1 6 g[2]~input_o $end
$var wire 1 7 g[0]~input_o $end
$var wire 1 8 temp~0_combout $end
$var wire 1 9 g[4]~input_o $end
$var wire 1 : g[3]~input_o $end
$var wire 1 ; u[4]~input_o $end
$var wire 1 < u[3]~input_o $end
$var wire 1 = temp~1_combout $end
$var wire 1 > u[5]~input_o $end
$var wire 1 ? g[7]~input_o $end
$var wire 1 @ g[6]~input_o $end
$var wire 1 A u[6]~input_o $end
$var wire 1 B u[7]~input_o $end
$var wire 1 C temp~2_combout $end
$var wire 1 D temp~combout $end
$var wire 1 E temp2[1]~0_combout $end
$var wire 1 F reset~input_o $end
$var wire 1 G temp2 [0] $end
$var wire 1 H temp2 [1] $end
$upscope $end
$upscope $end
$enddefinitions $end
#0
$dumpvars
0!
b0 "
0#
b1010000 $
0&
0%
x'
0(
1)
x*
1+
1,
1-
0.
0/
00
01
02
13
04
05
06
07
08
09
0:
0;
1<
0=
0>
0?
0@
0A
0B
1C
1D
0E
0F
0H
0G
$end
#1000
1!
1#
1/
1F
10
0'
1G
1%
#2000
b1 "
0!
0#
1?
0/
0F
00
1'
0C
0G
0%
#3000
1!
1#
1/
1F
10
0'
1G
1%
#4000
b11 "
b10 "
0!
0#
0?
1@
0/
0F
00
1'
0G
0%
#5000
1!
1#
1/
1F
10
0'
1G
1%
#6000
b11 "
0!
0#
1?
0/
0F
00
1'
0G
0%
#7000
1!
1#
1/
1F
10
0'
1G
1%
#8000
b111 "
b101 "
b100 "
0!
0#
0?
0@
11
0/
0F
00
1'
1C
0G
0%
#9000
1!
1#
1/
1F
10
0'
1G
1%
#10000
b101 "
0!
0#
1?
0/
0F
00
1'
0C
0G
0%
#11000
1!
1#
1/
1F
10
0'
1G
1%
#12000
b111 "
b110 "
0!
0#
0?
1@
0/
0F
00
1'
0G
0%
#13000
1!
1#
1/
1F
10
0'
1G
1%
#14000
b111 "
0!
0#
1?
0/
0F
00
1'
0G
0%
#15000
1!
1#
1/
1F
10
0'
1G
1%
#16000
b1111 "
b1011 "
b1001 "
b1000 "
0!
0#
0?
0@
01
19
0/
0F
00
1'
1C
0G
0%
#17000
1!
1#
1/
1F
10
0'
1G
1%
#18000
b1001 "
0!
0#
1?
0/
0F
00
1'
0C
0G
0%
#19000
1!
1#
1/
1F
10
0'
1G
1%
#20000
b1011 "
b1010 "
0!
0#
0?
1@
0/
0F
00
1'
0G
0%
#21000
1!
1#
1/
1F
10
0'
1G
1%
#22000
b1011 "
0!
0#
1?
0/
0F
00
1'
0G
0%
#23000
1!
1#
1/
1F
10
0'
1G
1%
#24000
b1111 "
b1101 "
b1100 "
0!
0#
0?
0@
11
0/
0F
00
1'
1C
0G
0%
#25000
1!
1#
1/
1F
10
0'
1G
1%
#26000
b1101 "
0!
0#
1?
0/
0F
00
1'
0C
0G
0%
#27000
1!
1#
1/
1F
10
0'
1G
1%
#28000
b1111 "
b1110 "
0!
0#
0?
1@
0/
0F
00
1'
0G
0%
#29000
1!
1#
1/
1F
10
0'
1G
1%
#30000
b1111 "
0!
0#
1?
0/
0F
00
1'
0G
0%
#31000
1!
1#
1/
1F
10
0'
1G
1%
#32000
b11111 "
b10111 "
b10011 "
b10001 "
b10000 "
0!
0#
0?
0@
01
09
1:
0/
0F
00
1'
1C
1=
0G
0%
#33000
1!
1#
1/
1F
10
0'
1G
1%
#34000
b10001 "
0!
0#
1?
0/
0F
00
1'
0C
0G
0%
#35000
1!
1#
1/
1F
10
0'
1G
1%
#36000
b10011 "
b10010 "
0!
0#
0?
1@
0/
0F
00
1'
0G
0%
#37000
1!
1#
1/
1F
10
0'
1G
1%
#38000
b10011 "
0!
0#
1?
0/
0F
00
1'
0G
0%
#39000
1!
1#
1/
1F
10
0'
1G
1%
#40000
b10111 "
b10101 "
b10100 "
0!
0#
0?
0@
11
0/
0F
00
1'
1C
0G
0%
#41000
1!
1#
1/
1F
10
0'
1G
1%
#42000
b10101 "
0!
0#
1?
0/
0F
00
1'
0C
0G
0%
#43000
1!
1#
1/
1F
10
0'
1G
1%
#44000
b10111 "
b10110 "
0!
0#
0?
1@
0/
0F
00
1'
0G
0%
#45000
1!
1#
1/
1F
10
0'
1G
1%
#46000
b10111 "
0!
0#
1?
0/
0F
00
1'
0G
0%
#47000
1!
1#
1/
1F
10
0'
1G
1%
#48000
b11111 "
b11011 "
b11001 "
b11000 "
0!
0#
0?
0@
01
19
0/
0F
00
1'
1C
0=
0G
0%
#49000
1!
1#
1/
1F
10
0'
1G
1%
#50000
b11001 "
0!
0#
1?
0/
0F
00
1'
0C
0G
0%
#51000
1!
1#
1/
1F
10
0'
1G
1%
#52000
b11011 "
b11010 "
0!
0#
0?
1@
0/
0F
00
1'
0G
0%
#53000
1!
1#
1/
1F
10
0'
1G
1%
#54000
b11011 "
0!
0#
1?
0/
0F
00
1'
0G
0%
#55000
1!
1#
1/
1F
10
0'
1G
1%
#56000
b11111 "
b11101 "
b11100 "
0!
0#
0?
0@
11
0/
0F
00
1'
1C
0G
0%
#57000
1!
1#
1/
1F
10
0'
1G
1%
#58000
b11101 "
0!
0#
1?
0/
0F
00
1'
0C
0G
0%
#59000
1!
1#
1/
1F
10
0'
1G
1%
#60000
b11111 "
b11110 "
0!
0#
0?
1@
0/
0F
00
1'
0G
0%
#61000
1!
1#
1/
1F
10
0'
1G
1%
#62000
b11111 "
0!
0#
1?
0/
0F
00
1'
0G
0%
#63000
1!
1#
1/
1F
10
0'
1G
1%
#64000
b111111 "
b101111 "
b100111 "
b100011 "
b100001 "
b100000 "
0!
0#
0?
0@
01
09
0:
16
0/
0F
00
1'
1C
0G
0%
#65000
1!
1#
1/
1F
10
0'
1G
1%
#66000
b100001 "
0!
0#
1?
0/
0F
00
1'
0C
0G
0%
#67000
1!
1#
1/
1F
10
0'
1G
1%
#68000
b100011 "
b100010 "
0!
0#
0?
1@
0/
0F
00
1'
0G
0%
#69000
1!
1#
1/
1F
10
0'
1G
1%
#70000
b100011 "
0!
0#
1?
0/
0F
00
1'
0G
0%
#71000
1!
1#
1/
1F
10
0'
1G
1%
#72000
b100111 "
b100101 "
b100100 "
0!
0#
0?
0@
11
0/
0F
00
1'
1C
0G
0%
#73000
1!
1#
1/
1F
10
0'
1G
1%
#74000
b100101 "
0!
0#
1?
0/
0F
00
1'
0C
0G
0%
#75000
1!
1#
1/
1F
10
0'
1G
1%
#76000
b100111 "
b100110 "
0!
0#
0?
1@
0/
0F
00
1'
0G
0%
#77000
1!
1#
1/
1F
10
0'
1G
1%
#78000
b100111 "
0!
0#
1?
0/
0F
00
1'
0G
0%
#79000
1!
1#
1/
1F
10
0'
1G
1%
#80000
b101111 "
b101011 "
b101001 "
b101000 "
0!
0#
0?
0@
01
19
0/
0F
00
1'
1C
0G
0%
#81000
1!
1#
1/
1F
10
0'
1G
1%
#82000
b101001 "
0!
0#
1?
0/
0F
00
1'
0C
0G
0%
#83000
1!
1#
1/
1F
10
0'
1G
1%
#84000
b101011 "
b101010 "
0!
0#
0?
1@
0/
0F
00
1'
0G
0%
#85000
1!
1#
1/
1F
10
0'
1G
1%
#86000
b101011 "
0!
0#
1?
0/
0F
00
1'
0G
0%
#87000
1!
1#
1/
1F
10
0'
1G
1%
#88000
b101111 "
b101101 "
b101100 "
0!
0#
0?
0@
11
0/
0F
00
1'
1C
0G
0%
#89000
1!
1#
1/
1F
10
0'
1G
1%
#90000
b101101 "
0!
0#
1?
0/
0F
00
1'
0C
0G
0%
#91000
1!
1#
1/
1F
10
0'
1G
1%
#92000
b101111 "
b101110 "
0!
0#
0?
1@
0/
0F
00
1'
0G
0%
#93000
1!
1#
1/
1F
10
0'
1G
1%
#94000
b101111 "
0!
0#
1?
0/
0F
00
1'
0G
0%
#95000
1!
1#
1/
1F
10
0'
1G
1%
#96000
b111111 "
b110111 "
b110011 "
b110001 "
b110000 "
0!
0#
0?
0@
01
09
1:
0/
0F
00
1'
1C
1=
0G
0%
#97000
1!
1#
1/
1F
10
0'
1G
1%
#98000
b110001 "
0!
0#
1?
0/
0F
00
1'
0C
0G
0%
#99000
1!
1#
1/
1F
10
0'
1G
1%
#100000
b110011 "
b110010 "
0!
0#
0?
1@
0/
0F
00
1'
0G
0%
#101000
1!
1#
1/
1F
10
0'
1G
1%
#102000
b110011 "
0!
0#
1?
0/
0F
00
1'
0G
0%
#103000
1!
1#
1/
1F
10
0'
1G
1%
#104000
b110111 "
b110101 "
b110100 "
0!
0#
0?
0@
11
0/
0F
00
1'
1C
0G
0%
#105000
1!
1#
1/
1F
10
0'
1G
1%
#106000
b110101 "
0!
0#
1?
0/
0F
00
1'
0C
0G
0%
#107000
1!
1#
1/
1F
10
0'
1G
1%
#108000
b110111 "
b110110 "
0!
0#
0?
1@
0/
0F
00
1'
0G
0%
#109000
1!
1#
1/
1F
10
0'
1G
1%
#110000
b110111 "
0!
0#
1?
0/
0F
00
1'
0G
0%
#111000
1!
1#
1/
1F
10
0'
1G
1%
#112000
b111111 "
b111011 "
b111001 "
b111000 "
0!
0#
0?
0@
01
19
0/
0F
00
1'
1C
0=
0G
0%
#113000
1!
1#
1/
1F
10
0'
1G
1%
#114000
b111001 "
0!
0#
1?
0/
0F
00
1'
0C
0G
0%
#115000
1!
1#
1/
1F
10
0'
1G
1%
#116000
b111011 "
b111010 "
0!
0#
0?
1@
0/
0F
00
1'
0G
0%
#117000
1!
1#
1/
1F
10
0'
1G
1%
#118000
b111011 "
0!
0#
1?
0/
0F
00
1'
0G
0%
#119000
1!
1#
1/
1F
10
0'
1G
1%
#120000
b111111 "
b111101 "
b111100 "
0!
0#
0?
0@
11
0/
0F
00
1'
1C
0G
0%
#121000
1!
1#
1/
1F
10
0'
1G
1%
#122000
b111101 "
0!
0#
1?
0/
0F
00
1'
0C
0G
0%
#123000
1!
1#
1/
1F
10
0'
1G
1%
#124000
b111111 "
b111110 "
0!
0#
0?
1@
0/
0F
00
1'
0G
0%
#125000
1!
1#
1/
1F
10
0'
1G
1%
#126000
b111111 "
0!
0#
1?
0/
0F
00
1'
0G
0%
#127000
1!
1#
1/
1F
10
0'
1G
1%
#128000
b1111111 "
b1011111 "
b1001111 "
b1000111 "
b1000011 "
b1000001 "
b1000000 "
0!
0#
0?
0@
01
09
0:
06
12
0/
0F
00
1'
1C
18
0G
0%
#129000
1!
1#
1/
1F
10
0'
1G
1%
#130000
b1000001 "
0!
0#
1?
0/
0F
00
1'
0C
0G
0%
#131000
1!
1#
1/
1F
10
0'
1G
1%
#132000
b1000011 "
b1000010 "
0!
0#
0?
1@
0/
0F
00
1'
0G
0%
#133000
1!
1#
1/
1F
10
0'
1G
1%
#134000
b1000011 "
0!
0#
1?
0/
0F
00
1'
0G
0%
#135000
1!
1#
1/
1F
10
0'
1G
1%
#136000
b1000111 "
b1000101 "
b1000100 "
0!
0#
0?
0@
11
0/
0F
00
1'
1C
0G
0%
#137000
1!
1#
1/
1F
10
0'
1G
1%
#138000
b1000101 "
0!
0#
1?
0/
0F
00
1'
0C
0G
0%
#139000
1!
1#
1/
1F
10
0'
1G
1%
#140000
b1000111 "
b1000110 "
0!
0#
0?
1@
0/
0F
00
1'
0G
0%
#141000
1!
1#
1/
1F
10
0'
1G
1%
#142000
b1000111 "
0!
0#
1?
0/
0F
00
1'
0G
0%
#143000
1!
1#
1/
1F
10
0'
1G
1%
#144000
b1001111 "
b1001011 "
b1001001 "
b1001000 "
0!
0#
0?
0@
01
19
0/
0F
00
1'
1C
0G
0%
#145000
1!
1#
1/
1F
10
0'
1G
1%
#146000
b1001001 "
0!
0#
1?
0/
0F
00
1'
0C
0G
0%
#147000
1!
1#
1/
1F
10
0'
1G
1%
#148000
b1001011 "
b1001010 "
0!
0#
0?
1@
0/
0F
00
1'
0G
0%
#149000
1!
1#
1/
1F
10
0'
1G
1%
#150000
b1001011 "
0!
0#
1?
0/
0F
00
1'
0G
0%
#151000
1!
1#
1/
1F
10
0'
1G
1%
#152000
b1001111 "
b1001101 "
b1001100 "
0!
0#
0?
0@
11
0/
0F
00
1'
1C
0G
0%
#153000
1!
1#
1/
1F
10
0'
1G
1%
#154000
b1001101 "
0!
0#
1?
0/
0F
00
1'
0C
0G
0%
#155000
1!
1#
1/
1F
10
0'
1G
1%
#156000
b1001111 "
b1001110 "
0!
0#
0?
1@
0/
0F
00
1'
0G
0%
#157000
1!
1#
1/
1F
10
0'
1G
1%
#158000
b1001111 "
0!
0#
1?
0/
0F
00
1'
0G
0%
#159000
1!
1#
1/
1F
10
0'
1G
1%
#160000
b1011111 "
b1010111 "
b1010011 "
b1010001 "
b1010000 "
0!
0#
0?
0@
01
09
1:
0/
0F
00
1'
1C
1=
0D
1E
0G
0%
#161000
1!
1#
1/
1F
10
0'
1H
1&
#162000
b1010001 "
0!
0#
1?
0/
0F
00
1'
0C
1D
0E
0H
0&
#163000
1!
1#
1/
1F
10
0'
1G
1%
#164000
b1010011 "
b1010010 "
0!
0#
0?
1@
0/
0F
00
1'
0G
0%
#165000
1!
1#
1/
1F
10
0'
1G
1%
#166000
b1010011 "
0!
0#
1?
0/
0F
00
1'
0G
0%
#167000
1!
1#
1/
1F
10
0'
1G
1%
#168000
b1010111 "
b1010101 "
b1010100 "
0!
0#
0?
0@
11
0/
0F
00
1'
1C
0G
0%
#169000
1!
1#
1/
1F
10
0'
1G
1%
#170000
b1010101 "
0!
0#
1?
0/
0F
00
1'
0C
0G
0%
#171000
1!
1#
1/
1F
10
0'
1G
1%
#172000
b1010111 "
b1010110 "
0!
0#
0?
1@
0/
0F
00
1'
0G
0%
#173000
1!
1#
1/
1F
10
0'
1G
1%
#174000
b1010111 "
0!
0#
1?
0/
0F
00
1'
0G
0%
#175000
1!
1#
1/
1F
10
0'
1G
1%
#176000
b1011111 "
b1011011 "
b1011001 "
b1011000 "
0!
0#
0?
0@
01
19
0/
0F
00
1'
1C
0=
0G
0%
#177000
1!
1#
1/
1F
10
0'
1G
1%
#178000
b1011001 "
0!
0#
1?
0/
0F
00
1'
0C
0G
0%
#179000
1!
1#
1/
1F
10
0'
1G
1%
#180000
b1011011 "
b1011010 "
0!
0#
0?
1@
0/
0F
00
1'
0G
0%
#181000
1!
1#
1/
1F
10
0'
1G
1%
#182000
b1011011 "
0!
0#
1?
0/
0F
00
1'
0G
0%
#183000
1!
1#
1/
1F
10
0'
1G
1%
#184000
b1011111 "
b1011101 "
b1011100 "
0!
0#
0?
0@
11
0/
0F
00
1'
1C
0G
0%
#185000
1!
1#
1/
1F
10
0'
1G
1%
#186000
b1011101 "
0!
0#
1?
0/
0F
00
1'
0C
0G
0%
#187000
1!
1#
1/
1F
10
0'
1G
1%
#188000
b1011111 "
b1011110 "
0!
0#
0?
1@
0/
0F
00
1'
0G
0%
#189000
1!
1#
1/
1F
10
0'
1G
1%
#190000
b1011111 "
0!
0#
1?
0/
0F
00
1'
0G
0%
#191000
1!
1#
1/
1F
10
0'
1G
1%
#192000
b1111111 "
b1101111 "
b1100111 "
b1100011 "
b1100001 "
b1100000 "
0!
0#
0?
0@
01
09
0:
16
0/
0F
00
1'
1C
08
0G
0%
#193000
1!
1#
1/
1F
10
0'
1G
1%
#194000
b1100001 "
0!
0#
1?
0/
0F
00
1'
0C
0G
0%
#195000
1!
1#
1/
1F
10
0'
1G
1%
#196000
b1100011 "
b1100010 "
0!
0#
0?
1@
0/
0F
00
1'
0G
0%
#197000
1!
1#
1/
1F
10
0'
1G
1%
#198000
b1100011 "
0!
0#
1?
0/
0F
00
1'
0G
0%
#199000
1!
1#
1/
1F
10
0'
1G
1%
#200000
b1100111 "
b1100101 "
b1100100 "
0!
0#
0?
0@
11
0/
0F
00
1'
1C
0G
0%
#201000
1!
1#
1/
1F
10
0'
1G
1%
#202000
b1100101 "
0!
0#
1?
0/
0F
00
1'
0C
0G
0%
#203000
1!
1#
1/
1F
10
0'
1G
1%
#204000
b1100111 "
b1100110 "
0!
0#
0?
1@
0/
0F
00
1'
0G
0%
#205000
1!
1#
1/
1F
10
0'
1G
1%
#206000
b1100111 "
0!
0#
1?
0/
0F
00
1'
0G
0%
#207000
1!
1#
1/
1F
10
0'
1G
1%
#208000
b1101111 "
b1101011 "
b1101001 "
b1101000 "
0!
0#
0?
0@
01
19
0/
0F
00
1'
1C
0G
0%
#209000
1!
1#
1/
1F
10
0'
1G
1%
#210000
b1101001 "
0!
0#
1?
0/
0F
00
1'
0C
0G
0%
#211000
1!
1#
1/
1F
10
0'
1G
1%
#212000
b1101011 "
b1101010 "
0!
0#
0?
1@
0/
0F
00
1'
0G
0%
#213000
1!
1#
1/
1F
10
0'
1G
1%
#214000
b1101011 "
0!
0#
1?
0/
0F
00
1'
0G
0%
#215000
1!
1#
1/
1F
10
0'
1G
1%
#216000
b1101111 "
b1101101 "
b1101100 "
0!
0#
0?
0@
11
0/
0F
00
1'
1C
0G
0%
#217000
1!
1#
1/
1F
10
0'
1G
1%
#218000
b1101101 "
0!
0#
1?
0/
0F
00
1'
0C
0G
0%
#219000
1!
1#
1/
1F
10
0'
1G
1%
#220000
b1101111 "
b1101110 "
0!
0#
0?
1@
0/
0F
00
1'
0G
0%
#221000
1!
1#
1/
1F
10
0'
1G
1%
#222000
b1101111 "
0!
0#
1?
0/
0F
00
1'
0G
0%
#223000
1!
1#
1/
1F
10
0'
1G
1%
#224000
b1111111 "
b1110111 "
b1110011 "
b1110001 "
b1110000 "
0!
0#
0?
0@
01
09
1:
0/
0F
00
1'
1C
1=
0G
0%
#225000
1!
1#
1/
1F
10
0'
1G
1%
#226000
b1110001 "
0!
0#
1?
0/
0F
00
1'
0C
0G
0%
#227000
1!
1#
1/
1F
10
0'
1G
1%
#228000
b1110011 "
b1110010 "
0!
0#
0?
1@
0/
0F
00
1'
0G
0%
#229000
1!
1#
1/
1F
10
0'
1G
1%
#230000
b1110011 "
0!
0#
1?
0/
0F
00
1'
0G
0%
#231000
1!
1#
1/
1F
10
0'
1G
1%
#232000
b1110111 "
b1110101 "
b1110100 "
0!
0#
0?
0@
11
0/
0F
00
1'
1C
0G
0%
#233000
1!
1#
1/
1F
10
0'
1G
1%
#234000
b1110101 "
0!
0#
1?
0/
0F
00
1'
0C
0G
0%
#235000
1!
1#
1/
1F
10
0'
1G
1%
#236000
b1110111 "
b1110110 "
0!
0#
0?
1@
0/
0F
00
1'
0G
0%
#237000
1!
1#
1/
1F
10
0'
1G
1%
#238000
b1110111 "
0!
0#
1?
0/
0F
00
1'
0G
0%
#239000
1!
1#
1/
1F
10
0'
1G
1%
#240000
b1111111 "
b1111011 "
b1111001 "
b1111000 "
0!
0#
0?
0@
01
19
0/
0F
00
1'
1C
0=
0G
0%
#241000
1!
1#
1/
1F
10
0'
1G
1%
#242000
b1111001 "
0!
0#
1?
0/
0F
00
1'
0C
0G
0%
#243000
1!
1#
1/
1F
10
0'
1G
1%
#244000
b1111011 "
b1111010 "
0!
0#
0?
1@
0/
0F
00
1'
0G
0%
#245000
1!
1#
1/
1F
10
0'
1G
1%
#246000
b1111011 "
0!
0#
1?
0/
0F
00
1'
0G
0%
#247000
1!
1#
1/
1F
10
0'
1G
1%
#248000
b1111111 "
b1111101 "
b1111100 "
0!
0#
0?
0@
11
0/
0F
00
1'
1C
0G
0%
#249000
1!
1#
1/
1F
10
0'
1G
1%
#250000
b1111101 "
0!
0#
1?
0/
0F
00
1'
0C
0G
0%
#251000
1!
1#
1/
1F
10
0'
1G
1%
#252000
b1111111 "
b1111110 "
0!
0#
0?
1@
0/
0F
00
1'
0G
0%
#253000
1!
1#
1/
1F
10
0'
1G
1%
#254000
b1111111 "
0!
0#
1?
0/
0F
00
1'
0G
0%
#255000
1!
1#
1/
1F
10
0'
1G
1%
#256000
b11111111 "
b10111111 "
b10011111 "
b10001111 "
b10000111 "
b10000011 "
b10000001 "
b10000000 "
0!
0#
0?
0@
01
09
0:
06
02
17
0/
0F
00
1'
1C
0G
0%
#257000
1!
1#
1/
1F
10
0'
1G
1%
#258000
b10000001 "
0!
0#
1?
0/
0F
00
1'
0C
0G
0%
#259000
1!
1#
1/
1F
10
0'
1G
1%
#260000
b10000011 "
b10000010 "
0!
0#
0?
1@
0/
0F
00
1'
0G
0%
#261000
1!
1#
1/
1F
10
0'
1G
1%
#262000
b10000011 "
0!
0#
1?
0/
0F
00
1'
0G
0%
#263000
1!
1#
1/
1F
10
0'
1G
1%
#264000
b10000111 "
b10000101 "
b10000100 "
0!
0#
0?
0@
11
0/
0F
00
1'
1C
0G
0%
#265000
1!
1#
1/
1F
10
0'
1G
1%
#266000
b10000101 "
0!
0#
1?
0/
0F
00
1'
0C
0G
0%
#267000
1!
1#
1/
1F
10
0'
1G
1%
#268000
b10000111 "
b10000110 "
0!
0#
0?
1@
0/
0F
00
1'
0G
0%
#269000
1!
1#
1/
1F
10
0'
1G
1%
#270000
b10000111 "
0!
0#
1?
0/
0F
00
1'
0G
0%
#271000
1!
1#
1/
1F
10
0'
1G
1%
#272000
b10001111 "
b10001011 "
b10001001 "
b10001000 "
0!
0#
0?
0@
01
19
0/
0F
00
1'
1C
0G
0%
#273000
1!
1#
1/
1F
10
0'
1G
1%
#274000
b10001001 "
0!
0#
1?
0/
0F
00
1'
0C
0G
0%
#275000
1!
1#
1/
1F
10
0'
1G
1%
#276000
b10001011 "
b10001010 "
0!
0#
0?
1@
0/
0F
00
1'
0G
0%
#277000
1!
1#
1/
1F
10
0'
1G
1%
#278000
b10001011 "
0!
0#
1?
0/
0F
00
1'
0G
0%
#279000
1!
1#
1/
1F
10
0'
1G
1%
#280000
b10001111 "
b10001101 "
b10001100 "
0!
0#
0?
0@
11
0/
0F
00
1'
1C
0G
0%
#281000
1!
1#
1/
1F
10
0'
1G
1%
#282000
b10001101 "
0!
0#
1?
0/
0F
00
1'
0C
0G
0%
#283000
1!
1#
1/
1F
10
0'
1G
1%
#284000
b10001111 "
b10001110 "
0!
0#
0?
1@
0/
0F
00
1'
0G
0%
#285000
1!
1#
1/
1F
10
0'
1G
1%
#286000
b10001111 "
0!
0#
1?
0/
0F
00
1'
0G
0%
#287000
1!
1#
1/
1F
10
0'
1G
1%
#288000
b10011111 "
b10010111 "
b10010011 "
b10010001 "
b10010000 "
0!
0#
0?
0@
01
09
1:
0/
0F
00
1'
1C
1=
0G
0%
#289000
1!
1#
1/
1F
10
0'
1G
1%
#290000
b10010001 "
0!
0#
1?
0/
0F
00
1'
0C
0G
0%
#291000
1!
1#
1/
1F
10
0'
1G
1%
#292000
b10010011 "
b10010010 "
0!
0#
0?
1@
0/
0F
00
1'
0G
0%
#293000
1!
1#
1/
1F
10
0'
1G
1%
#294000
b10010011 "
0!
0#
1?
0/
0F
00
1'
0G
0%
#295000
1!
1#
1/
1F
10
0'
1G
1%
#296000
b10010111 "
b10010101 "
b10010100 "
0!
0#
0?
0@
11
0/
0F
00
1'
1C
0G
0%
#297000
1!
1#
1/
1F
10
0'
1G
1%
#298000
b10010101 "
0!
0#
1?
0/
0F
00
1'
0C
0G
0%
#299000
1!
1#
1/
1F
10
0'
1G
1%
#300000
b10010111 "
b10010110 "
0!
0#
0?
1@
0/
0F
00
1'
0G
0%
#301000
1!
1#
1/
1F
10
0'
1G
1%
#302000
b10010111 "
0!
0#
1?
0/
0F
00
1'
0G
0%
#303000
1!
1#
1/
1F
10
0'
1G
1%
#304000
b10011111 "
b10011011 "
b10011001 "
b10011000 "
0!
0#
0?
0@
01
19
0/
0F
00
1'
1C
0=
0G
0%
#305000
1!
1#
1/
1F
10
0'
1G
1%
#306000
b10011001 "
0!
0#
1?
0/
0F
00
1'
0C
0G
0%
#307000
1!
1#
1/
1F
10
0'
1G
1%
#308000
b10011011 "
b10011010 "
0!
0#
0?
1@
0/
0F
00
1'
0G
0%
#309000
1!
1#
1/
1F
10
0'
1G
1%
#310000
b10011011 "
0!
0#
1?
0/
0F
00
1'
0G
0%
#311000
1!
1#
1/
1F
10
0'
1G
1%
#312000
b10011111 "
b10011101 "
b10011100 "
0!
0#
0?
0@
11
0/
0F
00
1'
1C
0G
0%
#313000
1!
1#
1/
1F
10
0'
1G
1%
#314000
b10011101 "
0!
0#
1?
0/
0F
00
1'
0C
0G
0%
#315000
1!
1#
1/
1F
10
0'
1G
1%
#316000
b10011111 "
b10011110 "
0!
0#
0?
1@
0/
0F
00
1'
0G
0%
#317000
1!
1#
1/
1F
10
0'
1G
1%
#318000
b10011111 "
0!
0#
1?
0/
0F
00
1'
0G
0%
#319000
1!
1#
1/
1F
10
0'
1G
1%
#320000
b10111111 "
b10101111 "
b10100111 "
b10100011 "
b10100001 "
b10100000 "
0!
0#
0?
0@
01
09
0:
16
0/
0F
00
1'
1C
0G
0%
#321000
1!
1#
1/
1F
10
0'
1G
1%
#322000
b10100001 "
0!
0#
1?
0/
0F
00
1'
0C
0G
0%
#323000
1!
1#
1/
1F
10
0'
1G
1%
#324000
b10100011 "
b10100010 "
0!
0#
0?
1@
0/
0F
00
1'
0G
0%
#325000
1!
1#
1/
1F
10
0'
1G
1%
#326000
b10100011 "
0!
0#
1?
0/
0F
00
1'
0G
0%
#327000
1!
1#
1/
1F
10
0'
1G
1%
#328000
b10100111 "
b10100101 "
b10100100 "
0!
0#
0?
0@
11
0/
0F
00
1'
1C
0G
0%
#329000
1!
1#
1/
1F
10
0'
1G
1%
#330000
b10100101 "
0!
0#
1?
0/
0F
00
1'
0C
0G
0%
#331000
1!
1#
1/
1F
10
0'
1G
1%
#332000
b10100111 "
b10100110 "
0!
0#
0?
1@
0/
0F
00
1'
0G
0%
#333000
1!
1#
1/
1F
10
0'
1G
1%
#334000
b10100111 "
0!
0#
1?
0/
0F
00
1'
0G
0%
#335000
1!
1#
1/
1F
10
0'
1G
1%
#336000
b10101111 "
b10101011 "
b10101001 "
b10101000 "
0!
0#
0?
0@
01
19
0/
0F
00
1'
1C
0G
0%
#337000
1!
1#
1/
1F
10
0'
1G
1%
#338000
b10101001 "
0!
0#
1?
0/
0F
00
1'
0C
0G
0%
#339000
1!
1#
1/
1F
10
0'
1G
1%
#340000
b10101011 "
b10101010 "
0!
0#
0?
1@
0/
0F
00
1'
0G
0%
#341000
1!
1#
1/
1F
10
0'
1G
1%
#342000
b10101011 "
0!
0#
1?
0/
0F
00
1'
0G
0%
#343000
1!
1#
1/
1F
10
0'
1G
1%
#344000
b10101111 "
b10101101 "
b10101100 "
0!
0#
0?
0@
11
0/
0F
00
1'
1C
0G
0%
#345000
1!
1#
1/
1F
10
0'
1G
1%
#346000
b10101101 "
0!
0#
1?
0/
0F
00
1'
0C
0G
0%
#347000
1!
1#
1/
1F
10
0'
1G
1%
#348000
b10101111 "
b10101110 "
0!
0#
0?
1@
0/
0F
00
1'
0G
0%
#349000
1!
1#
1/
1F
10
0'
1G
1%
#350000
b10101111 "
0!
0#
1?
0/
0F
00
1'
0G
0%
#351000
1!
1#
1/
1F
10
0'
1G
1%
#352000
b10111111 "
b10110111 "
b10110011 "
b10110001 "
b10110000 "
0!
0#
0?
0@
01
09
1:
0/
0F
00
1'
1C
1=
0G
0%
#353000
1!
1#
1/
1F
10
0'
1G
1%
#354000
b10110001 "
0!
0#
1?
0/
0F
00
1'
0C
0G
0%
#355000
1!
1#
1/
1F
10
0'
1G
1%
#356000
b10110011 "
b10110010 "
0!
0#
0?
1@
0/
0F
00
1'
0G
0%
#357000
1!
1#
1/
1F
10
0'
1G
1%
#358000
b10110011 "
0!
0#
1?
0/
0F
00
1'
0G
0%
#359000
1!
1#
1/
1F
10
0'
1G
1%
#360000
b10110111 "
b10110101 "
b10110100 "
0!
0#
0?
0@
11
0/
0F
00
1'
1C
0G
0%
#361000
1!
1#
1/
1F
10
0'
1G
1%
#362000
b10110101 "
0!
0#
1?
0/
0F
00
1'
0C
0G
0%
#363000
1!
1#
1/
1F
10
0'
1G
1%
#364000
b10110111 "
b10110110 "
0!
0#
0?
1@
0/
0F
00
1'
0G
0%
#365000
1!
1#
1/
1F
10
0'
1G
1%
#366000
b10110111 "
0!
0#
1?
0/
0F
00
1'
0G
0%
#367000
1!
1#
1/
1F
10
0'
1G
1%
#368000
b10111111 "
b10111011 "
b10111001 "
b10111000 "
0!
0#
0?
0@
01
19
0/
0F
00
1'
1C
0=
0G
0%
#369000
1!
1#
1/
1F
10
0'
1G
1%
#370000
b10111001 "
0!
0#
1?
0/
0F
00
1'
0C
0G
0%
#371000
1!
1#
1/
1F
10
0'
1G
1%
#372000
b10111011 "
b10111010 "
0!
0#
0?
1@
0/
0F
00
1'
0G
0%
#373000
1!
1#
1/
1F
10
0'
1G
1%
#374000
b10111011 "
0!
0#
1?
0/
0F
00
1'
0G
0%
#375000
1!
1#
1/
1F
10
0'
1G
1%
